0.0,0.0,0.0,0.0,0.0,0.0,0.0,-26.45,35.01,19.19,6.95,3.05,25.97,0.03
0.0,0.0,0.0,0.0,0.0,0.0,0.0,-26.45,35.01,19.19,6.95,3.05,25.97,0.01
0.0,0.0,0.0,0.0,0.0,0.0,0.0,-26.45,34.91,19.14,6.95,3.05,25.97,0.03
0.0,0.0,0.0,0.0,0.0,0.0,0.0,-26.45,35.01,19.14,7.0,3.05,25.98,0.01
0.0,0.0,0.0,0.0,0.0,0.0,0.0,-26.45,34.9,19.19,7.0,3.05,25.98,0.01
0.0,0.0,0.0,0.0,0.0,0.0,0.0,-26.45,35.01,19.18,6.95,3.05,25.98,0.03
0.0,0.0,0.0,0.0,0.0,0.0,0.0,-26.45,35.01,19.14,6.95,3.05,25.98,0.01
0.0,0.0,0.0,0.0,0.0,0.0,0.0,-26.45,34.9,19.18,7.0,3.05,25.98,0.01
0.0,0.0,0.0,0.0,0.0,0.0,0.0,-26.45,35.01,19.14,6.95,3.05,25.97,0.03
0.0,0.0,0.0,0.0,0.0,0.0,0.0,-26.45,35.01,19.18,6.95,3.05,25.97,0.01
0.0,0.0,0.0,0.0,0.0,0.0,0.0,-26.45,35.01,19.14,6.94,3.05,25.98,0.03
0.0,0.0,0.0,0.0,0.0,0.0,0.0,-26.45,35.01,19.18,6.95,3.04,25.98,0.03
0.0,0.0,0.0,0.0,0.0,0.0,0.0,-26.45,35.01,19.19,7.0,3.05,25.98,0.03
0.0,0.0,0.0,0.0,0.0,0.0,0.0,-26.45,35.01,19.19,7.0,3.05,25.98,0.01
0.0,0.0,0.0,0.0,0.0,0.0,0.0,-26.45,35.01,19.19,6.95,3.05,25.98,0.01
0.0,0.0,0.0,0.0,0.0,0.0,0.0,-26.45,34.9,19.14,6.95,3.05,25.98,0.03
0.0,0.0,0.0,0.0,0.0,0.0,0.0,-26.45,35.01,19.14,6.95,3.05,25.98,0.03
0.0,0.0,0.0,0.0,0.0,0.0,0.0,-26.45,34.91,19.13,7.0,3.05,25.97,0.03
0.0,0.0,0.0,0.0,0.0,0.0,0.0,-26.45,34.91,19.19,6.95,3.05,25.97,0.03
0.0,0.0,0.0,0.0,0.0,0.0,0.0,-26.45,35.01,19.19,7.0,3.05,25.97,0.03
0.0,0.0,0.0,0.0,0.0,0.0,0.0,-26.45,34.9,19.18,6.94,3.05,25.98,0.01
0.0,0.0,0.0,0.0,0.0,0.0,0.0,-26.45,35.01,19.18,6.95,3.05,25.98,0.03
0.0,0.0,0.0,0.0,0.0,0.0,0.0,-26.45,34.9,19.14,6.95,3.05,25.97,0.03
0.0,0.0,0.0,0.0,0.0,0.0,0.0,-26.45,34.9,19.14,6.95,3.05,25.97,0.01
0.0,0.0,0.0,0.0,0.0,0.0,0.0,-26.45,34.9,19.14,6.95,3.04,25.98,0.03
0.0,0.0,0.0,0.0,0.0,0.0,0.0,-26.45,35.01,19.19,6.95,3.05,25.97,0.03
0.0,0.0,0.0,0.0,0.0,0.0,0.0,-26.45,35.01,19.14,6.95,3.05,25.97,0.01
0.0,0.0,0.0,0.0,0.0,0.0,0.0,-26.45,34.9,19.19,6.95,3.05,25.97,0.03
0.0,0.0,0.0,0.0,0.0,0.0,0.0,-26.45,35.01,19.14,7.0,3.05,25.98,0.03
0.0,0.0,0.0,0.0,0.0,0.0,0.0,-26.45,35.01,19.19,7.0,3.05,25.97,0.01
0.0,0.0,0.0,0.0,0.0,0.0,0.0,-26.45,35.01,19.19,7.0,3.05,25.97,0.03
0.0,0.0,0.0,0.0,0.0,0.0,0.0,-26.45,35.01,19.14,7.0,3.05,25.97,0.01
0.0,0.0,0.0,0.0,0.0,0.0,0.0,-26.45,35.01,19.13,6.95,3.05,25.97,0.03
0.0,0.0,0.0,0.0,0.0,0.0,0.0,-26.45,34.91,19.19,7.0,3.05,25.97,0.03
0.0,0.0,0.0,0.0,0.0,0.0,0.0,-26.45,34.91,19.14,6.95,3.05,25.97,0.03
0.0,0.0,0.0,0.0,0.0,0.0,0.0,-26.45,35.01,19.19,6.95,3.05,25.97,0.01
0.0,0.0,0.0,0.0,0.0,0.0,0.0,-26.45,34.9,19.19,6.95,3.05,25.97,0.01
0.0,0.0,0.0,0.0,0.0,0.0,0.0,-26.45,35.01,19.19,6.94,3.05,25.97,0.03
0.0,0.0,0.0,0.0,0.0,0.0,0.0,-26.45,34.9,19.19,6.95,3.05,25.97,0.03
0.0,0.0,0.0,0.0,0.0,0.0,0.0,-26.45,34.91,19.19,6.95,3.05,25.98,0.03
0.0,0.0,0.0,0.0,0.0,0.0,0.0,-26.45,35.01,19.14,6.95,3.05,25.98,0.03
0.0,0.0,0.0,0.0,0.0,0.0,0.0,-26.45,34.9,19.19,6.95,3.05,25.98,0.03
0.0,0.0,0.0,0.0,0.0,0.0,0.0,-26.45,34.91,19.14,6.95,3.05,25.97,0.03
0.0,0.0,0.0,0.0,0.0,0.0,0.0,-26.45,35.01,19.13,6.95,3.05,25.98,0.03
0.0,0.0,0.0,0.0,0.0,0.0,0.0,-26.45,35.01,19.19,6.95,3.05,25.97,0.03
0.0,0.0,0.0,0.0,0.0,0.0,0.0,-26.45,35.01,19.19,6.95,3.05,25.97,0.01
0.0,0.0,0.0,0.0,0.0,0.0,0.0,-26.45,34.9,19.19,7.0,3.05,25.98,0.03
0.0,0.0,0.0,0.0,0.0,0.0,0.0,-26.45,35.01,19.19,7.0,3.05,25.97,0.03
0.0,0.0,0.0,0.0,0.0,0.0,0.0,-26.45,34.9,19.19,6.99,3.05,25.97,0.03
0.0,0.0,0.0,0.0,0.0,0.0,0.0,-26.45,35.01,19.19,6.95,3.05,25.97,0.03
0.0,0.0,0.0,0.0,0.0,0.0,0.0,-26.45,35.01,19.14,6.95,3.05,25.97,0.01
0.0,0.0,0.0,0.0,0.0,0.0,0.0,-26.45,34.91,19.14,6.94,3.05,25.97,0.03
0.0,0.0,0.0,0.0,0.0,0.0,0.0,-26.45,35.01,19.13,6.94,3.05,25.97,0.03
0.0,0.0,0.0,0.0,0.0,0.0,0.0,-26.45,35.01,19.19,6.94,3.05,25.98,0.01
0.0,0.0,0.0,0.0,0.0,0.0,0.0,-26.45,34.9,19.13,6.95,3.05,25.98,0.03
0.0,0.0,0.0,0.0,0.0,0.0,0.0,-26.45,35.01,19.19,7.0,3.05,25.98,0.03
0.0,0.0,0.0,0.0,0.0,0.0,0.0,-26.45,35.01,19.19,6.95,3.05,25.97,0.01
0.0,0.0,0.0,0.0,0.0,0.0,0.0,-26.45,35.01,19.13,6.95,3.05,25.98,0.03
0.0,0.0,0.0,0.0,0.0,0.0,0.0,-26.45,34.91,19.19,6.94,3.05,25.98,0.03
0.0,0.0,0.0,0.0,0.0,0.0,0.0,-26.45,34.91,19.19,6.95,3.05,25.97,0.03
0.0,0.0,0.0,0.0,0.0,0.0,0.0,-26.45,35.01,19.19,7.0,3.05,25.98,0.03
0.0,0.0,0.0,0.0,0.0,0.0,0.0,-26.45,34.9,19.14,6.95,3.04,25.98,0.03
0.0,0.0,0.0,0.0,0.0,0.0,0.0,-26.45,34.91,19.19,6.95,3.05,25.98,0.03
0.0,0.0,0.0,0.0,0.0,0.0,0.0,-26.45,35.01,19.13,6.95,3.05,25.98,0.01
0.0,0.0,0.0,0.0,0.0,0.0,0.0,-26.45,35.01,19.19,6.95,3.05,25.98,0.03
0.0,0.0,0.0,0.0,0.0,0.0,0.0,-26.45,35.01,19.19,7.0,3.05,25.98,0.03
0.0,0.0,0.0,0.0,0.0,0.0,0.0,-26.45,35.01,19.14,6.95,3.05,25.97,0.01
0.0,0.0,0.0,0.0,0.0,0.0,0.0,-26.45,35.01,19.14,6.95,3.05,25.97,0.03
0.0,0.0,0.0,0.0,0.0,0.0,0.0,-26.45,35.01,19.19,6.95,3.05,25.98,0.03
0.0,0.0,0.0,0.0,0.0,0.0,0.0,-26.45,34.9,19.19,6.95,3.05,25.97,0.03
0.0,0.0,0.0,0.0,0.0,0.0,0.0,-26.45,35.01,19.18,6.94,3.05,25.98,0.03
0.0,0.0,0.0,0.0,0.0,0.0,0.0,-26.45,35.01,19.19,7.0,3.05,25.97,0.03
0.0,0.0,0.0,0.0,0.0,0.0,0.0,-26.45,35.01,19.19,7.0,3.05,25.97,0.03
0.0,0.0,0.0,0.0,0.0,0.0,0.0,-26.45,35.01,19.14,6.95,3.05,25.97,0.03
0.0,0.0,0.0,0.0,0.0,0.0,0.0,-26.45,35.01,19.18,7.0,3.05,25.97,0.03
0.0,0.0,0.0,0.0,0.0,0.0,0.0,-26.45,35.01,19.14,6.95,3.05,25.98,0.03
0.0,0.0,0.0,0.0,0.0,0.0,0.0,-26.45,35.01,19.14,7.0,3.05,25.97,0.01
0.0,0.0,0.0,0.0,0.0,0.0,0.0,-26.45,34.9,19.18,6.95,3.05,25.97,0.03
0.0,0.0,0.0,0.0,0.0,0.0,0.0,-26.45,35.01,19.19,6.95,3.05,25.97,0.03
0.0,0.0,0.0,0.0,0.0,0.0,0.0,-26.45,35.01,19.14,6.95,3.05,25.97,0.01
0.0,0.0,0.0,0.0,0.0,0.0,0.0,-26.45,35.01,19.19,7.0,3.05,25.97,0.03
0.0,0.0,0.0,0.0,0.0,0.0,0.0,-26.45,35.01,19.18,6.95,3.05,25.97,0.03
0.0,0.0,0.0,0.0,0.0,0.0,0.0,-26.45,35.01,19.14,6.95,3.04,25.98,0.03
0.0,0.0,0.0,0.0,0.0,0.0,0.0,-26.45,34.91,19.14,6.95,3.05,25.97,0.03
0.0,0.0,0.0,0.0,0.0,0.0,0.0,-26.45,34.9,19.13,6.95,3.05,25.97,0.03
0.0,0.0,0.0,0.0,0.0,0.0,0.0,-26.45,35.01,19.18,7.0,3.05,25.97,0.01
0.0,0.0,0.0,0.0,0.0,0.0,0.0,-26.45,35.01,19.14,7.0,3.05,25.98,0.01
0.0,0.0,0.0,0.0,0.0,0.0,0.0,-26.45,35.01,19.18,7.0,3.05,25.97,0.03
0.0,0.0,0.0,0.0,0.0,0.0,0.0,-26.45,35.01,19.14,6.95,3.05,25.97,0.03
0.0,0.0,0.0,0.0,0.0,0.0,0.0,-26.45,35.01,19.14,6.95,3.05,25.98,0.03
0.0,0.0,0.0,0.0,0.0,0.0,0.0,-26.45,35.01,19.14,6.95,3.05,25.98,0.03
0.0,0.0,0.0,0.0,0.0,0.0,0.0,-26.45,35.01,19.19,6.95,3.05,25.97,0.03
0.0,0.0,0.0,0.0,0.0,0.0,0.0,-26.45,35.01,19.14,6.95,3.05,25.98,0.01
0.0,0.0,0.0,0.0,0.0,0.0,0.0,-26.34,35.01,19.19,6.95,3.06,25.98,0.03
0.0,0.0,0.0,0.0,0.0,0.0,0.0,-26.45,35.01,19.14,6.95,3.05,25.97,0.03
0.0,0.0,0.0,0.0,0.0,0.0,0.0,-26.45,35.01,19.18,6.95,3.05,25.97,0.01
0.0,0.0,0.0,0.0,0.0,0.0,0.0,-26.45,35.01,19.19,6.95,3.05,25.97,0.03
0.0,0.0,0.0,0.0,0.0,0.0,0.0,-26.45,35.01,19.19,6.95,3.05,25.98,0.03
0.0,0.0,0.0,0.0,0.0,0.0,0.0,-26.45,35.01,19.14,7.0,3.05,25.97,0.03
0.0,0.0,0.0,0.0,0.0,0.0,0.0,-26.45,35.01,19.14,6.95,3.05,25.98,0.03
0.0,0.0,0.0,0.0,0.0,0.0,0.0,-26.45,34.9,19.19,6.95,3.05,25.98,0.03
0.0,0.0,0.0,0.0,0.0,0.0,0.0,-26.45,35.01,19.14,6.95,3.05,25.97,0.03
0.0,0.0,0.0,0.0,0.0,0.0,0.0,-26.45,35.01,19.19,6.95,3.05,25.97,0.03
0.0,0.0,0.0,0.0,0.0,0.0,0.0,-26.45,35.01,19.14,6.94,3.05,25.97,0.01
0.0,0.0,0.0,0.0,0.0,0.0,0.0,-26.45,35.01,19.13,6.95,3.05,25.98,0.03
0.0,0.0,0.0,0.0,0.0,0.0,0.0,-26.45,35.01,19.19,6.95,3.05,25.97,0.03
0.0,0.0,0.0,0.0,0.0,0.0,0.0,-26.45,34.9,19.14,6.95,3.05,25.98,0.01
0.0,0.0,0.0,0.0,0.0,0.0,0.0,-26.45,35.01,19.19,6.95,3.05,25.97,0.01
0.0,0.0,0.0,0.0,0.0,0.0,0.0,-26.45,35.01,19.14,6.95,3.05,25.98,0.03
0.0,0.0,0.0,0.0,0.0,0.0,0.0,-26.45,34.9,19.19,6.95,3.05,25.98,0.01
0.0,0.0,0.0,0.0,0.0,0.0,0.0,-26.45,34.91,19.14,6.94,3.05,25.97,0.03
0.0,0.0,0.0,0.0,0.0,0.0,0.0,-26.45,35.01,19.19,6.95,3.05,25.98,0.01
0.0,0.0,0.0,0.0,0.0,0.0,0.0,-26.45,34.91,19.14,6.95,3.05,25.98,0.03
0.0,0.0,0.0,0.0,0.0,0.0,0.0,-26.45,34.9,19.18,6.95,3.05,25.98,0.03
0.0,0.0,0.0,0.0,0.0,0.0,0.0,-26.45,35.01,19.14,7.0,3.05,25.98,0.03
0.0,0.0,0.0,0.0,0.0,0.0,0.0,-26.45,35.01,19.18,6.95,3.05,25.97,0.03
0.0,0.0,0.0,0.0,0.0,0.0,0.0,-26.45,35.01,19.19,6.95,3.05,25.97,0.03
0.0,0.0,0.0,0.0,0.0,0.0,0.0,-26.45,35.01,19.19,7.0,3.05,25.98,0.01
0.0,0.0,0.0,0.0,0.0,0.0,0.0,-26.45,35.01,19.14,6.95,3.05,25.97,0.03
0.0,0.0,0.0,0.0,0.0,0.0,0.0,-26.45,35.01,19.18,6.95,3.05,25.98,0.01
0.0,0.0,0.0,0.0,0.0,0.0,0.0,-26.45,35.01,19.14,6.95,3.05,25.97,0.01
0.0,0.0,0.0,0.0,0.0,0.0,0.0,-26.45,35.01,19.19,6.95,3.05,25.98,0.03
0.0,0.0,0.0,0.0,0.0,0.0,0.0,-26.45,34.91,19.13,7.0,3.05,25.98,0.01
0.0,0.0,0.0,0.0,0.0,0.0,0.0,-26.45,35.01,19.19,6.95,3.05,25.97,0.01
0.0,0.0,0.0,0.0,0.0,0.0,0.0,-26.45,35.01,19.14,6.95,3.05,25.97,0.03
0.0,0.0,0.0,0.0,0.0,0.0,0.0,-26.45,35.01,19.19,6.95,3.05,25.97,0.03
0.0,0.0,0.0,0.0,0.0,0.0,0.0,-26.34,35.01,19.19,6.95,3.05,25.97,0.01
0.0,0.0,0.0,0.0,0.0,0.0,0.0,-26.45,34.9,19.19,7.0,3.05,25.97,0.03
0.0,0.0,0.0,0.0,0.0,0.0,0.0,-26.45,35.01,19.14,7.0,3.05,25.98,0.01
0.0,0.0,0.0,0.0,0.0,0.0,0.0,-26.45,35.01,19.14,7.0,3.05,25.97,0.03
0.0,0.0,0.0,0.0,0.0,0.0,0.0,-26.45,35.01,19.14,7.0,3.05,25.98,0.01
0.0,0.0,0.0,0.0,0.0,0.0,0.0,-26.45,35.01,19.14,6.95,3.05,25.97,0.03
0.0,0.0,0.0,0.0,0.0,0.0,0.0,-26.45,35.01,19.18,6.99,3.06,25.98,0.03
0.0,0.0,0.0,0.0,0.0,0.0,0.0,-26.45,35.01,19.19,7.0,3.05,25.97,0.01
0.0,0.0,0.0,0.0,0.0,0.0,0.0,-26.45,34.9,19.19,7.0,3.05,25.98,0.03
0.0,0.0,0.0,0.0,0.0,0.0,0.0,-26.45,35.01,19.13,6.95,3.0,25.97,0.03
0.0,0.0,0.0,0.0,0.0,0.0,0.0,-26.34,34.9,19.14,6.95,3.0,25.98,0.03
0.0,0.0,0.0,0.0,0.0,0.0,0.0,-26.45,35.01,19.19,6.95,3.05,25.97,0.01
0.0,0.0,0.0,0.0,0.0,0.0,0.0,-26.45,35.01,19.19,6.95,3.0,25.97,0.01
0.0,0.0,0.0,0.0,0.0,0.0,0.0,-26.45,35.01,19.14,6.95,3.05,25.97,0.03
0.0,0.0,0.0,0.0,0.0,0.0,0.0,-26.45,35.01,19.14,6.94,3.05,25.97,0.03
0.0,0.0,0.0,0.0,0.0,0.0,0.0,-26.45,35.01,19.14,6.95,3.05,25.97,0.03
0.0,0.0,0.0,0.0,0.0,0.0,0.0,-26.45,35.01,19.14,6.94,3.05,25.98,0.01
0.0,0.0,0.0,0.0,0.0,0.0,0.0,-26.45,35.01,19.13,7.0,3.05,25.98,0.03
0.0,0.0,0.0,0.0,0.0,0.0,0.0,-26.45,35.01,19.19,6.95,3.05,25.97,0.03
0.0,0.0,0.0,0.0,0.0,0.0,0.0,-26.45,35.01,19.19,6.95,3.05,25.97,0.03
0.0,0.0,0.0,0.0,0.0,0.0,0.0,-26.45,34.9,19.19,6.95,3.05,25.98,0.03
0.0,0.0,0.0,0.0,0.0,0.0,0.0,-26.45,35.01,19.13,6.95,3.0,25.98,0.03
0.0,0.0,0.0,0.0,0.0,0.0,0.0,-26.45,35.01,19.14,6.95,3.05,25.97,0.01
0.0,0.0,0.0,0.0,0.0,0.0,0.0,-26.45,35.01,19.19,6.95,3.05,25.97,0.01
0.0,0.0,0.0,0.0,0.0,0.0,0.0,-26.45,35.01,19.18,6.95,3.05,25.98,0.01
0.0,0.0,0.0,0.0,0.0,0.0,0.0,-26.45,34.9,19.14,6.95,3.05,25.98,0.03
0.0,0.0,0.0,0.0,0.0,0.0,0.0,-26.45,35.01,19.14,6.95,3.05,25.97,0.03
0.0,0.0,0.0,0.0,0.0,0.0,0.0,-26.45,35.01,19.14,6.95,3.05,25.97,0.01
0.0,0.0,0.0,0.0,0.0,0.0,0.0,-26.45,35.01,19.19,6.95,3.05,25.97,0.03
0.0,0.0,0.0,0.0,0.0,0.0,0.0,-26.45,35.01,19.19,6.95,3.05,25.97,0.01
0.0,0.0,0.0,0.0,0.0,0.0,0.0,-26.45,35.01,19.13,6.95,3.05,25.98,0.03
0.0,0.0,0.0,0.0,0.0,0.0,0.0,-26.45,35.01,19.18,6.95,3.05,25.98,0.01
0.0,0.0,0.0,0.0,0.0,0.0,0.0,-26.45,35.01,19.19,7.0,3.05,25.97,0.03
0.0,0.0,0.0,0.0,0.0,0.0,0.0,-26.45,35.01,19.13,6.95,3.05,25.98,0.03
0.0,0.0,0.0,0.0,0.0,0.0,0.0,-26.45,35.01,19.19,6.95,3.05,25.98,0.03
0.0,0.0,0.0,0.0,0.0,0.0,0.0,-26.45,35.01,19.13,6.94,3.05,25.98,0.03
0.0,0.0,0.0,0.0,0.0,0.0,0.0,-26.45,35.01,19.14,6.95,3.05,25.98,0.01
0.0,0.0,0.0,0.0,0.0,0.0,0.0,-26.45,35.01,19.14,6.95,3.05,25.98,0.03
0.0,0.0,0.0,0.0,0.0,0.0,0.0,-26.45,35.01,19.19,7.0,3.05,25.98,0.01
-0.00232697350113,0.0124585791969,-0.0221379373078,-0.0159007126262,-0.00875856006122,0.0200222902099,-0.019092304405,-26.34,35.43,18.5,6.41,2.91,26.06,0.0
-0.00349920827238,0.0193661201569,-0.0366276312111,-0.0252644081162,-0.013374186334,0.0325785458564,-0.0308636919385,-25.93,35.22,18.5,6.32,2.96,26.0,-0.03
-0.003436811603,0.0190217396719,-0.0359744999832,-0.0248137577427,-0.0131340548867,0.0319976165154,-0.0303133412785,-26.03,35.85,18.69,6.27,3.0,26.0,-0.06
-0.00370196817138,0.0204928016795,-0.0387500012511,-0.026727655116,-0.0141413012997,0.0344662936409,-0.0326520733579,-26.45,36.06,18.75,6.03,2.96,26.04,-0.09
-0.00409164903152,0.0226499386984,-0.0428289487513,-0.0295410924966,-0.0156298593312,0.0380943245505,-0.0360891337114,-26.55,36.26,18.79,5.92,2.96,26.06,-0.1
-0.00426439985808,0.0229689993842,-0.0433441120703,-0.0302825374738,-0.0162648811007,0.0385321504203,-0.0376183572765,-26.55,36.47,18.49,5.88,2.86,26.03,-0.12
-0.00497969906316,0.0265597245479,-0.0500828079394,-0.0351540646406,-0.0189828800697,0.0445140984127,-0.0439306346355,-26.45,36.16,18.5,5.78,2.86,26.06,-0.13
-0.00480732878829,0.0255272007091,-0.0478833255743,-0.033793905745,-0.0185007798437,0.0424668578039,-0.0425257472892,-26.45,36.26,18.5,6.03,2.81,26.0,-0.15
-0.00487027381091,0.0254371907273,-0.0467637692396,-0.0336991267532,-0.0193990047178,0.0411244905249,-0.0435164998389,-26.55,36.38,18.4,5.93,2.72,26.1,-0.15
-0.00538293421206,0.0281147897513,-0.0516862712648,-0.0372464032536,-0.0214410052144,0.0454533842644,-0.0480971840325,-26.66,36.37,18.5,5.93,2.72,26.1,-0.18
-0.00513586717554,0.0248698952703,-0.044552819368,-0.0326926921453,-0.0210434850838,0.0385205793964,-0.0412459752291,-26.76,36.47,18.6,6.16,2.72,26.1,-0.15
-0.00551217754841,0.0258581070782,-0.0457855328941,-0.033874431179,-0.0228356755027,0.0392748483584,-0.0422865379162,-26.66,36.26,18.44,5.98,2.62,26.22,-0.15
-0.00586136085403,0.0274361554801,-0.0486086748473,-0.0358425445708,-0.0241808807189,0.0417273287508,-0.0446531676131,-26.66,36.58,18.4,5.93,2.62,26.22,-0.13
-0.00579275386303,0.0268893102175,-0.0477490739479,-0.0347543619952,-0.023516481404,0.0411054181326,-0.0429563944975,-26.66,36.38,18.4,6.07,2.62,26.18,-0.13
-0.00579275386303,0.0268893102175,-0.0477490739479,-0.0347543619952,-0.023516481404,0.0411054181326,-0.0429563944975,-26.66,36.26,18.45,5.83,2.57,26.21,-0.12
-0.005722401263,0.0263560594886,-0.0468506382176,-0.0338435796778,-0.0223999587907,0.0404754752494,-0.041798064436,-26.66,36.47,18.35,5.93,2.52,26.16,-0.12
-0.00610099309606,0.0280100991397,-0.0498120684915,-0.0358706429473,-0.0235214461558,0.043096605103,-0.044287213298,-26.66,36.26,18.4,6.07,2.57,26.15,-0.1
-0.0064257425361,0.0295390105952,-0.0526432849191,-0.0378218969774,-0.0245818517316,0.0456675079268,-0.0466416967093,-26.66,36.26,18.3,5.92,2.48,26.16,-0.1
-0.00553560898012,0.0255775319809,-0.0459685361235,-0.0327265399151,-0.0205182005207,0.0402928858363,-0.040170710351,-26.76,36.37,18.25,5.93,2.48,26.16,-0.1
-0.00582695682118,0.0269237178746,-0.0483879327616,-0.0344489893843,-0.0215981058112,0.0424135640382,-0.0422849582642,-26.66,36.05,18.25,5.97,2.52,26.07,-0.09
-0.00648034932269,0.0304432170424,-0.055510174554,-0.0391268059401,-0.0237659234236,0.0486845544143,-0.0478088807505,-26.66,36.16,18.3,5.92,2.48,26.09,-0.1
-0.00590110565479,0.0279058147554,-0.051171261608,-0.0359286924805,-0.0215483422795,0.0448891697693,-0.0438227674455,-26.76,36.37,18.4,6.07,2.48,26.06,-0.1
-0.00591001451112,0.0280991976997,-0.0517040049385,-0.0362400729504,-0.021477520444,0.0453223727928,-0.0441548001832,-26.66,36.37,18.25,5.88,2.48,26.1,-0.1
-0.00592655953002,0.0284583374535,-0.0526933854093,-0.036818350966,-0.0213459941781,0.0461268926937,-0.0447714324103,-26.66,36.27,18.35,5.93,2.47,26.04,-0.13
-0.00592655953002,0.0284583374535,-0.0526933854093,-0.036818350966,-0.0213459941781,0.0461268926937,-0.0447714324103,-26.76,36.38,18.25,5.98,2.48,26.0,-0.13
-0.00629829341843,0.030884582707,-0.0576289448537,-0.0400484190873,-0.0227921065039,0.0505572020645,-0.0488324850339,-26.66,36.16,18.2,5.93,2.43,25.97,-0.15
-0.00635698824292,0.0312676740628,-0.0584082437134,-0.0405584298433,-0.023020440029,0.0512567245967,-0.0494737038692,-26.66,36.05,18.16,6.12,2.48,26.03,-0.15
-0.00571448093939,0.0285215134834,-0.0532027447632,-0.0370203038956,-0.0208043431575,0.0467842102501,-0.0451240721611,-26.55,36.26,18.16,5.98,2.48,26.03,-0.17
-0.00678855157598,0.0341927787734,-0.0637257697307,-0.0443992295589,-0.0247975698351,0.0561084611593,-0.0540933064516,-26.76,36.26,18.2,6.03,2.48,26.04,-0.18
-0.00616851870485,0.0312436373214,-0.0583177285642,-0.0405956158922,-0.022587334128,0.0514196992549,-0.0494184169142,-26.66,36.17,18.11,5.93,2.43,26.12,-0.2
-0.00608529139723,0.0313112395658,-0.0586910528848,-0.0407557448223,-0.0224363433253,0.0519523564659,-0.0494992703888,-26.66,36.06,18.1,6.12,2.48,26.1,-0.2
-0.00608529139723,0.0313112395658,-0.0586910528848,-0.0407557448223,-0.0224363433253,0.0519523564659,-0.0494992703888,-26.76,36.16,18.05,6.07,2.48,26.13,-0.18
-0.00650828022086,0.0339036439151,-0.0637906684127,-0.0441672360761,-0.024164592252,0.0564944937537,-0.0538811588532,-26.55,36.17,17.96,5.73,2.43,26.21,-0.17
-0.00664927649541,0.0347677786983,-0.0654905402553,-0.0453043998274,-0.0247406752276,0.0580085395163,-0.0553417883413,-26.55,36.05,18.11,5.93,2.48,26.25,-0.15
-0.00668110263058,0.0350718483293,-0.0660795041836,-0.0456740835286,-0.0249341939348,0.0586269412336,-0.0558008666167,-26.45,36.16,18.11,5.88,2.43,26.22,-0.12
-0.00677021580908,0.0359232432963,-0.0677286031829,-0.0467091978917,-0.0254760463148,0.0603584660419,-0.0570862857878,-26.66,35.95,17.96,6.07,2.43,26.19,-0.12
-0.00677021580908,0.0359232432963,-0.0677286031829,-0.0467091978917,-0.0254760463148,0.0603584660419,-0.0570862857878,-26.45,35.96,17.9,5.93,2.48,26.16,-0.1
-0.00648669880313,0.0349983656722,-0.0661427556201,-0.0457254283912,-0.0243555059739,0.0589739824003,-0.0556093259996,-26.55,36.05,18.11,6.17,2.48,26.09,-0.09
-0.00641998891937,0.0347807474077,-0.065769615017,-0.0454939532146,-0.0240918494231,0.0586482215434,-0.0552618060494,-26.55,35.95,18.05,5.93,2.48,26.15,-0.1
-0.00647044768046,0.0351517891032,-0.0665182713197,-0.0459911658195,-0.0244604119248,0.0591850127128,-0.0559150626244,-26.76,36.05,17.95,6.17,2.48,26.04,-0.09
-0.00652595231765,0.0355599349682,-0.0673417932526,-0.0465380996848,-0.0248658306766,0.0597754829992,-0.0566336448569,-26.66,35.84,18.05,5.93,2.48,26.06,-0.12
-0.00652595231765,0.0355599349682,-0.0673417932526,-0.0465380996848,-0.0248658306766,0.0597754829992,-0.0566336448569,-26.55,35.84,17.9,6.07,2.48,26.04,-0.13
-0.00667346949327,0.0362818958546,-0.0686908503699,-0.0473806936513,-0.0250017113391,0.0609180341335,-0.0577952650385,-26.45,35.95,17.86,5.98,2.48,26.04,-0.15
-0.00668084535205,0.0363179938989,-0.0687583032257,-0.0474228233496,-0.0250085053722,0.0609751616902,-0.0578533460476,-26.55,35.95,17.96,6.16,2.48,26.1,-0.15
-0.00712812456042,0.0385979236219,-0.0730203945275,-0.0503910131943,-0.0265624439048,0.0648161838398,-0.0614665423605,-26.66,35.95,17.62,5.73,2.43,26.19,-0.17
-0.00767479914843,0.0413845043945,-0.0782296172297,-0.0540188007823,-0.0284617021113,0.069510766467,-0.0658826711875,-26.45,35.74,17.81,6.12,2.43,26.06,-0.2
-0.00767479914843,0.0413845043945,-0.0782296172297,-0.0540188007823,-0.0284617021113,0.069510766467,-0.0658826711875,-26.55,35.84,17.85,5.97,2.43,26.22,-0.2
-0.00767447682505,0.0411750893408,-0.0777748829892,-0.053753726073,-0.0284970945649,0.0692748135908,-0.0655346640866,-26.55,35.95,17.81,6.22,2.48,26.18,-0.18
-0.00734078923821,0.0393753294913,-0.0743726538048,-0.0514045337518,-0.027259702532,0.0662521178378,-0.0626694796104,-26.45,35.85,17.62,6.03,2.38,26.25,-0.15
-0.00766833604877,0.041513226798,-0.078530577257,-0.0542783276616,-0.0286462820875,0.0699206360324,-0.0662603783774,-26.55,35.64,17.66,5.98,2.42,26.24,-0.13
-0.00806846078067,0.043895442558,-0.0831043677972,-0.057439581292,-0.0302375856122,0.0739730912123,-0.0701684956525,-26.34,35.53,17.66,6.22,2.43,26.24,-0.12
-0.00774155476808,0.0421360576562,-0.0797688974272,-0.0551089052822,-0.0290984000202,0.0710077978079,-0.0673465586679,-26.45,35.85,17.67,6.07,2.43,26.24,-0.1
-0.00778585833456,0.0424792875597,-0.0803944154351,-0.0554059897708,-0.0297241246878,0.0715842962158,-0.0678444344666,-26.34,35.74,17.67,5.98,2.43,26.16,-0.09
-0.00780355346714,0.042575831395,-0.0805771300156,-0.0555319124748,-0.0297916795167,0.0717469877981,-0.0679986263631,-26.24,35.84,17.62,5.93,2.43,26.1,-0.09
-0.00929971888784,0.0509431997709,-0.0966688972783,-0.0664858002993,-0.03551375432,0.0860087709732,-0.0813028319003,-26.14,35.96,17.66,5.58,2.43,26.09,-0.1
-0.00867592773224,0.0475828464792,-0.0903631484295,-0.0621113511226,-0.0331344402014,0.0803800350644,-0.0759234313983,-25.61,36.68,18.01,5.73,2.43,25.94,-0.12
-0.00788214897554,0.0437733760418,-0.0828857085631,-0.0572399512981,-0.0304748761745,0.0736774489641,-0.0697647863648,-25.3,37.0,18.65,5.35,2.48,26.13,-0.15
-0.00837389110779,0.0469215790758,-0.0886627951703,-0.0614333631456,-0.0326614704365,0.0787737931735,-0.0747215168065,-25.51,38.04,18.89,5.01,2.48,26.18,-0.15
-0.00815204692338,0.0461933470481,-0.0871015791083,-0.0604645713897,-0.031961216337,0.0773800606039,-0.0734294186719,-24.78,38.67,19.04,4.33,2.38,26.27,-0.18
-0.00850764201754,0.0494729386173,-0.0928357992978,-0.0647201314723,-0.0337607409182,0.0824580980032,-0.0783210773361,-24.47,38.88,19.33,3.84,2.38,26.27,-0.21
-0.00850764201754,0.0494729386173,-0.0928357992978,-0.0647201314723,-0.0337607409182,0.0824580980032,-0.0783210773361,-23.95,39.41,19.78,3.74,2.33,26.19,-0.2
-0.00864394466471,0.0541784722896,-0.0992681603597,-0.0703020011148,-0.036516595281,0.0891439337476,-0.0845469104878,-23.74,40.25,20.07,2.91,2.28,26.42,-0.18
-0.00827559893375,0.0530923652511,-0.0965831244892,-0.0687263088847,-0.0356525841923,0.0870214720594,-0.0824973221,-23.12,40.98,20.85,2.82,2.38,26.25,-0.13
-0.00883779837461,0.059206029707,-0.106341478826,-0.0765533127166,-0.0396727988366,0.0963809694075,-0.091315710474,-22.28,42.24,21.5,2.38,2.43,26.27,-0.12
-0.00771732057243,0.0556120561436,-0.0978486563264,-0.0717763838674,-0.0371371610808,0.0895422340146,-0.0847543405109,-21.55,43.39,22.33,1.81,2.48,26.13,-0.1
-0.00852967010637,0.0614659567903,-0.108148514887,-0.0793317926955,-0.0410463359314,0.0989677323319,-0.0936758500383,-20.62,44.44,23.11,1.13,2.57,26.15,-0.12
-0.00720960141912,0.0609248675092,-0.103950451774,-0.078644331164,-0.0395913075157,0.0963685168935,-0.0911076707284,-19.58,45.7,23.96,0.54,2.57,26.07,-0.13
-0.0067878209937,0.0578382422562,-0.0985366609633,-0.0746604829602,-0.0375358470961,0.0914077662181,-0.0864127434202,-19.16,45.9,24.69,0.1,2.61,26.13,-0.13
-0.0054072973966,0.0607457639387,-0.0991853936892,-0.0776380423321,-0.0381556725204,0.0933387632088,-0.088300909069,-18.53,46.85,24.79,-0.51,2.57,26.16,-0.18
-0.00277086025147,0.0602871929412,-0.0916522735728,-0.0758826744764,-0.0359574233988,0.0886179448434,-0.0839320955905,-17.7,47.37,25.28,-1.05,2.57,26.4,-0.2
-0.00277086025147,0.0602871929412,-0.0916522735728,-0.0758826744764,-0.0359574233988,0.0886179448434,-0.0839320955905,-17.18,47.68,25.33,-1.49,2.52,26.34,-0.21
-0.00141019617046,0.0672963492445,-0.0990541922536,-0.0840701836611,-0.0394720719487,0.0971950182851,-0.09199720756,-16.56,48.1,25.33,-2.16,2.43,26.34,-0.2
-0.00125901127257,0.0680751443893,-0.0998766276625,-0.0849799069038,-0.0398625884542,0.0981480264453,-0.0928933311122,-16.04,48.31,25.72,-2.4,2.52,26.4,-0.15
-0.000416714205809,0.0692149260012,-0.100405173903,-0.0863174695714,-0.0401827178471,0.0993228959148,-0.0939377486566,-15.72,48.73,25.97,-2.79,2.48,26.37,-0.12
0.000706348549873,0.070734634817,-0.101109902225,-0.0881008864615,-0.0406095570376,0.100889388541,-0.0953303053826,-15.41,49.15,26.32,-3.04,2.52,26.19,-0.1
0.000706348549873,0.070734634817,-0.101109902225,-0.0881008864615,-0.0406095570376,0.100889388541,-0.0953303053826,-15.1,49.57,26.55,-3.33,2.52,26.21,-0.1
0.00384974248395,0.0677779484727,-0.0959640776012,-0.0858997014184,-0.0391801712962,0.0961261072908,-0.0909199093482,-14.58,49.67,26.8,-3.33,2.52,26.1,-0.12
0.00401518426996,0.067622333402,-0.0956932447262,-0.085783849574,-0.0391049404677,0.0958754082776,-0.0906877832412,-14.58,49.77,26.8,-3.81,2.48,26.25,-0.12
0.0041166612335,0.0677239724072,-0.0966445767156,-0.0861737216582,-0.0394446048693,0.0963754085595,-0.091168496775,-14.58,50.0,27.15,-3.86,2.48,26.33,-0.15
0.00426887667881,0.067876430915,-0.0980715746997,-0.0867585297843,-0.0399541014718,0.0971254089823,-0.0918895670758,-14.26,50.42,27.25,-4.11,2.52,26.37,-0.17
0.00426887667881,0.067876430915,-0.0980715746997,-0.0867585297843,-0.0399541014718,0.0971254089823,-0.0918895670758,-14.06,50.62,27.45,-4.05,2.57,26.39,-0.18
0.00261663987303,0.0706715174258,-0.106401813461,-0.0907334335992,-0.0425733754922,0.103537665292,-0.0980794915691,-13.74,50.62,27.34,-4.59,2.57,26.46,-0.2
0.00246643652705,0.0709256161995,-0.107359101768,-0.0910947884914,-0.0428114913122,0.104213823958,-0.0987114114206,-13.54,50.94,27.54,-4.59,2.52,26.31,-0.15
0.00168206910225,0.0811951654072,-0.125131690378,-0.104491480752,-0.0496003032423,0.120864630486,-0.114435038914,-13.22,50.94,27.64,-4.68,2.57,26.33,-0.1
0.00109436507612,0.075236653212,-0.116854947193,-0.0969074696415,-0.0462003448761,0.11263000198,-0.106619183076,-13.02,51.25,27.99,-4.64,2.62,26.31,-0.12
-5.64513317573e-05,0.07697151328,-0.121523996244,-0.0992260657326,-0.0476839932545,0.116436930707,-0.11019709332,-12.81,51.56,27.84,-5.02,2.52,26.13,-0.09
-0.00110264806619,0.0785486587964,-0.12576858629,-0.101333880361,-0.0490327645075,0.119897775004,-0.113449738997,-12.6,51.25,28.18,-5.17,2.52,26.25,-0.12
-0.00110264806619,0.0785486587964,-0.12576858629,-0.101333880361,-0.0490327645075,0.119897775004,-0.113449738997,-12.39,51.25,28.18,-5.13,2.48,26.33,-0.17
-0.00218366239376,0.0691279200864,-0.113307972296,-0.0891997174876,-0.0435609455248,0.106489467889,-0.101162691994,-12.49,51.25,28.08,-4.98,2.48,26.43,-0.18
-0.00239163024078,0.0757115315233,-0.124099207752,-0.0976949286769,-0.0477096070034,0.116631321973,-0.110797234088,-12.29,51.46,27.99,-5.17,2.48,26.46,-0.2
-0.0037895396208,0.0762995291607,-0.12743010977,-0.0985578367621,-0.0486691971173,0.119132445032,-0.112907770761,-12.39,51.25,27.74,-5.56,2.38,26.43,-0.17
-0.00439029694221,0.0778514505031,-0.131079083929,-0.100602042234,-0.0498827654586,0.122204184368,-0.115678893849,-12.39,51.14,28.18,-5.41,2.52,26.34,-0.13
-0.00460856743065,0.077848545903,-0.131577855482,-0.100664818056,-0.0501064056433,0.122502553589,-0.115954321759,-12.29,51.56,28.08,-5.36,2.48,26.28,-0.09
-0.00548164938441,0.0778369275027,-0.133572941693,-0.100915921344,-0.051000966382,0.12369603047,-0.117056033397,-12.18,51.46,28.48,-5.51,2.57,26.21,-0.09
-0.00548164938441,0.0778369275027,-0.133572941693,-0.100915921344,-0.051000966382,0.12369603047,-0.117056033397,-12.08,52.08,28.86,-5.85,2.62,26.39,-0.1
-0.0063590680948,0.0731449241891,-0.127931432372,-0.0952907741728,-0.0483722788097,0.11759146347,-0.111437139363,-11.97,52.5,29.01,-5.75,2.57,26.33,-0.13
-0.00671003557895,0.0712681228636,-0.125674828644,-0.0930407153041,-0.0473208037808,0.11514963667,-0.10918958175,-11.77,53.03,29.31,-5.99,2.62,26.49,-0.17
-0.00714971832568,0.0714166637307,-0.126171406208,-0.0931695051655,-0.0473453901265,0.115606592624,-0.109503909354,-11.45,52.92,29.17,-6.33,2.57,26.51,-0.2
-0.00783366926504,0.0716477273017,-0.126943860198,-0.0933698449499,-0.0473836355532,0.116317412997,-0.109992863405,-11.35,53.03,29.36,-6.63,2.62,26.37,-0.18
-0.00783366926504,0.0716477273017,-0.126943860198,-0.0933698449499,-0.0473836355532,0.116317412997,-0.109992863405,-10.93,53.24,29.41,-6.96,2.62,26.28,-0.13
-0.00833943483884,0.06980509496,-0.122825841481,-0.0903851119974,-0.0457132187409,0.113149449206,-0.106830005585,-10.83,53.55,29.86,-7.26,2.61,26.34,-0.12
-0.00871850005879,0.0729780538218,-0.128408834276,-0.0944935261791,-0.04779109232,0.118292605989,-0.111685914929,-10.52,53.97,30.05,-7.6,2.62,26.34,-0.1
-0.00927635143235,0.0741257865646,-0.130413168228,-0.0959500990457,-0.0489145575419,0.119899595469,-0.113415715181,-10.41,54.28,29.66,-8.18,2.52,26.49,-0.1
-0.0113686708736,0.0884379170257,-0.155999704891,-0.114496893654,-0.0586251790744,0.143133029846,-0.135526292671,-9.79,54.49,30.4,-8.28,2.57,26.6,-0.1
-0.0106806046833,0.0827299242963,-0.145977729935,-0.107254349868,-0.0547498653641,0.133795758242,-0.126782251477,-9.48,55.23,30.54,-8.57,2.52,26.49,-0.17
-0.0111992507816,0.0860535916749,-0.151933730838,-0.111852077904,-0.0567701011224,0.138976720008,-0.131881884534,-9.16,55.23,31.08,-8.95,2.57,26.54,-0.18
-0.0107340481986,0.0825628071659,-0.145745727434,-0.107334996422,-0.0544645960103,0.133342893728,-0.126516846156,-9.06,55.75,31.48,-8.95,2.52,26.36,-0.15
-0.0117220586819,0.0921687184015,-0.162109961717,-0.120306991566,-0.0607388656221,0.14894776624,-0.140872537025,-8.54,56.38,31.82,-9.05,2.62,26.45,-0.09
-0.0112336395701,0.0883283551347,-0.155355379979,-0.115294200251,-0.0582080795545,0.142741609313,-0.135002847982,-8.33,56.59,31.97,-9.44,2.62,26.48,-0.09
-0.0109277260013,0.0901527139256,-0.157715577215,-0.11793595595,-0.05931750735,0.145225614183,-0.137333355298,-7.91,57.11,32.06,-9.78,2.62,26.48,-0.1
-0.0107966201861,0.0909345819788,-0.158727090316,-0.119068136963,-0.0597929764052,0.146290187699,-0.138332144148,-7.6,57.01,32.31,-10.12,2.67,26.64,-0.12
-0.0105640653201,0.0906215228403,-0.157681219071,-0.118541836528,-0.0594955117802,0.145466453933,-0.137633362316,-7.19,57.32,32.51,-10.31,2.62,26.63,-0.17
-0.00981988974891,0.0896197335969,-0.154334431087,-0.116857675134,-0.0585436249801,0.142830505882,-0.135397260454,-6.98,57.43,32.76,-10.46,2.66,26.49,-0.18
-0.00981988974891,0.0896197335969,-0.154334431087,-0.116857675134,-0.0585436249801,0.142830505882,-0.135397260454,-6.56,57.74,33.14,-10.6,2.67,26.46,-0.17
-0.00819286120335,0.0851936916511,-0.144773646764,-0.110726899454,-0.0551897886527,0.134976496363,-0.127565144306,-6.25,58.16,33.69,-10.46,2.76,26.37,-0.12
-0.00765051835483,0.0837183443358,-0.141390453482,-0.108683307561,-0.0540718432103,0.132324777997,-0.124922808815,-6.04,59.0,33.58,-10.6,2.72,26.54,-0.09
-0.00689057701092,0.0762589664727,-0.128782312638,-0.0989735839565,-0.0492140960214,0.12045656195,-0.113826483795,-6.04,59.0,33.84,-10.94,2.76,26.57,-0.07
-0.00762774105621,0.0883941627225,-0.149229128565,-0.114604276132,-0.0568624350619,0.139267068681,-0.132097808597,-5.83,59.31,33.69,-11.63,2.57,26.73,-0.13
-0.00729610014072,0.0845509382563,-0.142740905584,-0.109621481518,-0.0543901552766,0.133211978739,-0.126354425614,-5.73,59.0,33.93,-11.38,2.76,26.63,-0.15
-0.00850193654573,0.0928629655247,-0.157683360043,-0.119881430012,-0.0596747401186,0.146721093639,-0.139229686297,-5.41,59.42,33.93,-11.87,2.67,26.6,-0.2
-0.0087029092799,0.0942483034028,-0.160610996386,-0.121707300246,-0.0605555042589,0.149311473615,-0.141670924105,-5.31,59.31,34.13,-11.91,2.72,26.64,-0.2
-0.00882431087872,0.0947297024051,-0.161433723366,-0.122148132949,-0.0610757427754,0.150283010221,-0.14235325277,-4.89,59.31,34.38,-11.58,2.81,26.46,-0.17
-0.00904977099081,0.0956237291236,-0.162961644901,-0.122966822254,-0.0620419000202,0.15208729249,-0.143620434578,-5.0,59.52,34.37,-11.62,2.76,26.57,-0.1
-0.00904977099081,0.0956237291236,-0.162961644901,-0.122966822254,-0.0620419000202,0.15208729249,-0.143620434578,-4.79,59.52,34.38,-11.58,2.81,26.55,-0.1
-0.00897484755531,0.0910272978899,-0.156193850202,-0.117520095744,-0.0586334730621,0.145064272849,-0.137536326932,-5.0,59.63,34.62,-11.28,2.81,26.7,-0.13
-0.00896162577257,0.0902161629663,-0.154999533491,-0.116558908712,-0.0580319859519,0.143824916441,-0.136462660877,-5.0,59.84,34.48,-11.48,2.81,26.72,-0.17
-0.00917282010032,0.0903677690883,-0.155890502258,-0.116702868708,-0.0583875521702,0.144447153398,-0.136885662916,-5.0,59.63,34.23,-11.52,2.81,26.6,-0.2
-0.00953486751931,0.0906276652974,-0.157417877288,-0.116949657271,-0.0589970942586,0.145513845323,-0.137610809269,-4.79,59.63,34.38,-11.96,2.76,26.52,-0.17
-0.00908082620887,0.086312062188,-0.149921787893,-0.111380625973,-0.0561877088177,0.138584614594,-0.13105791359,-4.69,59.53,34.17,-12.06,2.72,26.57,-0.15
-0.0121828198001,0.103116637875,-0.181100031895,-0.132474908723,-0.0678602654277,0.16666621658,-0.157580202844,-4.79,59.52,33.84,-12.69,2.57,26.72,-0.1
-0.0119334690378,0.0992548896317,-0.175076818553,-0.12745153979,-0.0654325741383,0.160912670858,-0.15209878856,-4.79,59.63,34.03,-12.25,2.52,26.87,-0.1
-0.0123842234259,0.0999234538781,-0.176953068063,-0.128405245768,-0.0661318760805,0.162220495414,-0.15349986666,-4.58,59.73,34.27,-11.77,2.57,26.7,-0.13
-0.0132213387181,0.101165073193,-0.180437531438,-0.130176414012,-0.0674305796875,0.164649312447,-0.156101868845,-4.79,59.52,34.08,-12.02,2.56,26.66,-0.17
-0.0132213387181,0.101165073193,-0.180437531438,-0.130176414012,-0.0674305796875,0.164649312447,-0.156101868845,-4.79,59.43,33.84,-11.86,2.57,26.66,-0.2
-0.0130360613314,0.0912462917897,-0.165415250345,-0.118796055226,-0.0618379616438,0.150217082906,-0.141878007546,-4.89,59.52,33.89,-11.38,2.62,26.57,-0.15
-0.0136391806913,0.0946467074556,-0.171861473591,-0.123369166542,-0.0642499961941,0.155995779278,-0.147279449686,-4.79,59.52,33.59,-11.63,2.52,26.69,-0.1
-0.014067942628,0.0944502358477,-0.172346367926,-0.122956602817,-0.0643377793371,0.155824685292,-0.147422028468,-4.89,59.64,33.89,-11.67,2.52,26.93,-0.1
-0.014418747849,0.0942894863503,-0.172743099655,-0.122619050679,-0.0644096019087,0.155684699303,-0.147538683835,-4.79,59.95,33.88,-11.62,2.52,26.87,-0.12
-0.0152731273346,0.0995157509933,-0.182361157532,-0.129378358541,-0.0679918819095,0.164362196709,-0.155761988606,-5.0,60.05,33.73,-11.77,2.56,26.75,-0.15
-0.0154602002153,0.0945705030646,-0.174936600548,-0.122311285128,-0.0648222095381,0.15702138164,-0.148802657773,-5.1,60.26,33.3,-11.48,2.43,26.64,-0.21
-0.0170875897116,0.104525292861,-0.193350979553,-0.135186157247,-0.0716456000158,0.173549948128,-0.164466095433,-5.41,60.57,33.25,-10.46,2.38,26.57,-0.15
-0.016328013287,0.0973288582244,-0.180239625292,-0.125806840897,-0.0668992686981,0.161937519364,-0.153156155816,-5.83,60.67,32.8,-10.51,2.24,26.78,-0.13
-0.017889944272,0.104564978977,-0.193819782539,-0.135100183125,-0.072028614775,0.174257804559,-0.164554014199,-6.04,60.15,32.4,-9.73,2.14,26.97,-0.09
-0.0189228360249,0.11045085142,-0.204547139514,-0.142674110341,-0.0760918868696,0.183955583746,-0.173741067578,-6.46,60.05,31.67,-9.39,2.2,26.9,-0.1
-0.0196249433062,0.111831576416,-0.20740745846,-0.143904617099,-0.0772021697975,0.185531704289,-0.175744436202,-7.08,59.84,30.64,-8.66,1.9,26.76,-0.17
-0.0196249433062,0.111831576416,-0.20740745846,-0.143904617099,-0.0772021697975,0.185531704289,-0.175744436202,-7.91,59.01,29.95,-7.69,1.95,26.82,-0.2
-0.019242384602,0.102756566287,-0.191431181218,-0.130465452608,-0.0711478425395,0.17043212614,-0.161239449839,-8.95,58.47,29.22,-5.51,1.95,26.72,-0.15
-0.020713467781,0.105498064947,-0.197195649822,-0.132416749827,-0.0732126811281,0.174885718421,-0.165308907095,-10.0,57.64,27.84,-4.35,1.8,26.85,-0.09
-0.0218986185888,0.110999952504,-0.207662995761,-0.139231282125,-0.0770644661355,0.184032953023,-0.173971678472,-11.14,56.27,26.36,-4.11,1.71,26.91,-0.1
-0.0214455860467,0.0995579653167,-0.189409116983,-0.123310584434,-0.0696989668002,0.165521388035,-0.156754910617,-11.14,55.12,25.33,-3.57,1.76,26.9,-0.1
-0.022517865349,0.104535863582,-0.198879572832,-0.129476113656,-0.0731839151402,0.173797457437,-0.164592656148,-11.04,53.34,24.35,-3.04,1.7,26.85,-0.15
-0.0244508744901,0.106389176698,-0.205270183164,-0.130345153508,-0.0750881693881,0.178156083433,-0.168781202641,-11.56,52.4,22.77,-2.84,1.52,26.64,-0.17
-0.0274025551829,0.113584761887,-0.221748203679,-0.13795388012,-0.0806802058853,0.191286559974,-0.181271784449,-12.29,51.25,22.38,-2.89,1.57,26.9,-0.15
-0.0249478823945,0.102725290619,-0.200938364321,-0.124732353567,-0.0730613722181,0.173193327986,-0.164105947319,-12.39,50.94,22.23,-2.02,1.61,27.05,-0.09
-0.0278946754607,0.10192966755,-0.206810070791,-0.123154179749,-0.0742962860487,0.175559504917,-0.165970651805,-13.54,50.0,21.79,-1.25,1.81,26.9,-0.07
-0.0318363143845,0.116332772747,-0.236033232968,-0.1405564008,-0.0847946742947,0.200366826264,-0.189423026517,-15.2,48.31,20.42,-0.62,1.9,26.78,-0.12
-0.0318339138222,0.101529994822,-0.220494475249,-0.127093486809,-0.0772573238044,0.182881275553,-0.173039666042,-16.56,47.37,19.14,0.0,1.81,26.67,-0.17
-0.0325124483791,0.100064353193,-0.22138618216,-0.126501912962,-0.0770563167253,0.182492954324,-0.172711794481,-16.87,48.0,19.03,0.11,1.85,26.76,-0.15
-0.0329541448071,0.0990739884503,-0.221007693346,-0.125918223423,-0.0763904761821,0.181850738989,-0.172048526271,-16.76,48.52,19.88,-0.61,1.85,27.09,-0.13
-0.0339847698057,0.0967631373829,-0.220124552779,-0.124556281166,-0.074836848248,0.18035223654,-0.170500900447,-16.45,48.94,20.07,-0.66,1.85,27.14,-0.09
-0.0339847698057,0.0967631373829,-0.220124552779,-0.124556281166,-0.074836848248,0.18035223654,-0.170500900447,-16.35,49.05,19.97,-0.81,1.85,26.93,-0.07
-0.0377316823687,0.110954413631,-0.24702107324,-0.143393173957,-0.0850751917609,0.204082476094,-0.193313803265,-16.76,48.94,18.64,-2.16,1.57,27.11,-0.15
-0.0388337154755,0.115651142224,-0.258104799218,-0.150183723926,-0.0882895705782,0.213356898697,-0.202064033447,-16.04,48.52,19.88,-1.68,1.71,27.0,-0.18
-0.0401792644144,0.116418294743,-0.259121556102,-0.151580973486,-0.0885766820588,0.214701404251,-0.203408784786,-15.62,48.31,19.73,-1.39,1.81,27.32,-0.04
-0.0412143020596,0.117008412065,-0.259903676781,-0.15265578084,-0.0887975370439,0.215735639292,-0.204443208893,-15.93,48.21,18.94,-1.05,1.71,27.08,-0.09
-0.0404900551544,0.115323728472,-0.256903676781,-0.150865645115,-0.0872759974246,0.212920618261,-0.201692709189,-16.14,47.68,19.23,-0.17,1.81,26.84,-0.1
-0.036385989358,0.105161576136,-0.224666473785,-0.139754423587,-0.0785821408507,0.189435218669,-0.179433214814,-16.04,49.57,20.02,0.06,1.9,27.02,-0.13
-0.0345666898901,0.0999034973292,-0.213433150096,-0.132766702408,-0.0746530338081,0.179963457736,-0.170461554073,-16.97,49.88,19.77,0.16,1.71,27.27,-0.17
-0.0352320392845,0.110418442111,-0.230712869553,-0.14665424406,-0.0808952853001,0.19650869384,-0.186033209537,-17.39,49.88,19.43,-0.57,1.57,27.47,-0.07
-0.0344627392355,0.113923019427,-0.234750829727,-0.151390460811,-0.0824373815997,0.201386991707,-0.190524114311,-17.08,50.42,20.8,-0.28,1.71,27.18,-0.04
-0.0325820847426,0.108552047881,-0.223178482138,-0.14409167205,-0.0784349625312,0.191601951342,-0.181295193012,-16.24,51.25,22.08,-0.62,1.71,27.23,-0.1
-0.0336286701879,0.120515082007,-0.242754310429,-0.15836674656,-0.0859270233471,0.209829014445,-0.198823681929,-16.14,51.77,22.52,-0.66,1.57,27.17,-0.2
-0.0319472366785,0.114489327906,-0.230616594907,-0.150448409232,-0.0816306721797,0.199337563722,-0.188882497832,-16.66,51.56,22.88,-0.46,1.47,27.15,-0.18
-0.0280160664585,0.105502708144,-0.205751765572,-0.136010516585,-0.0740540109562,0.180368522225,-0.170828097699,-16.97,52.61,25.43,-0.37,1.61,27.24,-0.12
-0.0290134198572,0.113001167784,-0.213878415499,-0.143592805609,-0.0785009995203,0.19027877483,-0.180190683274,-16.35,54.6,27.1,-1.58,1.42,27.44,-0.04
-0.0270805484286,0.108061266645,-0.202154571981,-0.136769784596,-0.074637791402,0.180987807501,-0.171317137653,-15.41,55.44,28.42,-3.04,1.33,27.6,-0.1
-0.0255139055154,0.107998717241,-0.196496747372,-0.135416788309,-0.0735875086427,0.178612527557,-0.168892412114,-14.58,55.44,29.66,-4.35,1.28,27.68,-0.12
-0.0255139055154,0.107998717241,-0.196496747372,-0.135416788309,-0.0735875086427,0.178612527557,-0.168892412114,-13.85,56.59,31.32,-5.17,1.28,27.83,-0.17
-0.0256931214442,0.114256292391,-0.200674606303,-0.142057896218,-0.0773063835091,0.186825314818,-0.176331765442,-13.02,57.85,32.6,-6.83,1.13,28.05,-0.1
-0.023588534939,0.106009625926,-0.184802767782,-0.131572556477,-0.0716217334673,0.172931554757,-0.163152875481,-12.08,58.16,33.53,-7.3,1.09,28.01,-0.06
-0.0265585072591,0.126856853064,-0.214961382897,-0.158198248645,-0.0849089353619,0.204719331486,-0.192933196586,-11.56,58.26,33.93,-8.42,0.99,27.99,-0.07
-0.0235677463265,0.117415931601,-0.195205440843,-0.146881515939,-0.0781051674574,0.188134571485,-0.177174264719,-11.04,58.26,34.23,-8.57,0.99,28.17,-0.12
-0.0229745125233,0.118426819362,-0.195277835043,-0.148738640679,-0.0786714130257,0.18947108558,-0.178284017777,-10.52,58.68,34.13,-9.0,0.89,28.25,-0.13
-0.0207498857612,0.122217648465,-0.195549313295,-0.155702858452,-0.0807948339069,0.194483013434,-0.182445591743,-9.79,58.68,34.42,-9.88,0.89,28.17,-0.1
-0.0207498857612,0.122217648465,-0.195549313295,-0.155702858452,-0.0807948339069,0.194483013434,-0.182445591743,-9.37,58.89,34.67,-9.68,0.8,28.17,-0.06
-0.0159952019747,0.119175575984,-0.185304189333,-0.154897103335,-0.0783209398041,0.187080520782,-0.175751939362,-8.85,58.68,35.36,-10.17,0.99,28.02,-0.07
-0.0139574803519,0.117871830635,-0.180556814892,-0.154551779713,-0.0772606994743,0.18386379397,-0.172883231198,-8.33,58.89,35.16,-9.92,0.85,27.95,-0.07
-0.0133272671256,0.117365065897,-0.17992463229,-0.154275200718,-0.0769314209897,0.183201894956,-0.172205907151,-8.23,58.48,35.11,-10.41,0.85,27.95,-0.13
-0.0108064142201,0.115338006947,-0.177395901885,-0.153168884739,-0.0756143070512,0.180554298901,-0.169496610961,-8.02,58.26,35.06,-10.41,0.75,28.16,-0.13
-0.0108064142201,0.115338006947,-0.177395901885,-0.153168884739,-0.0756143070512,0.180554298901,-0.169496610961,-7.92,57.95,35.45,-11.14,0.75,28.04,-0.1
-0.0100808717758,0.118893019284,-0.18632408811,-0.158793132044,-0.0780815205694,0.186882243848,-0.176031550949,-7.71,57.95,35.61,-11.96,0.51,28.01,-0.04
-0.009790654798,0.120315024219,-0.190073895508,-0.161042830966,-0.0790684059767,0.189413421827,-0.178645526945,-7.18,57.32,36.68,-12.79,0.56,27.86,-0.04
-0.00946133316835,0.119648788227,-0.189856741896,-0.160275510537,-0.078800184395,0.188726125728,-0.177972003375,-6.35,57.11,37.27,-12.88,0.46,28.11,-0.12
-0.00814404664973,0.116983844263,-0.188988127447,-0.157206228822,-0.0777272980683,0.185976941329,-0.175277909094,-5.73,56.69,37.81,-13.8,0.46,28.29,-0.15
-0.00814404664973,0.116983844263,-0.188988127447,-0.157206228822,-0.0777272980683,0.185976941329,-0.175277909094,-5.31,56.59,38.31,-13.95,0.37,28.17,-0.13
-0.00686972390161,0.106219068905,-0.17683079165,-0.145237791197,-0.0718829277624,0.171731674073,-0.162214160515,-4.79,56.06,39.33,-14.44,0.46,28.16,-0.06
-0.00635999480236,0.101550966941,-0.171466409465,-0.139967858098,-0.0695451796401,0.16527304807,-0.15639657194,-4.06,56.59,39.87,-15.17,0.32,28.19,-0.07
-0.00623803014714,0.100530189324,-0.170355784894,-0.139054574949,-0.0690953552887,0.164191330125,-0.15530314801,-3.75,56.27,40.56,-15.75,0.27,28.23,-0.07
-0.00575017152626,0.0964470788583,-0.165913286609,-0.135401442351,-0.0672960578831,0.159864458347,-0.150929452287,-3.44,56.8,41.35,-17.01,0.17,28.43,-0.1
-0.00575017152626,0.0964470788583,-0.165913286609,-0.135401442351,-0.0672960578831,0.159864458347,-0.150929452287,-3.33,57.01,41.89,-17.78,0.17,28.66,-0.15
-0.00629797500424,0.0991964879982,-0.174213944976,-0.140848520691,-0.0703884763963,0.166849461415,-0.15793727808,-3.02,57.11,42.04,-18.22,-0.01,28.57,-0.13
-0.00605604005462,0.0947637884787,-0.166796419381,-0.134717858683,-0.0673638842413,0.159643402731,-0.151158024181,-2.71,57.53,42.93,-18.22,-0.06,28.35,-0.07
-0.00501800921688,0.0931729953671,-0.163868998804,-0.134307646531,-0.0664674481694,0.158318777761,-0.149552583901,-1.98,57.01,44.65,-18.27,0.08,28.05,-0.07
-0.0033770608279,0.0879628714172,-0.152239331363,-0.129579099665,-0.0635440596601,0.150535942826,-0.141671234082,-1.35,58.06,44.74,-19.29,-0.15,28.44,-0.09
-0.00329727900081,0.0840389644085,-0.145215225282,-0.12386237079,-0.0607373438204,0.143636556683,-0.135285989247,-1.56,57.22,44.99,-20.16,-0.1,28.67,-0.1
-0.0035989900713,0.0835915098858,-0.143392704054,-0.123489523396,-0.0605396559535,0.142042003506,-0.134270672417,-1.77,56.59,45.13,-20.5,-0.15,28.85,-0.15
-0.0035989900713,0.0835915098858,-0.143392704054,-0.123489523396,-0.0605396559535,0.142042003506,-0.134270672417,-1.77,55.54,44.99,-20.89,-0.15,28.78,-0.17
-0.00438245555651,0.0876520527332,-0.148856882301,-0.127250480171,-0.0626962870392,0.147576929682,-0.1393261938,-1.98,54.28,44.64,-20.79,-0.26,28.81,-0.1
-0.0043584477369,0.0847042044757,-0.143546311781,-0.122517281024,-0.0604287758528,0.142337047482,-0.134343136779,-2.08,53.24,44.25,-20.06,-0.26,28.79,-0.06
-0.00510088106455,0.0927458710234,-0.157007414497,-0.134250469388,-0.0662009072949,0.156102383391,-0.147087546364,-2.39,52.72,43.95,-19.44,-0.2,28.85,-0.04
-0.00489058573808,0.083488342244,-0.141183755628,-0.120942517613,-0.0596249385416,0.140750109682,-0.132396852473,-3.33,52.29,43.02,-18.37,-0.1,29.0,-0.09
-0.00567890653673,0.090890644697,-0.154498078773,-0.131921381328,-0.0649752748491,0.153700799996,-0.144568062503,-4.06,51.35,41.4,-18.32,-0.1,28.97,-0.13
-0.00671829127641,0.0856240571208,-0.148619004474,-0.125264056402,-0.0614565774008,0.146613379317,-0.137859919627,-4.06,50.62,40.96,-17.88,-0.1,28.94,-0.15
-0.00671829127641,0.0856240571208,-0.148619004474,-0.125264056402,-0.0614565774008,0.146613379317,-0.137859919627,-3.33,50.09,40.56,-18.46,-0.1,28.94,-0.13
-0.0101620589562,0.0764979110298,-0.144973292402,-0.111892613785,-0.0567309209814,0.137168525334,-0.128723361985,-3.64,49.15,39.63,-17.15,-0.01,28.9,-0.09
-0.0108870626783,0.0745184260045,-0.144205774071,-0.108733879724,-0.0557360459458,0.135100510339,-0.126740984863,-4.27,48.84,38.11,-16.57,0.03,28.67,-0.06
-0.0108072536655,0.0695351755514,-0.135831771865,-0.100910846668,-0.0520611934473,0.126296447507,-0.118591968711,-5.0,47.68,36.44,-15.74,0.17,28.43,-0.1
-0.0140083901298,0.0837064091602,-0.166077611476,-0.12062651915,-0.0627519136976,0.152489891509,-0.143307851075,-5.83,45.9,33.98,-14.48,0.08,28.44,-0.09
-0.0135231635746,0.080002729096,-0.159114558656,-0.115245530154,-0.0599889471997,0.145825407767,-0.137101389968,-6.14,44.96,32.55,-13.81,0.17,28.49,-0.15
-0.0158760073941,0.0787815806611,-0.164011103686,-0.112654733324,-0.0593311211434,0.145170127037,-0.137563375486,-6.46,43.49,30.69,-12.79,0.17,28.41,-0.17
-0.0158760073941,0.0787815806611,-0.164011103686,-0.112654733324,-0.0593311211434,0.145170127037,-0.137563375486,-6.46,43.18,28.67,-12.06,0.22,28.32,-0.12
-0.0175918184439,0.0729701857599,-0.161729966152,-0.103040134041,-0.0557679471627,0.137245323221,-0.130127451959,-6.25,42.65,26.8,-10.94,0.46,28.01,-0.1
-0.018091108427,0.0649131341511,-0.152251029426,-0.0899290807222,-0.0503358314255,0.124114780387,-0.117801455651,-5.73,44.75,25.18,-10.03,0.17,27.69,0.0
-0.0201078054257,0.071576682988,-0.168476134988,-0.0990995777995,-0.0555613448044,0.13701126088,-0.130082005038,-6.35,45.48,24.45,-9.0,0.46,28.13,-0.07
-0.0211306899691,0.0649399504573,-0.163638527733,-0.0888068177813,-0.0514657143447,0.127124088003,-0.121419055492,-5.41,49.67,21.65,-7.31,0.5,28.1,-0.07
-0.0211306899691,0.0649399504573,-0.163638527733,-0.0888068177813,-0.0514657143447,0.127124088003,-0.121419055492,-2.81,54.49,19.28,-6.29,0.46,27.86,-0.12
-0.0218539570827,0.0676821178376,-0.171851464352,-0.090571731175,-0.053212136203,0.131406211481,-0.125818091618,-1.04,58.47,17.08,-4.88,0.51,27.72,-0.15
-0.0224457210847,0.0699257093306,-0.179064400971,-0.0920157512243,-0.0546410268144,0.134909767054,-0.129417302994,0.61,61.41,14.95,-3.19,0.6,27.39,-0.15
-0.022414140128,0.070071702704,-0.179203138267,-0.0918394805765,-0.0545994599669,0.134882315733,-0.129364455579,1.86,63.5,13.34,-1.87,0.65,27.41,-0.15
-0.0218456829078,0.0726995834242,-0.181700409589,-0.0886666089159,-0.0538512567114,0.134388191956,-0.12841320211,2.91,64.76,11.17,-0.85,0.84,27.2,-0.09
-0.0218456829078,0.0726995834242,-0.181700409589,-0.0886666089159,-0.0538512567114,0.134388191956,-0.12841320211,3.43,63.83,9.4,-0.03,0.7,27.06,-0.07
-0.0149021019046,0.0788728406251,-0.178577179362,-0.0795908207458,-0.0508494426094,0.126602401547,-0.121608750798,3.84,62.87,8.17,1.85,0.85,27.08,-0.06
-0.00895852090155,0.084046097826,-0.176021809176,-0.0715150325756,-0.0483934128895,0.119816611138,-0.115804299487,2.28,63.19,6.4,2.92,1.18,27.57,-0.06
-0.00826841821626,0.0845871176142,-0.176041800158,-0.0710140133546,-0.0482168819485,0.119541329418,-0.115557172607,0.51,64.66,5.28,3.31,0.99,27.5,-0.12
-0.00171244270608,0.0897268056024,-0.176231714491,-0.066254330755,-0.0465398380087,0.116926153084,-0.113209467248,-0.21,64.34,5.71,3.16,1.04,27.65,-0.15
-0.00171244270608,0.0897268056024,-0.176231714491,-0.066254330755,-0.0465398380087,0.116926153084,-0.113209467248,0.3,64.13,6.16,2.78,1.08,27.6,-0.17
-1.70853396927e-06,0.0926473739274,-0.181886657693,-0.0685193748838,-0.0478685584694,0.121547908321,-0.117087283381,0.93,64.14,5.81,2.48,1.09,27.63,-0.13
0.00124246177302,0.0947714236184,-0.185999343659,-0.0701666797047,-0.0488349006226,0.124909184857,-0.119907513296,1.03,63.08,6.01,2.63,1.09,27.56,-0.09
0.00108596008827,0.0901875497214,-0.177038626808,-0.0667923391737,-0.0465181692731,0.118962702052,-0.114156088465,0.61,61.09,6.01,2.24,1.09,27.66,-0.09
-0.000843801930316,0.0981910477909,-0.193498561529,-0.0731286402727,-0.0515983609534,0.131518137702,-0.125300110682,1.03,59.63,5.37,2.48,1.04,27.74,-0.09
-0.000801611833801,0.0932814954013,-0.183823633452,-0.069472208259,-0.0490184429057,0.124942230817,-0.119035105148,1.65,58.58,5.47,2.87,0.99,27.62,-0.07
-0.00325253665878,0.0845797250787,-0.168352431176,-0.0685230700544,-0.0461889463753,0.117367046563,-0.111652233492,1.76,57.01,6.99,2.05,1.13,27.71,-0.13
-0.00476079808953,0.07888673067,-0.157014974562,-0.0679389850053,-0.0444477177412,0.112518991705,-0.106948413083,1.76,57.53,6.25,1.65,0.89,27.66,-0.13
-0.00539087204631,0.0763492258761,-0.153861365033,-0.0685276042434,-0.044137602308,0.111581248756,-0.10586167441,1.86,57.53,6.5,1.56,0.89,27.48,-0.17
-0.00646015425323,0.0679570607867,-0.140974312399,-0.0668810590495,-0.0416616913519,0.10500630793,-0.0992190758196,1.65,58.48,7.43,1.27,0.8,27.56,-0.15
-0.00727355792096,0.0735713582543,-0.153125760317,-0.0737547505479,-0.0455666625014,0.114809148985,-0.108475325979,1.76,58.89,8.28,0.2,0.7,27.72,-0.1
-0.00839922125295,0.0667785231747,-0.142231373457,-0.0756086294713,-0.0443350634318,0.111455095364,-0.105266065971,2.59,59.42,9.3,-0.32,0.7,27.59,-0.07
-0.00839922125295,0.0667785231747,-0.142231373457,-0.0756086294713,-0.0443350634318,0.111455095364,-0.105266065971,4.16,59.42,10.64,-1.05,0.65,27.66,-0.09
-0.00918905185025,0.0644457946641,-0.136351425268,-0.0787357536897,-0.0450313652031,0.110346282879,-0.104753495383,5.61,59.42,12.1,-2.5,0.61,27.86,-0.09
-0.0103510380446,0.0704249361305,-0.148741435632,-0.0876885094925,-0.0498506112386,0.121379436324,-0.115376328832,6.34,60.57,13.09,-3.38,0.51,27.74,-0.1
-0.00928712822268,0.0643413202606,-0.130445639709,-0.08311691428,-0.045885923199,0.110702548357,-0.104888387643,7.28,60.26,15.01,-4.44,0.61,27.63,-0.12
-0.00887630723545,0.0623457555156,-0.12163809086,-0.0827113923687,-0.0447098647,0.1071304893,-0.101258228915,7.9,60.57,15.59,-4.98,0.46,27.71,-0.15
-0.00786243286105,0.0618814318257,-0.118589624725,-0.0830533152275,-0.0443025800969,0.105912298299,-0.100101730388,8.42,60.99,16.58,-5.85,0.36,27.63,-0.15
-0.00482080973785,0.060488460756,-0.108895760185,-0.0840790838037,-0.0430807262876,0.102257725298,-0.0966322348042,8.84,60.67,17.51,-6.63,0.37,27.6,-0.13
-0.00482080973785,0.060488460756,-0.108895760185,-0.0840790838037,-0.0430807262876,0.102257725298,-0.0966322348042,8.42,59.73,18.35,-7.3,0.31,27.71,-0.12
-0.00219775143598,0.0626608168246,-0.106596992743,-0.0888925149576,-0.043693608682,0.104304849835,-0.0987567093386,8.63,60.15,18.75,-8.33,0.17,27.83,-0.1
-0.00137804571665,0.063339678096,-0.105878627918,-0.0903967121932,-0.0438851344302,0.104944576252,-0.0994206076306,9.05,60.67,19.62,-8.52,0.22,27.71,-0.06
-0.000701802723879,0.0632512019184,-0.104425731966,-0.0907325006409,-0.0438977034249,0.10442353496,-0.0990066721539,9.15,60.15,20.51,-8.91,0.22,27.89,-0.09
0.00132692625443,0.0629857733856,-0.100067044111,-0.0917398659839,-0.0439354104089,0.102860411082,-0.0977648657239,8.84,58.89,20.75,-9.39,0.07,27.84,-0.1
0.00132692625443,0.0629857733856,-0.100067044111,-0.0917398659839,-0.0439354104089,0.102860411082,-0.0977648657239,8.63,59.0,20.56,-9.4,0.08,27.74,-0.12
0.00232852889813,0.0575829240419,-0.0876148448404,-0.0873871606065,-0.0407665342529,0.0947003866874,-0.0895530610896,8.74,59.31,21.2,-9.39,0.13,27.59,-0.15
0.00264152972429,0.055894533622,-0.0833006317986,-0.0860269401761,-0.0397762604542,0.0921030435963,-0.0869350059025,9.15,59.52,21.2,-9.92,-0.02,27.63,-0.17
0.00221387480364,0.0526000690401,-0.0786903416322,-0.0814509057915,-0.0375111022866,0.0870959798021,-0.0822011291986,8.94,58.89,21.3,-10.12,-0.06,27.51,-0.18
0.00144598421307,0.056038620108,-0.0848395152203,-0.0884347197853,-0.0402293139381,0.0942041940843,-0.0888839209752,8.53,58.47,21.45,-10.26,-0.06,27.72,-0.18
0.00137368500241,0.0532366891026,-0.0805975394593,-0.084012983796,-0.0382178482412,0.0894939843801,-0.0844397249264,8.53,58.37,21.2,-10.46,-0.15,27.77,-0.13
-0.000307248645605,0.0553324249729,-0.0863849521438,-0.086037592665,-0.0404037953211,0.0932799335363,-0.0884257205132,8.63,58.37,21.2,-10.56,-0.2,27.86,-0.12
-0.000788722494263,0.0530406401991,-0.0835517544704,-0.0821086890978,-0.0389244351634,0.0894913035609,-0.084951799706,8.63,57.95,21.54,-10.8,-0.06,27.87,-0.1
-0.00117212376485,0.0557298631193,-0.0883782059687,-0.0861623364654,-0.0408338339148,0.0942019555008,-0.0894550526749,8.42,57.74,21.3,-10.6,-0.1,27.83,-0.07
-0.0021458509735,0.0521606328517,-0.0845207452479,-0.0803100623701,-0.038022809818,0.0886981527994,-0.0843247740054,8.53,57.95,21.55,-10.46,-0.15,27.72,-0.09
-0.00237173002334,0.0576512257834,-0.0934176658004,-0.0887637531459,-0.0420252108514,0.0980348004625,-0.093201066006,8.63,58.06,21.59,-10.31,-0.16,27.74,-0.09
-0.00386600562141,0.049677011441,-0.0841172934734,-0.0762600143248,-0.0365635891601,0.0860777678531,-0.0814025355651,8.94,57.74,21.74,-10.41,-0.1,27.63,-0.12
-0.00440174399574,0.0479340388155,-0.0824999894564,-0.0734270599962,-0.0354101154352,0.0836481982605,-0.0789490740849,8.53,57.53,21.3,-10.41,-0.11,27.62,-0.15
-0.00466764516602,0.0475924623572,-0.0823563676442,-0.0726222299088,-0.0352057644611,0.0830994175474,-0.0784170937301,8.22,57.43,21.05,-10.17,-0.1,27.66,-0.15
-0.00477604153929,0.0385217971031,-0.0681515669961,-0.0578357579658,-0.0286569671373,0.0674202455792,-0.0635743102591,8.11,57.01,20.76,-10.02,-0.15,27.62,-0.17
-0.00687749981658,0.0554713878285,-0.0981382564744,-0.0832834914707,-0.0412660326778,0.097085153634,-0.0915470067731,8.11,56.7,20.81,-10.08,-0.1,27.68,-0.17
-0.00679596535542,0.0444767715037,-0.0801622003464,-0.0646748283537,-0.0325114803381,0.0771239904002,-0.0730937636126,7.8,56.9,20.71,-10.31,-0.1,27.8,-0.15
-0.00833627645681,0.0535046292291,-0.0966186380936,-0.0775386717792,-0.0390383965163,0.0926883574525,-0.0878915733609,8.01,57.22,20.8,-10.56,-0.1,27.87,-0.1
-0.00873270596998,0.0498283668159,-0.0916806372134,-0.0711693306896,-0.0363550910198,0.0864339993707,-0.082169953939,7.9,57.11,20.8,-10.36,-0.06,27.9,-0.09
-0.00926437178483,0.0501304207785,-0.0930763822971,-0.0710862070159,-0.0365749741322,0.0870143546279,-0.0828248071625,8.22,57.22,20.86,-10.26,-0.06,27.93,-0.09
-0.00936463240245,0.0467018296486,-0.0878558973888,-0.066125728746,-0.0339829702889,0.0816354563861,-0.0775898892299,8.32,56.8,21.3,-9.92,-0.1,27.66,-0.09
-0.00955083069232,0.0403344461215,-0.0773414326027,-0.0562179461161,-0.0291692488658,0.0707513604887,-0.0670417473874,8.42,57.01,21.05,-10.02,-0.1,27.75,-0.09
-0.00955083069232,0.0403344461215,-0.0773414326027,-0.0562179461161,-0.0291692488658,0.0707513604887,-0.0670417473874,8.22,56.9,20.61,-9.83,-0.1,27.72,-0.1
-0.00962503101487,0.0412574118109,-0.0790250800884,-0.0568475050251,-0.0297116110777,0.0720703728049,-0.0680291703101,7.8,57.12,20.41,-10.31,-0.16,27.87,-0.13
-0.0102451455339,0.0440667414714,-0.0843850594654,-0.0605578638164,-0.0317041773231,0.0769045241842,-0.0725278491851,7.38,57.11,20.37,-9.88,-0.11,27.68,-0.13
-0.00966941187301,0.04217039071,-0.080601928217,-0.0575952495193,-0.0300671535226,0.0733166402187,-0.0692044081006,7.28,57.01,20.12,-9.39,-0.15,27.65,-0.17
-0.010842078543,0.0486307955475,-0.0926026294554,-0.0656024769242,-0.0340492148598,0.0839113140363,-0.0793432861313,6.97,57.22,20.16,-9.78,-0.11,27.71,-0.17
-0.00987727237042,0.0443770834293,-0.0845126054872,-0.0598246886725,-0.0310892422466,0.0765486544886,-0.072389086471,6.65,57.74,20.02,-9.39,-0.1,27.68,-0.17
-0.00943693768996,0.0438781376679,-0.0837601773505,-0.0583601878534,-0.0311058158267,0.0752281835987,-0.0712934169718,6.65,57.74,19.83,-9.2,-0.11,27.71,-0.15
-0.00943693768996,0.0438781376679,-0.0837601773505,-0.0583601878534,-0.0311058158267,0.0752281835987,-0.0712934169718,6.55,57.85,19.73,-9.29,-0.1,27.87,-0.13
-0.00972984275525,0.0395782607803,-0.0756229444347,-0.0512794609131,-0.0277284487586,0.0671379444378,-0.0636666017277,6.34,58.06,19.98,-8.72,-0.01,27.77,-0.12
-0.00985537349751,0.0377354563998,-0.0720105882492,-0.0482359925607,-0.0262810057294,0.0635508925819,-0.060329085827,6.45,58.58,19.88,-8.66,-0.06,27.78,-0.1
-0.00945495050556,0.0355253422259,-0.0676778279578,-0.0450967652081,-0.0246488557452,0.0596552745888,-0.0566104273691,6.03,58.79,19.82,-8.72,-0.06,27.99,-0.09
-0.0108329570077,0.0379246871118,-0.0717669055472,-0.0468287966348,-0.025925032603,0.0629585520497,-0.059658968244,5.4,58.79,19.67,-7.89,0.03,27.86,-0.07
-0.0103171019121,0.0361187496303,-0.0683494338545,-0.0445988539379,-0.0246905072409,0.0599605257616,-0.0568180649942,4.78,58.37,19.13,-7.8,-0.01,27.83,-0.06
-0.0107802705308,0.037529699126,-0.0702747088732,-0.0454408476753,-0.0250768366919,0.0616532570986,-0.0583962297308,4.26,58.26,18.59,-7.36,-0.01,27.86,-0.09
-0.0109346600703,0.0380000156246,-0.0709164672128,-0.0457215122545,-0.0252056131755,0.0622175008775,-0.058922284643,3.53,57.85,18.55,-7.31,0.03,27.83,-0.09
-0.01099749181,0.0379739766148,-0.0705037890019,-0.0453412622963,-0.0250812586284,0.0619191116132,-0.0585467340893,3.01,57.11,17.9,-6.53,0.08,27.72,-0.09
-0.0111985533771,0.0378906517835,-0.0691832187272,-0.0441244624301,-0.0246833240775,0.0609642659672,-0.0573449723174,2.39,56.48,17.02,-6.19,0.08,27.77,-0.1
-0.0111985533771,0.0378906517835,-0.0691832187272,-0.0441244624301,-0.0246833240775,0.0609642659672,-0.0573449723174,1.45,55.86,16.53,-5.37,0.17,27.71,-0.13
-0.0121900115656,0.0339919195674,-0.0641787803188,-0.0383692105866,-0.0219921359796,0.0550587331135,-0.0519812845011,0.93,54.81,15.84,-4.64,0.17,27.66,-0.13
-0.0125204976285,0.0326923421621,-0.0625106341827,-0.0364507933055,-0.0210950732803,0.0530902221623,-0.0501933885624,0.09,54.07,14.81,-4.21,0.17,27.77,-0.15
-0.0128331686358,0.0321775113023,-0.0625043350521,-0.0358608667028,-0.0209808656682,0.0526747678524,-0.0498804846432,-0.94,52.29,13.73,-3.43,0.17,27.8,-0.17
-0.0140838526652,0.0301181878632,-0.0624791385295,-0.0335011602921,-0.0205240352196,0.0510129506128,-0.0486288689667,-2.29,51.14,12.3,-2.8,0.22,27.81,-0.18
-0.0134131930145,0.0286839884412,-0.0595039414567,-0.0319058669449,-0.0195467002091,0.0485837624884,-0.0463132085397,-3.44,49.57,11.17,-1.97,0.21,27.81,-0.17
-0.0164990287413,0.0312447310385,-0.0690532833503,-0.0350454791268,-0.0218334794373,0.0551545457097,-0.0526345381048,-4.79,48.21,9.84,-1.2,0.21,27.87,-0.15
-0.0163556021495,0.0294957687537,-0.0669383966057,-0.0332040815469,-0.0208351355708,0.0529899046291,-0.0505916435851,-5.93,46.43,8.86,-0.61,0.21,27.89,-0.13
-0.0168636115379,0.0287530762736,-0.0671466030552,-0.0325865784978,-0.0207004470171,0.0527116875793,-0.0502869565405,-7.19,45.17,7.83,0.01,0.22,27.87,-0.15
-0.0188956490912,0.0257823063534,-0.0679794288536,-0.0301165663013,-0.0201616928022,0.0515988193803,-0.0490682083618,-8.12,43.7,6.94,0.63,0.22,27.84,-0.12
-0.0188956490912,0.0257823063534,-0.0679794288536,-0.0301165663013,-0.0201616928022,0.0515988193803,-0.0490682083618,-8.85,42.45,6.3,0.54,0.22,27.89,-0.1
-0.0233872212968,0.0162685476578,-0.064216244721,-0.0217824567146,-0.0172620147842,0.0438087018531,-0.0415195831916,-9.79,41.08,6.01,1.12,0.31,27.86,-0.09
-0.0244615605006,0.0143005638298,-0.0637595721253,-0.0201338750916,-0.0167396597264,0.0423917918043,-0.0401416708973,-10.2,39.83,5.52,1.07,0.32,27.92,-0.09
-0.0297602258483,0.0138144589684,-0.0727147744836,-0.0214993718133,-0.0184501318073,0.0472006003845,-0.0445496228993,-11.14,38.67,5.28,1.31,0.32,27.71,-0.07
-0.0288757755296,0.0103109160874,-0.0663628691551,-0.0182749461448,-0.0162485989341,0.0420230526437,-0.0395255542065,-12.39,38.04,4.78,1.61,0.32,27.89,-0.07
-0.029030869692,0.0100987949585,-0.0663120194715,-0.0182954701988,-0.016227389687,0.0419636377821,-0.0394653253012,-13.22,37.31,4.44,1.8,0.37,27.9,-0.09
-0.0303491700724,0.00829576536288,-0.0658797971611,-0.0184699246577,-0.0160471110868,0.0414586114588,-0.0389533796059,-13.64,36.05,3.94,1.9,0.41,27.77,-0.07
-0.0303491700724,0.00829576536288,-0.0658797971611,-0.0184699246577,-0.0160471110868,0.0414586114588,-0.0389533796059,-14.37,35.53,3.75,2.1,0.46,27.8,-0.1
-0.0278882980997,0.00699272690596,-0.0588513618231,-0.0175315658435,-0.014699160142,0.0374734676747,-0.0352750231544,-15.2,35.32,3.36,2.19,0.46,27.8,-0.09
-0.0328096554559,0.00770154470069,-0.0678316000954,-0.021091242627,-0.0172541123721,0.0435668832056,-0.0410668372627,-15.83,34.9,2.92,2.43,0.51,27.8,-0.1
-0.0297089178406,0.00700806499704,-0.0614216971214,-0.0191679064852,-0.0156445058135,0.0394920119351,-0.0372221910664,-16.45,34.17,2.77,2.58,0.56,27.74,-0.1
-0.0333399933401,0.00858577167397,-0.068942376659,-0.0229780071284,-0.0179977829144,0.0452105355532,-0.0425364208446,-16.66,33.75,2.67,2.39,0.51,27.72,-0.13
-0.0316729936731,0.00815648309027,-0.0654952578261,-0.021829106772,-0.0170978937686,0.0429500087755,-0.0404095998023,-17.18,33.32,2.77,2.33,0.51,27.69,-0.15
-0.0299054600915,0.00634513751993,-0.0569794302433,-0.0195154910268,-0.0144586901602,0.0373570561322,-0.0353096957267,-17.6,32.49,2.57,2.63,0.61,27.74,-0.15
-0.0328189204655,0.00572627178049,-0.0580647849315,-0.0204175455135,-0.0143302822437,0.0380811578753,-0.0361547571329,-18.22,31.97,2.03,2.97,0.61,27.77,-0.17
-0.0311193297983,0.00542430926629,-0.0549198692778,-0.0193556463684,-0.0135557080554,0.0360217079404,-0.0342104527704,-18.85,31.13,1.63,2.82,0.5,27.74,-0.15
-0.0285762681573,0.00488283779801,-0.0479314452776,-0.0176916484286,-0.0118595872478,0.0314945325322,-0.0301101801507,-19.26,31.03,1.98,2.62,0.51,27.8,-0.15
-0.0315842963844,0.00539682072411,-0.05297686057,-0.0195539272105,-0.0131079648528,0.0348097464829,-0.0332796727981,-19.37,30.82,1.88,2.62,0.51,27.84,-0.17
-0.0276667774474,0.00509324228965,-0.0457677527082,-0.0177201365477,-0.0116166827551,0.0306404268925,-0.0292198496565,-19.58,30.5,1.93,2.73,0.51,27.78,-0.18
-0.0297566117043,0.0058196431475,-0.0486287702391,-0.0196111760623,-0.0126198314226,0.0330933619439,-0.0314904919006,-19.68,30.08,1.78,2.68,0.56,27.83,-0.18
-0.0280870677672,0.00546167111316,-0.0458238175044,-0.0185398013403,-0.0118920193569,0.0312168234721,-0.029721504158,-19.47,29.87,1.93,2.33,0.56,27.84,-0.17
-0.0250427513779,0.00458400391786,-0.0401616607683,-0.0167931976057,-0.010423613426,0.0276536021675,-0.0264803990431,-19.58,29.66,2.13,2.33,0.56,27.83,-0.17
-0.0276788304703,0.00506653064606,-0.044389204007,-0.0185609026168,-0.0115208358918,0.0305645076588,-0.0292678094687,-19.68,29.35,2.03,2.33,0.56,27.89,-0.15
-0.0224497405446,0.00360821190679,-0.034409078905,-0.0153013869115,-0.0091128584177,0.0242216086389,-0.0229774550458,-19.37,29.14,2.22,2.33,0.61,27.95,-0.13
-0.0227855008134,0.00321168419906,-0.0334423880644,-0.0157522810851,-0.00904108814189,0.0240727017676,-0.0226369633368,-19.16,29.35,2.13,2.58,0.56,27.89,-0.15
-0.0214809466829,0.00304132579722,-0.0315278631307,-0.0149219449709,-0.00853480019304,0.022731176431,-0.0213872142675,-19.16,29.24,2.13,2.33,0.5,27.89,-0.12
-0.0183406439758,0.00285561615132,-0.0269221580509,-0.0141102258318,-0.00750436289959,0.0201112617135,-0.0191470971211,-18.95,29.14,2.33,2.14,0.56,27.9,-0.12
-0.0183406439758,0.00285561615132,-0.0269221580509,-0.0141102258318,-0.00750436289959,0.0201112617135,-0.0191470971211,-18.85,29.14,2.42,1.95,0.51,27.92,-0.12
-0.0157241702948,0.00285627335462,-0.0238401650566,-0.0130509006794,-0.00702030513066,0.0183269445812,-0.01733516141,-18.64,29.14,2.57,1.94,0.56,27.92,-0.12
-0.0158030411875,0.00328049713733,-0.0247219180603,-0.0140743427542,-0.00764470255,0.0195085627545,-0.0183458866526,-18.43,29.14,2.37,1.94,0.51,27.89,-0.09
-0.0148514512096,0.00311986924325,-0.0233174956694,-0.0133099181113,-0.00723246955253,0.0184255783025,-0.017327825019,-18.22,28.93,2.42,1.81,0.51,27.89,-0.1
-0.0117841307588,0.00318441153624,-0.0201192924001,-0.0121564755138,-0.00666251002307,0.0163820083321,-0.0154132463006,-18.01,28.93,2.47,1.65,0.56,27.9,-0.09
-0.0117841307588,0.00318441153624,-0.0201192924001,-0.0121564755138,-0.00666251002307,0.0163820083321,-0.0154132463006,-17.91,28.72,2.48,1.56,0.51,27.89,-0.09
-0.00793362398577,0.00284054674116,-0.0154689765791,-0.0104541885797,-0.0054395345904,0.0132269373948,-0.0124744747299,-17.7,28.62,2.72,1.66,0.55,27.86,-0.09
-0.00550444789749,0.00281743433983,-0.0130704433237,-0.0100117891408,-0.0049334214719,0.011847964573,-0.0112040684201,-17.7,28.41,2.57,1.56,0.56,27.89,-0.09
-0.0056418490606,0.00294921350287,-0.0136018371809,-0.0104662931886,-0.00514800162574,0.0123479618632,-0.0116731308015,-17.81,27.99,2.52,1.51,0.56,27.86,-0.07
-0.00261062209916,0.00250380409783,-0.0100964832868,-0.00863557690822,-0.00407702292293,0.00949994851474,-0.00891218524623,-18.01,27.57,2.67,1.65,0.56,27.86,-0.09
-0.00261062209916,0.00250380409783,-0.0100964832868,-0.00863557690822,-0.00407702292293,0.00949994851474,-0.00891218524623,-17.49,27.67,1.98,1.7,0.56,27.9,-0.07
-0.000883437137546,0.00211183170253,-0.00820360767721,-0.00764689403767,-0.00345233068799,0.0080035917941,-0.00746156244994,-16.56,27.67,2.03,1.65,0.56,27.84,-0.07
-0.000172243329821,0.00195043130446,-0.00742418830857,-0.00723978932626,-0.00319510447361,0.00738744490913,-0.00686424718088,-16.45,27.88,2.18,1.56,0.56,27.87,-0.07
0.000675157890273,0.000932086535455,-0.00560386470772,-0.00600001575226,-0.0024190175906,0.00574463122645,-0.00533460655652,-16.25,27.88,2.18,1.56,0.56,27.81,-0.07
0.00171087049261,-0.000312557071114,-0.00337902475112,-0.00448473693959,-0.00147046695581,0.00373674783649,-0.0034650457934,-16.04,28.09,2.22,1.61,0.56,27.87,-0.07
0.00171087049261,-0.000312557071114,-0.00337902475112,-0.00448473693959,-0.00147046695581,0.00373674783649,-0.0034650457934,-15.83,27.99,2.03,1.65,0.56,27.86,-0.07
0.00347795553091,-0.00124452314831,-0.0018045049468,-0.00246256050485,-0.000658101646844,0.00183142228671,-0.00141458511127,-15.62,27.88,2.08,1.8,0.56,27.86,-0.06
0.00347795553091,-0.00124452314831,-0.0018045049468,-0.00246256050485,-0.000658101646844,0.00183142228671,-0.00141458511127,-15.51,27.99,1.98,1.7,0.56,27.84,-0.06
0.00381446397005,-0.001577742989,-0.00065791008235,-0.00158255757749,-0.000198671585675,0.000734039681218,-0.000453955102482,-15.41,28.09,2.03,1.71,0.56,27.86,-0.06
0.00489429620247,-0.00227401732602,0.000705665811165,-0.000718777026203,0.000358715183171,-0.000553311327282,0.000704956616591,-15.31,27.99,2.08,1.56,0.61,27.84,-0.04
0.00464958139235,-0.00216031645972,0.000670382520607,-0.000682838174892,0.000340779424013,-0.000525645760918,0.000669708785761,-15.41,28.09,2.08,1.61,0.6,27.86,-0.06
0.00552402214549,-0.00297612676659,0.00254035000413,0.0010448964689,0.00106781772191,-0.00232040770087,0.00233631104907,-15.51,27.99,2.03,1.71,0.6,27.87,-0.04
0.00552402214549,-0.00297612676659,0.00254035000413,0.0010448964689,0.00106781772191,-0.00232040770087,0.00233631104907,-15.41,27.88,2.03,1.7,0.61,27.87,-0.06
0.00303821218002,-0.00163686972162,0.00139719250227,0.000574693057898,0.000587299747051,-0.00127622423548,0.00128497107699,-15.31,27.88,2.03,1.76,0.65,27.86,-0.04
0.0,0.0,0.0,0.0,0.0,0.0,0.0,-15.41,27.88,2.03,1.7,0.61,27.86,-0.04
0.0,0.0,0.0,0.0,0.0,0.0,0.0,-15.41,28.09,2.08,1.61,0.61,27.87,-0.04
0.0,0.0,0.0,0.0,0.0,0.0,0.0,-15.31,28.09,2.08,1.66,0.61,27.86,-0.04
0.0,0.0,0.0,0.0,0.0,0.0,0.0,-15.31,27.99,2.08,1.61,0.65,27.86,-0.04
0.0,0.0,0.0,0.0,0.0,0.0,0.0,-15.41,27.99,2.08,1.7,0.61,27.86,-0.04
0.0,0.0,0.0,0.0,0.0,0.0,0.0,-15.41,27.99,2.03,1.75,0.65,27.86,-0.04
0.0,0.0,0.0,0.0,0.0,0.0,0.0,-15.41,27.99,2.03,1.75,0.65,27.86,-0.04
0.0,0.0,0.0,0.0,0.0,0.0,0.0,-15.31,27.99,2.08,1.71,0.61,27.86,-0.04
0.0,0.0,0.0,0.0,0.0,0.0,0.0,-15.31,28.09,2.08,1.66,0.65,27.84,-0.04
0.0,0.0,0.0,0.0,0.0,0.0,0.0,-15.41,27.99,2.08,1.65,0.65,27.84,-0.04
0.0,0.0,0.0,0.0,0.0,0.0,0.0,-15.31,27.99,2.08,1.7,0.65,27.84,-0.04
0.0,0.0,0.0,0.0,0.0,0.0,0.0,-15.41,27.88,2.03,1.75,0.65,27.84,-0.04
0.0,0.0,0.0,0.0,0.0,0.0,0.0,-15.41,27.99,2.03,1.76,0.65,27.86,-0.04
0.0,0.0,0.0,0.0,0.0,0.0,0.0,-15.31,27.99,2.03,1.76,0.65,27.84,-0.04
0.0,0.0,0.0,0.0,0.0,0.0,0.0,-15.41,27.99,2.03,1.71,0.61,27.84,-0.04
0.0,0.0,0.0,0.0,0.0,0.0,0.0,-15.31,27.99,2.08,1.7,0.65,27.86,-0.04
0.0,0.0,0.0,0.0,0.0,0.0,0.0,-15.41,27.99,2.08,1.71,0.65,27.84,-0.04
0.0,0.0,0.0,0.0,0.0,0.0,0.0,-15.41,27.99,2.08,1.81,0.65,27.84,-0.04
0.0,0.0,0.0,0.0,0.0,0.0,0.0,-15.41,27.99,2.03,1.76,0.61,27.84,-0.04
0.0,0.0,0.0,0.0,0.0,0.0,0.0,-15.31,27.99,2.08,1.75,0.65,27.84,-0.04
0.0,0.0,0.0,0.0,0.0,0.0,0.0,-15.41,27.99,2.08,1.75,0.65,27.86,-0.04
0.0,0.0,0.0,0.0,0.0,0.0,0.0,-15.41,27.99,2.08,1.76,0.65,27.84,-0.04
0.0,0.0,0.0,0.0,0.0,0.0,0.0,-15.31,27.99,2.08,1.75,0.61,27.86,-0.04
0.0,0.0,0.0,0.0,0.0,0.0,0.0,-15.41,27.99,2.03,1.8,0.65,27.86,-0.04
0.0,0.0,0.0,0.0,0.0,0.0,0.0,-15.41,27.99,2.08,1.81,0.65,27.86,-0.04
0.0,0.0,0.0,0.0,0.0,0.0,0.0,-15.41,27.99,2.08,1.75,0.61,27.86,-0.04
0.0,0.0,0.0,0.0,0.0,0.0,0.0,-15.31,27.98,2.08,1.76,0.65,27.86,-0.04
0.0,0.0,0.0,0.0,0.0,0.0,0.0,-15.31,27.99,2.08,1.75,0.65,27.87,-0.04
0.0,0.0,0.0,0.0,0.0,0.0,0.0,-15.41,27.99,2.08,1.75,0.6,27.86,-0.04
0.0,0.0,0.0,0.0,0.0,0.0,0.0,-15.41,27.99,2.08,1.76,0.61,27.86,-0.04
0.0,0.0,0.0,0.0,0.0,0.0,0.0,-15.31,27.99,2.08,1.75,0.65,27.86,-0.04
0.0,0.0,0.0,0.0,0.0,0.0,0.0,-15.31,27.88,2.03,1.81,0.65,27.84,-0.04
0.0,0.0,0.0,0.0,0.0,0.0,0.0,-15.41,27.99,2.08,1.76,0.65,27.86,-0.04
0.0,0.0,0.0,0.0,0.0,0.0,0.0,-15.41,27.99,2.08,1.76,0.61,27.84,-0.04
0.0,0.0,0.0,0.0,0.0,0.0,0.0,-15.31,27.99,2.08,1.75,0.65,27.84,-0.04
0.0,0.0,0.0,0.0,0.0,0.0,0.0,-15.31,27.99,2.08,1.75,0.61,27.84,-0.04
0.0,0.0,0.0,0.0,0.0,0.0,0.0,-15.41,27.99,2.03,1.76,0.6,27.84,-0.04
0.0,0.0,0.0,0.0,0.0,0.0,0.0,-15.41,27.99,2.08,1.75,0.65,27.84,-0.04
0.0,0.0,0.0,0.0,0.0,0.0,0.0,-15.31,27.99,2.03,1.76,0.65,27.86,-0.04
0.0,0.0,0.0,0.0,0.0,0.0,0.0,-15.31,27.99,2.08,1.76,0.65,27.84,-0.04
0.0,0.0,0.0,0.0,0.0,0.0,0.0,-15.31,27.99,2.08,1.71,0.65,27.86,-0.03
0.0,0.0,0.0,0.0,0.0,0.0,0.0,-15.31,27.99,2.08,1.7,0.65,27.84,-0.04
0.0,0.0,0.0,0.0,0.0,0.0,0.0,-15.31,27.99,2.08,1.76,0.65,27.84,-0.04
0.0,0.0,0.0,0.0,0.0,0.0,0.0,-15.31,27.99,2.08,1.75,0.65,27.83,-0.04
0.0,0.0,0.0,0.0,0.0,0.0,0.0,-15.31,27.99,2.08,1.75,0.65,27.83,-0.04
0.0,0.0,0.0,0.0,0.0,0.0,0.0,-15.41,27.99,2.08,1.75,0.65,27.83,-0.04
0.0,0.0,0.0,0.0,0.0,0.0,0.0,-15.41,27.99,2.08,1.7,0.65,27.84,-0.04
0.0,0.0,0.0,0.0,0.0,0.0,0.0,-15.41,27.99,2.08,1.75,0.65,27.84,-0.04
0.0,0.0,0.0,0.0,0.0,0.0,0.0,-15.31,27.99,2.03,1.76,0.65,27.83,-0.04
0.0,0.0,0.0,0.0,0.0,0.0,0.0,-15.31,27.99,2.03,1.75,0.65,27.84,-0.04
0.0,0.0,0.0,0.0,0.0,0.0,0.0,-15.31,27.99,2.08,1.75,0.6,27.84,-0.04
0.0,0.0,0.0,0.0,0.0,0.0,0.0,-15.41,27.99,2.08,1.75,0.65,27.84,-0.04
0.0,0.0,0.0,0.0,0.0,0.0,0.0,-15.41,27.99,2.08,1.75,0.65,27.86,-0.04
0.0,0.0,0.0,0.0,0.0,0.0,0.0,-15.31,27.99,2.08,1.75,0.65,27.86,-0.04
0.0,0.0,0.0,0.0,0.0,0.0,0.0,-15.31,27.99,2.08,1.8,0.65,27.86,-0.04
0.0,0.0,0.0,0.0,0.0,0.0,0.0,-15.41,27.99,2.08,1.81,0.65,27.86,-0.04
0.0,0.0,0.0,0.0,0.0,0.0,0.0,-15.41,27.99,2.08,1.8,0.65,27.86,-0.03
0.0,0.0,0.0,0.0,0.0,0.0,0.0,-15.31,27.98,2.03,1.8,0.65,27.86,-0.04
0.0,0.0,0.0,0.0,0.0,0.0,0.0,-15.41,27.99,2.08,1.76,0.65,27.86,-0.03
0.0,0.0,0.0,0.0,0.0,0.0,0.0,-15.31,27.98,2.03,1.75,0.65,27.86,-0.04
0.0,0.0,0.0,0.0,0.0,0.0,0.0,-15.41,27.99,2.08,1.8,0.65,27.87,-0.04
0.0,0.0,0.0,0.0,0.0,0.0,0.0,-15.41,27.98,2.08,1.81,0.65,27.87,-0.04
0.0,0.0,0.0,0.0,0.0,0.0,0.0,-15.31,27.99,2.08,1.81,0.65,27.87,-0.04
0.0,0.0,0.0,0.0,0.0,0.0,0.0,-15.41,27.99,2.08,1.8,0.65,27.87,-0.04
0.0,0.0,0.0,0.0,0.0,0.0,0.0,-15.41,27.99,2.08,1.76,0.65,27.87,-0.04
0.0,0.0,0.0,0.0,0.0,0.0,0.0,-15.31,27.99,2.08,1.76,0.65,27.87,-0.04
0.0,0.0,0.0,0.0,0.0,0.0,0.0,-15.31,27.99,2.08,1.8,0.65,27.86,-0.04
0.0,0.0,0.0,0.0,0.0,0.0,0.0,-15.31,27.88,2.08,1.75,0.65,27.87,-0.03
0.0,0.0,0.0,0.0,0.0,0.0,0.0,-15.41,27.99,2.08,1.81,0.65,27.86,-0.04
0.0,0.0,0.0,0.0,0.0,0.0,0.0,-15.41,27.99,2.08,1.8,0.65,27.86,-0.04
0.0,0.0,0.0,0.0,0.0,0.0,0.0,-15.41,27.99,2.08,1.8,0.65,27.86,-0.04
0.0,0.0,0.0,0.0,0.0,0.0,0.0,-15.31,27.99,2.08,1.8,0.65,27.86,-0.04
0.0,0.0,0.0,0.0,0.0,0.0,0.0,-15.31,27.88,2.08,1.76,0.65,27.86,-0.04
0.0,0.0,0.0,0.0,0.0,0.0,0.0,-15.41,27.98,2.08,1.75,0.65,27.86,-0.04
0.0,0.0,0.0,0.0,0.0,0.0,0.0,-15.41,27.99,2.08,1.8,0.65,27.84,-0.04
0.0,0.0,0.0,0.0,0.0,0.0,0.0,-15.31,27.99,2.08,1.75,0.65,27.84,-0.04
0.0,0.0,0.0,0.0,0.0,0.0,0.0,-15.41,27.99,2.08,1.76,0.65,27.84,-0.04
0.0,0.0,0.0,0.0,0.0,0.0,0.0,-15.41,27.99,2.08,1.75,0.61,27.84,-0.04
0.0,0.0,0.0,0.0,0.0,0.0,0.0,-15.31,27.99,2.08,1.75,0.65,27.84,-0.04
0.0,0.0,0.0,0.0,0.0,0.0,0.0,-15.41,27.88,2.08,1.75,0.65,27.84,-0.04
0.0,0.0,0.0,0.0,0.0,0.0,0.0,-15.41,27.99,2.08,1.81,0.65,27.84,-0.04
0.0,0.0,0.0,0.0,0.0,0.0,0.0,-15.41,27.99,2.08,1.76,0.65,27.84,-0.04
0.0,0.0,0.0,0.0,0.0,0.0,0.0,-15.41,27.99,2.08,1.76,0.65,27.84,-0.04
0.0,0.0,0.0,0.0,0.0,0.0,0.0,-15.31,27.99,2.08,1.8,0.65,27.84,-0.04
0.0,0.0,0.0,0.0,0.0,0.0,0.0,-15.41,27.99,2.08,1.8,0.65,27.84,-0.04
0.0,0.0,0.0,0.0,0.0,0.0,0.0,-15.31,27.99,2.08,1.75,0.65,27.84,-0.04
0.0,0.0,0.0,0.0,0.0,0.0,0.0,-15.41,27.88,2.08,1.76,0.65,27.84,-0.04
0.0,0.0,0.0,0.0,0.0,0.0,0.0,-15.41,27.99,2.08,1.8,0.65,27.86,-0.04
0.0,0.0,0.0,0.0,0.0,0.0,0.0,-15.41,27.99,2.08,1.8,0.65,27.87,-0.04
0.0,0.0,0.0,0.0,0.0,0.0,0.0,-15.41,27.99,2.08,1.81,0.65,27.84,-0.04
0.0,0.0,0.0,0.0,0.0,0.0,0.0,-15.41,27.88,2.08,1.8,0.65,27.86,-0.04
0.0,0.0,0.0,0.0,0.0,0.0,0.0,-15.41,27.99,2.08,1.8,0.65,27.86,-0.04
0.0,0.0,0.0,0.0,0.0,0.0,0.0,-15.31,27.99,2.08,1.8,0.65,27.86,-0.04
0.0,0.0,0.0,0.0,0.0,0.0,0.0,-15.41,27.99,2.08,1.81,0.65,27.86,-0.04
0.0,0.0,0.0,0.0,0.0,0.0,0.0,-15.41,27.99,2.08,1.81,0.65,27.86,-0.03
0.0,0.0,0.0,0.0,0.0,0.0,0.0,-15.31,27.99,2.08,1.8,0.65,27.86,-0.04
0.0,0.0,0.0,0.0,0.0,0.0,0.0,-15.41,27.88,2.08,1.81,0.65,27.86,-0.03
0.0,0.0,0.0,0.0,0.0,0.0,0.0,-15.31,27.99,2.08,1.8,0.6,27.86,-0.04
0.0,0.0,0.0,0.0,0.0,0.0,0.0,-15.41,27.99,2.08,1.8,0.65,27.86,-0.04
0.0,0.0,0.0,0.0,0.0,0.0,0.0,-15.31,27.99,2.13,1.8,0.65,27.87,-0.04
0.0,0.0,0.0,0.0,0.0,0.0,0.0,-15.41,27.99,2.08,1.8,0.65,27.86,-0.04
0.0,0.0,0.0,0.0,0.0,0.0,0.0,-15.31,27.99,2.08,1.8,0.65,27.87,-0.03
0.0,0.0,0.0,0.0,0.0,0.0,0.0,-15.41,27.99,2.08,1.8,0.65,27.86,-0.03
0.0,0.0,0.0,0.0,0.0,0.0,0.0,-15.31,27.99,2.08,1.8,0.65,27.87,-0.04
0.0,0.0,0.0,0.0,0.0,0.0,0.0,-15.41,27.88,2.08,1.8,0.65,27.86,-0.04
0.0,0.0,0.0,0.0,0.0,0.0,0.0,-15.31,27.88,2.08,1.85,0.65,27.86,-0.04
0.0,0.0,0.0,0.0,0.0,0.0,0.0,-15.31,27.88,2.08,1.8,0.65,27.87,-0.04
0.0,0.0,0.0,0.0,0.0,0.0,0.0,-15.41,27.88,2.08,1.81,0.65,27.86,-0.04
0.0,0.0,0.0,0.0,0.0,0.0,0.0,-15.41,27.99,2.08,1.8,0.65,27.86,-0.04
0.0,0.0,0.0,0.0,0.0,0.0,0.0,-15.31,27.88,2.08,1.8,0.65,27.86,-0.03
0.0,0.0,0.0,0.0,0.0,0.0,0.0,-15.41,27.99,2.13,1.8,0.65,27.86,-0.03
0.0,0.0,0.0,0.0,0.0,0.0,0.0,-15.31,27.99,2.08,1.8,0.65,27.86,-0.04
0.0,0.0,0.0,0.0,0.0,0.0,0.0,-15.31,27.88,2.08,1.8,0.65,27.84,-0.04
0.0,0.0,0.0,0.0,0.0,0.0,0.0,-15.41,27.88,2.08,1.8,0.65,27.84,-0.04
0.0,0.0,0.0,0.0,0.0,0.0,0.0,-15.41,27.99,2.08,1.8,0.65,27.86,-0.03
0.0,0.0,0.0,0.0,0.0,0.0,0.0,-15.41,27.99,2.08,1.75,0.65,27.86,-0.04
0.0,0.0,0.0,0.0,0.0,0.0,0.0,-15.31,27.99,2.08,1.81,0.65,27.86,-0.04
0.0,0.0,0.0,0.0,0.0,0.0,0.0,-15.41,27.99,2.08,1.8,0.65,27.84,-0.04
0.0,0.0,0.0,0.0,0.0,0.0,0.0,-15.31,27.99,2.08,1.8,0.65,27.84,-0.03
0.0,0.0,0.0,0.0,0.0,0.0,0.0,-15.31,27.99,2.08,1.75,0.65,27.84,-0.04
0.0,0.0,0.0,0.0,0.0,0.0,0.0,-15.41,27.99,2.08,1.76,0.65,27.84,-0.04
0.0,0.0,0.0,0.0,0.0,0.0,0.0,-15.41,27.99,2.08,1.8,0.65,27.84,-0.04
0.0,0.0,0.0,0.0,0.0,0.0,0.0,-15.31,27.99,2.08,1.75,0.65,27.84,-0.04
0.0,0.0,0.0,0.0,0.0,0.0,0.0,-15.31,27.99,2.08,1.75,0.65,27.84,-0.04
0.0,0.0,0.0,0.0,0.0,0.0,0.0,-15.41,27.99,2.08,1.76,0.65,27.84,-0.04
0.0,0.0,0.0,0.0,0.0,0.0,0.0,-15.41,27.99,2.08,1.8,0.65,27.83,-0.03
0.0,0.0,0.0,0.0,0.0,0.0,0.0,-15.41,27.99,2.08,1.75,0.65,27.84,-0.04
0.0,0.0,0.0,0.0,0.0,0.0,0.0,-15.41,27.99,2.08,1.8,0.65,27.83,-0.04
0.0,0.0,0.0,0.0,0.0,0.0,0.0,-15.31,27.99,2.08,1.75,0.65,27.84,-0.04
0.0,0.0,0.0,0.0,0.0,0.0,0.0,-15.41,27.99,2.08,1.8,0.65,27.84,-0.04
0.0,0.0,0.0,0.0,0.0,0.0,0.0,-15.41,27.99,2.08,1.75,0.65,27.84,-0.04
0.0,0.0,0.0,0.0,0.0,0.0,0.0,-15.41,27.99,2.08,1.75,0.65,27.84,-0.04
0.0,0.0,0.0,0.0,0.0,0.0,0.0,-15.41,27.99,2.08,1.81,0.65,27.84,-0.04
0.0,0.0,0.0,0.0,0.0,0.0,0.0,-15.41,27.99,2.08,1.8,0.65,27.84,-0.03
0.0,0.0,0.0,0.0,0.0,0.0,0.0,-15.31,27.99,2.08,1.81,0.65,27.86,-0.03
0.0,0.0,0.0,0.0,0.0,0.0,0.0,-15.31,27.99,2.08,1.8,0.65,27.84,-0.04
0.0,0.0,0.0,0.0,0.0,0.0,0.0,-15.41,27.99,2.08,1.8,0.65,27.84,-0.04
0.0,0.0,0.0,0.0,0.0,0.0,0.0,-15.31,27.99,2.08,1.81,0.65,27.84,-0.03
0.0,0.0,0.0,0.0,0.0,0.0,0.0,-15.41,27.99,2.08,1.75,0.65,27.84,-0.04
0.0,0.0,0.0,0.0,0.0,0.0,0.0,-15.41,27.88,2.08,1.8,0.65,27.87,-0.04
0.0,0.0,0.0,0.0,0.0,0.0,0.0,-15.41,27.99,2.08,1.8,0.65,27.86,-0.04
0.0,0.0,0.0,0.0,0.0,0.0,0.0,-15.41,27.99,2.08,1.8,0.7,27.86,-0.04
0.0,0.0,0.0,0.0,0.0,0.0,0.0,-15.31,27.99,2.13,1.8,0.65,27.86,-0.04
0.0,0.0,0.0,0.0,0.0,0.0,0.0,-15.31,27.88,2.08,1.81,0.65,27.86,-0.04
0.0,0.0,0.0,0.0,0.0,0.0,0.0,-15.31,27.99,2.08,1.8,0.65,27.86,-0.04
0.0,0.0,0.0,0.0,0.0,0.0,0.0,-15.41,27.99,2.08,1.81,0.65,27.86,-0.04
0.0,0.0,0.0,0.0,0.0,0.0,0.0,-15.41,27.99,2.08,1.8,0.65,27.86,-0.04
0.0,0.0,0.0,0.0,0.0,0.0,0.0,-15.31,27.99,2.08,1.8,0.65,27.86,-0.04
0.0,0.0,0.0,0.0,0.0,0.0,0.0,-15.31,27.99,2.08,1.8,0.65,27.86,-0.04
0.0,0.0,0.0,0.0,0.0,0.0,0.0,-15.41,27.99,2.13,1.8,0.65,27.86,-0.03
0.0,0.0,0.0,0.0,0.0,0.0,0.0,-15.31,27.88,2.08,1.8,0.65,27.84,-0.04
0.0,0.0,0.0,0.0,0.0,0.0,0.0,-15.31,27.88,2.08,1.8,0.6,27.84,-0.03
0.0,0.0,0.0,0.0,0.0,0.0,0.0,-15.41,27.99,2.08,1.79,0.65,27.84,-0.04
0.0,0.0,0.0,0.0,0.0,0.0,0.0,-15.41,27.99,2.08,1.8,0.65,27.84,-0.04
0.0,0.0,0.0,0.0,0.0,0.0,0.0,-15.41,27.99,2.08,1.8,0.6,27.84,-0.04
0.0,0.0,0.0,0.0,0.0,0.0,0.0,-15.41,27.88,2.08,1.76,0.65,27.83,-0.03
0.0,0.0,0.0,0.0,0.0,0.0,0.0,-15.41,27.99,2.08,1.8,0.65,27.84,-0.04
0.0,0.0,0.0,0.0,0.0,0.0,0.0,-15.41,27.99,2.08,1.76,0.65,27.84,-0.03
0.0,0.0,0.0,0.0,0.0,0.0,0.0,-15.41,27.88,2.08,1.8,0.65,27.84,-0.04
0.0,0.0,0.0,0.0,0.0,0.0,0.0,-15.31,27.99,2.08,1.8,0.65,27.86,-0.03
0.0,0.0,0.0,0.0,0.0,0.0,0.0,-15.31,27.88,2.08,1.8,0.65,27.86,-0.04
0.0,0.0,0.0,0.0,0.0,0.0,0.0,-15.41,27.88,2.08,1.85,0.65,27.86,-0.04
0.0,0.0,0.0,0.0,0.0,0.0,0.0,-15.41,27.88,2.08,1.8,0.65,27.86,-0.04
0.0,0.0,0.0,0.0,0.0,0.0,0.0,-15.41,27.88,2.08,1.8,0.65,27.86,-0.04
0.0,0.0,0.0,0.0,0.0,0.0,0.0,-15.41,27.99,2.08,1.8,0.61,27.84,-0.04
0.0,0.0,0.0,0.0,0.0,0.0,0.0,-15.41,27.99,2.08,1.81,0.65,27.86,-0.04
0.0,0.0,0.0,0.0,0.0,0.0,0.0,-15.31,27.88,2.08,1.8,0.65,27.86,-0.03
0.0,0.0,0.0,0.0,0.0,0.0,0.0,-15.41,27.99,2.13,1.8,0.65,27.84,-0.04
0.0,0.0,0.0,0.0,0.0,0.0,0.0,-15.31,27.99,2.08,1.8,0.65,27.84,-0.03
0.0,0.0,0.0,0.0,0.0,0.0,0.0,-15.41,27.99,2.08,1.8,0.65,27.84,-0.04
0.0,0.0,0.0,0.0,0.0,0.0,0.0,-15.31,27.99,2.08,1.8,0.65,27.84,-0.04
0.0,0.0,0.0,0.0,0.0,0.0,0.0,-15.41,27.99,2.08,1.81,0.65,27.84,-0.04
0.0,0.0,0.0,0.0,0.0,0.0,0.0,-15.41,27.99,2.08,1.75,0.65,27.84,-0.04
0.0,0.0,0.0,0.0,0.0,0.0,0.0,-15.31,27.99,2.08,1.75,0.65,27.84,-0.04
0.0,0.0,0.0,0.0,0.0,0.0,0.0,-15.31,27.99,2.08,1.81,0.65,27.84,-0.04
0.0,0.0,0.0,0.0,0.0,0.0,0.0,-15.41,27.99,2.08,1.8,0.65,27.84,-0.04
0.0,0.0,0.0,0.0,0.0,0.0,0.0,-15.41,27.99,2.08,1.75,0.65,27.83,-0.04
0.0,0.0,0.0,0.0,0.0,0.0,0.0,-15.31,27.88,2.08,1.8,0.65,27.84,-0.04
0.0,0.0,0.0,0.0,0.0,0.0,0.0,-15.41,27.99,2.08,1.76,0.65,27.84,-0.04
0.0,0.0,0.0,0.0,0.0,0.0,0.0,-15.31,27.99,2.08,1.8,0.65,27.84,-0.04
0.0,0.0,0.0,0.0,0.0,0.0,0.0,-15.41,27.88,2.08,1.8,0.65,27.84,-0.04
0.0,0.0,0.0,0.0,0.0,0.0,0.0,-15.41,27.99,2.08,1.76,0.65,27.84,-0.04
0.0,0.0,0.0,0.0,0.0,0.0,0.0,-15.41,27.88,2.08,1.8,0.65,27.83,-0.03
0.0,0.0,0.0,0.0,0.0,0.0,0.0,-15.31,27.88,2.08,1.8,0.65,27.84,-0.04
0.0,0.0,0.0,0.0,0.0,0.0,0.0,-15.31,27.99,2.08,1.8,0.65,27.84,-0.04
0.0,0.0,0.0,0.0,0.0,0.0,0.0,-15.41,27.99,2.08,1.8,0.65,27.86,-0.04
0.0,0.0,0.0,0.0,0.0,0.0,0.0,-15.31,27.88,2.08,1.8,0.65,27.86,-0.03
0.0,0.0,0.0,0.0,0.0,0.0,0.0,-15.31,27.99,2.13,1.85,0.65,27.87,-0.04
0.0,0.0,0.0,0.0,0.0,0.0,0.0,-15.41,27.99,2.08,1.8,0.65,27.86,-0.04
0.0,0.0,0.0,0.0,0.0,0.0,0.0,-15.41,27.88,2.08,1.81,0.65,27.86,-0.04
0.0,0.0,0.0,0.0,0.0,0.0,0.0,-15.41,27.99,2.08,1.8,0.65,27.87,-0.04
0.0,0.0,0.0,0.0,0.0,0.0,0.0,-15.31,27.99,2.08,1.8,0.65,27.86,-0.04
0.0,0.0,0.0,0.0,0.0,0.0,0.0,-15.41,27.88,2.08,1.8,0.65,27.87,-0.04
0.0,0.0,0.0,0.0,0.0,0.0,0.0,-15.41,27.99,2.08,1.8,0.65,27.84,-0.04
0.0,0.0,0.0,0.0,0.0,0.0,0.0,-15.41,27.98,2.08,1.81,0.65,27.84,-0.04
0.0,0.0,0.0,0.0,0.0,0.0,0.0,-15.41,27.88,2.08,1.8,0.65,27.84,-0.04
0.0,0.0,0.0,0.0,0.0,0.0,0.0,-15.31,27.88,2.08,1.75,0.65,27.86,-0.04
0.0,0.0,0.0,0.0,0.0,0.0,0.0,-15.41,27.99,2.08,1.8,0.65,27.84,-0.04
0.0,0.0,0.0,0.0,0.0,0.0,0.0,-15.41,27.98,2.08,1.8,0.65,27.86,-0.04
0.0,0.0,0.0,0.0,0.0,0.0,0.0,-15.41,27.98,2.08,1.8,0.65,27.86,-0.03
0.0,0.0,0.0,0.0,0.0,0.0,0.0,-15.41,27.88,2.08,1.75,0.65,27.84,-0.04
0.0,0.0,0.0,0.0,0.0,0.0,0.0,-15.41,27.99,2.08,1.8,0.65,27.86,-0.04
0.0,0.0,0.0,0.0,0.0,0.0,0.0,-15.41,27.99,2.08,1.8,0.65,27.86,-0.03
0.0,0.0,0.0,0.0,0.0,0.0,0.0,-15.31,27.98,2.08,1.8,0.65,27.86,-0.04
0.0,0.0,0.0,0.0,0.0,0.0,0.0,-15.41,27.99,2.08,1.8,0.65,27.86,-0.03
0.0,0.0,0.0,0.0,0.0,0.0,0.0,-15.31,27.99,2.08,1.8,0.65,27.86,-0.04
0.0,0.0,0.0,0.0,0.0,0.0,0.0,-15.41,27.99,2.08,1.8,0.65,27.86,-0.04
0.0,0.0,0.0,0.0,0.0,0.0,0.0,-15.41,27.99,2.08,1.8,0.65,27.84,-0.04
0.0,0.0,0.0,0.0,0.0,0.0,0.0,-15.41,27.88,2.08,1.8,0.65,27.84,-0.04
0.0,0.0,0.0,0.0,0.0,0.0,0.0,-15.41,27.99,2.08,1.8,0.65,27.84,-0.04
0.0,0.0,0.0,0.0,0.0,0.0,0.0,-15.41,27.99,2.08,1.8,0.65,27.84,-0.04
0.0,0.0,0.0,0.0,0.0,0.0,0.0,-15.31,27.99,2.08,1.8,0.65,27.84,-0.04
0.0,0.0,0.0,0.0,0.0,0.0,0.0,-15.31,27.98,2.08,1.8,0.65,27.86,-0.03
0.0,0.0,0.0,0.0,0.0,0.0,0.0,-15.41,27.99,2.08,1.81,0.65,27.84,-0.04
0.0,0.0,0.0,0.0,0.0,0.0,0.0,-15.41,27.99,2.13,1.8,0.65,27.84,-0.04
0.0,0.0,0.0,0.0,0.0,0.0,0.0,-15.31,27.99,2.08,1.75,0.65,27.84,-0.03
0.0,0.0,0.0,0.0,0.0,0.0,0.0,-15.41,27.99,2.08,1.8,0.65,27.84,-0.04
0.0,0.0,0.0,0.0,0.0,0.0,0.0,-15.31,27.99,2.08,1.8,0.65,27.83,-0.04
0.0,0.0,0.0,0.0,0.0,0.0,0.0,-15.41,27.99,2.08,1.8,0.65,27.84,-0.04
0.0,0.0,0.0,0.0,0.0,0.0,0.0,-15.41,27.88,2.08,1.8,0.65,27.84,-0.03
0.0,0.0,0.0,0.0,0.0,0.0,0.0,-15.41,27.88,2.08,1.75,0.65,27.84,-0.04
0.0,0.0,0.0,0.0,0.0,0.0,0.0,-15.31,27.88,2.08,1.81,0.65,27.84,-0.03
0.0,0.0,0.0,0.0,0.0,0.0,0.0,-15.31,27.88,2.08,1.8,0.65,27.84,-0.04
0.0,0.0,0.0,0.0,0.0,0.0,0.0,-15.31,27.99,2.08,1.81,0.65,27.84,-0.03
0.0,0.0,0.0,0.0,0.0,0.0,0.0,-15.31,27.99,2.08,1.8,0.65,27.84,-0.04
0.0,0.0,0.0,0.0,0.0,0.0,0.0,-15.31,27.99,2.08,1.8,0.65,27.84,-0.04
0.0,0.0,0.0,0.0,0.0,0.0,0.0,-15.41,27.99,2.08,1.81,0.65,27.84,-0.04
0.0,0.0,0.0,0.0,0.0,0.0,0.0,-15.41,27.88,2.08,1.8,0.65,27.84,-0.04
0.0,0.0,0.0,0.0,0.0,0.0,0.0,-15.31,27.88,2.08,1.8,0.65,27.84,-0.04
0.0,0.0,0.0,0.0,0.0,0.0,0.0,-15.41,27.88,2.08,1.8,0.65,27.84,-0.04
0.0,0.0,0.0,0.0,0.0,0.0,0.0,-15.41,27.98,2.08,1.8,0.65,27.86,-0.04
0.0,0.0,0.0,0.0,0.0,0.0,0.0,-15.41,27.88,2.08,1.85,0.65,27.86,-0.04
0.0,0.0,0.0,0.0,0.0,0.0,0.0,-15.41,27.88,2.08,1.8,0.65,27.84,-0.04
0.0,0.0,0.0,0.0,0.0,0.0,0.0,-15.31,27.98,2.08,1.8,0.65,27.86,-0.04
0.0,0.0,0.0,0.0,0.0,0.0,0.0,-15.41,27.99,2.08,1.8,0.65,27.86,-0.04
0.0,0.0,0.0,0.0,0.0,0.0,0.0,-15.31,27.88,2.08,1.81,0.65,27.86,-0.04
0.0,0.0,0.0,0.0,0.0,0.0,0.0,-15.41,27.99,2.08,1.8,0.65,27.86,-0.03
0.0,0.0,0.0,0.0,0.0,0.0,0.0,-15.31,27.99,2.08,1.85,0.65,27.86,-0.04
0.0,0.0,0.0,0.0,0.0,0.0,0.0,-15.41,27.99,2.08,1.8,0.65,27.86,-0.04
0.0,0.0,0.0,0.0,0.0,0.0,0.0,-15.41,27.99,2.08,1.8,0.65,27.86,-0.03
0.0,0.0,0.0,0.0,0.0,0.0,0.0,-15.31,27.99,2.08,1.8,0.65,27.87,-0.04
0.0,0.0,0.0,0.0,0.0,0.0,0.0,-15.31,27.88,2.08,1.8,0.65,27.86,-0.04
0.0,0.0,0.0,0.0,0.0,0.0,0.0,-15.41,27.99,2.08,1.85,0.65,27.86,-0.03
0.0,0.0,0.0,0.0,0.0,0.0,0.0,-15.31,27.88,2.08,1.8,0.65,27.86,-0.04
0.0,0.0,0.0,0.0,0.0,0.0,0.0,-15.31,27.98,2.08,1.8,0.65,27.86,-0.03
0.0,0.0,0.0,0.0,0.0,0.0,0.0,-15.41,27.88,2.13,1.85,0.65,27.86,-0.04
0.0,0.0,0.0,0.0,0.0,0.0,0.0,-15.31,27.99,2.08,1.8,0.65,27.86,-0.04
0.0,0.0,0.0,0.0,0.0,0.0,0.0,-15.41,27.99,2.08,1.8,0.65,27.86,-0.03
0.0,0.0,0.0,0.0,0.0,0.0,0.0,-15.41,27.99,2.08,1.85,0.65,27.86,-0.04
0.0,0.0,0.0,0.0,0.0,0.0,0.0,-15.41,27.99,2.08,1.81,0.65,27.86,-0.03
0.0,0.0,0.0,0.0,0.0,0.0,0.0,-15.31,27.88,2.13,1.8,0.65,27.86,-0.04
0.0,0.0,0.0,0.0,0.0,0.0,0.0,-15.41,27.99,2.08,1.8,0.65,27.86,-0.04
0.0,0.0,0.0,0.0,0.0,0.0,0.0,-15.41,27.88,2.08,1.8,0.65,27.86,-0.03
0.0,0.0,0.0,0.0,0.0,0.0,0.0,-15.41,27.99,2.13,1.85,0.65,27.86,-0.04
0.0,0.0,0.0,0.0,0.0,0.0,0.0,-15.41,27.99,2.08,1.8,0.65,27.86,-0.04
0.0,0.0,0.0,0.0,0.0,0.0,0.0,-15.41,27.99,2.08,1.8,0.65,27.84,-0.04
0.0,0.0,0.0,0.0,0.0,0.0,0.0,-15.41,27.99,2.08,1.8,0.65,27.84,-0.04
0.0,0.0,0.0,0.0,0.0,0.0,0.0,-15.41,27.88,2.08,1.8,0.65,27.84,-0.04
0.0,0.0,0.0,0.0,0.0,0.0,0.0,-15.31,27.99,2.08,1.8,0.65,27.86,-0.04
0.0,0.0,0.0,0.0,0.0,0.0,0.0,-15.41,27.88,2.08,1.81,0.65,27.84,-0.03
0.0,0.0,0.0,0.0,0.0,0.0,0.0,-15.31,27.98,2.08,1.8,0.65,27.84,-0.04
0.0,0.0,0.0,0.0,0.0,0.0,0.0,-15.41,27.88,2.08,1.8,0.65,27.84,-0.04
0.0,0.0,0.0,0.0,0.0,0.0,0.0,-15.41,27.88,2.08,1.8,0.65,27.84,-0.04
0.0,0.0,0.0,0.0,0.0,0.0,0.0,-15.41,27.98,2.08,1.8,0.65,27.84,-0.04
0.0,0.0,0.0,0.0,0.0,0.0,0.0,-15.31,27.99,2.08,1.8,0.65,27.84,-0.04
0.0,0.0,0.0,0.0,0.0,0.0,0.0,-15.41,27.99,2.08,1.8,0.65,27.86,-0.04
0.0,0.0,0.0,0.0,0.0,0.0,0.0,-15.31,27.99,2.08,1.8,0.65,27.86,-0.04
0.0,0.0,0.0,0.0,0.0,0.0,0.0,-15.31,27.98,2.08,1.8,0.65,27.86,-0.03
0.0,0.0,0.0,0.0,0.0,0.0,0.0,-15.31,27.88,2.08,1.8,0.65,27.86,-0.04
0.0,0.0,0.0,0.0,0.0,0.0,0.0,-15.31,27.99,2.08,1.8,0.65,27.86,-0.04
0.0,0.0,0.0,0.0,0.0,0.0,0.0,-15.41,27.88,2.13,1.81,0.65,27.86,-0.04
0.0,0.0,0.0,0.0,0.0,0.0,0.0,-15.31,27.99,2.08,1.81,0.65,27.84,-0.04
0.0,0.0,0.0,0.0,0.0,0.0,0.0,-15.41,27.99,2.08,1.8,0.65,27.84,-0.04
0.0,0.0,0.0,0.0,0.0,0.0,0.0,-15.41,27.99,2.08,1.8,0.65,27.84,-0.04
0.0,0.0,0.0,0.0,0.0,0.0,0.0,-15.31,27.98,2.08,1.75,0.65,27.84,-0.04
0.0,0.0,0.0,0.0,0.0,0.0,0.0,-15.41,27.99,2.08,1.8,0.65,27.83,-0.03
0.0,0.0,0.0,0.0,0.0,0.0,0.0,-15.41,27.99,2.08,1.85,0.65,27.84,-0.03
0.0,0.0,0.0,0.0,0.0,0.0,0.0,-15.41,27.99,2.08,1.8,0.65,27.83,-0.04
0.0,0.0,0.0,0.0,0.0,0.0,0.0,-15.31,27.99,2.08,1.81,0.65,27.84,-0.04
0.0,0.0,0.0,0.0,0.0,0.0,0.0,-15.31,27.99,2.08,1.8,0.65,27.84,-0.04
0.0,0.0,0.0,0.0,0.0,0.0,0.0,-15.41,27.99,2.08,1.8,0.65,27.84,-0.03
0.0,0.0,0.0,0.0,0.0,0.0,0.0,-15.31,27.99,2.08,1.8,0.65,27.84,-0.03
0.0,0.0,0.0,0.0,0.0,0.0,0.0,-15.31,27.99,2.08,1.8,0.65,27.84,-0.04
0.0,0.0,0.0,0.0,0.0,0.0,0.0,-15.41,27.99,2.08,1.8,0.65,27.86,-0.04
0.0,0.0,0.0,0.0,0.0,0.0,0.0,-15.31,27.99,2.08,1.8,0.65,27.86,-0.03
0.0,0.0,0.0,0.0,0.0,0.0,0.0,-15.31,27.88,2.13,1.8,0.65,27.86,-0.03
0.0,0.0,0.0,0.0,0.0,0.0,0.0,-15.41,27.99,2.08,1.8,0.65,27.86,-0.03
0.0,0.0,0.0,0.0,0.0,0.0,0.0,-15.41,27.88,2.08,1.85,0.65,27.86,-0.04
0.0,0.0,0.0,0.0,0.0,0.0,0.0,-15.31,27.88,2.08,1.8,0.65,27.86,-0.04
0.0,0.0,0.0,0.0,0.0,0.0,0.0,-15.41,27.88,2.08,1.8,0.65,27.86,-0.04
0.0,0.0,0.0,0.0,0.0,0.0,0.0,-15.31,27.88,2.08,1.81,0.65,27.86,-0.04
0.0,0.0,0.0,0.0,0.0,0.0,0.0,-15.41,27.99,2.08,1.8,0.65,27.84,-0.04
0.0,0.0,0.0,0.0,0.0,0.0,0.0,-15.31,27.99,2.08,1.85,0.65,27.84,-0.04
0.0,0.0,0.0,0.0,0.0,0.0,0.0,-15.41,27.99,2.08,1.8,0.65,27.83,-0.04
0.0,0.0,0.0,0.0,0.0,0.0,0.0,-15.31,27.88,2.08,1.8,0.65,27.84,-0.04
0.0,0.0,0.0,0.0,0.0,0.0,0.0,-15.41,27.99,2.08,1.8,0.65,27.84,-0.04
0.0,0.0,0.0,0.0,0.0,0.0,0.0,-15.41,27.98,2.08,1.8,0.65,27.84,-0.04
0.0,0.0,0.0,0.0,0.0,0.0,0.0,-15.41,27.88,2.08,1.8,0.65,27.84,-0.04
0.0,0.0,0.0,0.0,0.0,0.0,0.0,-15.31,27.88,2.08,1.85,0.65,27.86,-0.04
0.0,0.0,0.0,0.0,0.0,0.0,0.0,-15.41,27.88,2.08,1.85,0.65,27.86,-0.04
0.0,0.0,0.0,0.0,0.0,0.0,0.0,-15.41,27.88,2.08,1.8,0.65,27.86,-0.04
0.0,0.0,0.0,0.0,0.0,0.0,0.0,-15.41,27.88,2.13,1.8,0.65,27.84,-0.03
0.0,0.0,0.0,0.0,0.0,0.0,0.0,-15.41,27.88,2.08,1.8,0.65,27.86,-0.03
0.0,0.0,0.0,0.0,0.0,0.0,0.0,-15.31,27.99,2.08,1.85,0.65,27.86,-0.04
0.0,0.0,0.0,0.0,0.0,0.0,0.0,-15.41,27.88,2.08,1.8,0.65,27.86,-0.03
0.0,0.0,0.0,0.0,0.0,0.0,0.0,-15.41,27.88,2.08,1.8,0.65,27.86,-0.04
0.0,0.0,0.0,0.0,0.0,0.0,0.0,-15.31,27.99,2.08,1.81,0.65,27.84,-0.03
0.0,0.0,0.0,0.0,0.0,0.0,0.0,-15.41,27.99,2.08,1.8,0.69,27.84,-0.04
0.0,0.0,0.0,0.0,0.0,0.0,0.0,-15.41,27.88,2.08,1.85,0.65,27.84,-0.03
0.0,0.0,0.0,0.0,0.0,0.0,0.0,-15.31,27.88,2.08,1.8,0.65,27.84,-0.04
0.0,0.0,0.0,0.0,0.0,0.0,0.0,-15.31,27.99,2.13,1.8,0.65,27.84,-0.04
0.0,0.0,0.0,0.0,0.0,0.0,0.0,-15.41,27.99,2.08,1.8,0.65,27.84,-0.04
0.0,0.0,0.0,0.0,0.0,0.0,0.0,-15.31,27.99,2.08,1.8,0.65,27.84,-0.04
0.0,0.0,0.0,0.0,0.0,0.0,0.0,-15.31,27.99,2.08,1.8,0.65,27.86,-0.04
0.0,0.0,0.0,0.0,0.0,0.0,0.0,-15.31,27.98,2.08,1.8,0.65,27.84,-0.04
0.0,0.0,0.0,0.0,0.0,0.0,0.0,-15.31,27.88,2.08,1.8,0.65,27.84,-0.04
0.0,0.0,0.0,0.0,0.0,0.0,0.0,-15.31,27.88,2.08,1.8,0.65,27.86,-0.04
0.0,0.0,0.0,0.0,0.0,0.0,0.0,-15.31,27.99,2.08,1.81,0.65,27.86,-0.04
0.0,0.0,0.0,0.0,0.0,0.0,0.0,-15.41,27.99,2.08,1.8,0.65,27.86,-0.04
0.0,0.0,0.0,0.0,0.0,0.0,0.0,-15.31,27.98,2.08,1.85,0.65,27.86,-0.03
0.0,0.0,0.0,0.0,0.0,0.0,0.0,-15.31,27.99,2.13,1.8,0.65,27.86,-0.03
0.0,0.0,0.0,0.0,0.0,0.0,0.0,-15.31,27.99,2.08,1.8,0.65,27.86,-0.04
0.0,0.0,0.0,0.0,0.0,0.0,0.0,-15.31,27.99,2.08,1.8,0.65,27.84,-0.04
0.0,0.0,0.0,0.0,0.0,0.0,0.0,-15.31,27.99,2.13,1.8,0.65,27.86,-0.03
0.0,0.0,0.0,0.0,0.0,0.0,0.0,-15.41,27.98,2.07,1.8,0.65,27.84,-0.04
0.0,0.0,0.0,0.0,0.0,0.0,0.0,-15.41,27.99,2.07,1.8,0.65,27.86,-0.04
0.0,0.0,0.0,0.0,0.0,0.0,0.0,-15.41,27.99,2.08,1.8,0.65,27.86,-0.03
0.0,0.0,0.0,0.0,0.0,0.0,0.0,-15.41,27.88,2.08,1.85,0.65,27.84,-0.04
0.0,0.0,0.0,0.0,0.0,0.0,0.0,-15.41,27.98,2.08,1.8,0.65,27.84,-0.03
0.0,0.0,0.0,0.0,0.0,0.0,0.0,-15.41,27.99,2.08,1.8,0.65,27.84,-0.03
0.0,0.0,0.0,0.0,0.0,0.0,0.0,-15.41,27.99,2.08,1.8,0.65,27.84,-0.04
0.0,0.0,0.0,0.0,0.0,0.0,0.0,-15.41,27.99,2.08,1.8,0.65,27.83,-0.03
0.0,0.0,0.0,0.0,0.0,0.0,0.0,-15.31,27.99,2.08,1.8,0.65,27.84,-0.04
0.0,0.0,0.0,0.0,0.0,0.0,0.0,-15.41,27.98,2.08,1.8,0.65,27.84,-0.04
0.0,0.0,0.0,0.0,0.0,0.0,0.0,-15.41,27.98,2.08,1.85,0.65,27.86,-0.03
0.0,0.0,0.0,0.0,0.0,0.0,0.0,-15.31,27.99,2.08,1.8,0.65,27.86,-0.04
0.0,0.0,0.0,0.0,0.0,0.0,0.0,-15.41,27.88,2.08,1.8,0.65,27.86,-0.03
0.0,0.0,0.0,0.0,0.0,0.0,0.0,-15.41,27.99,2.13,1.8,0.65,27.86,-0.03
0.0,0.0,0.0,0.0,0.0,0.0,0.0,-15.41,27.99,2.08,1.85,0.65,27.84,-0.03
0.0,0.0,0.0,0.0,0.0,0.0,0.0,-15.41,27.99,2.07,1.8,0.65,27.84,-0.03
0.0,0.0,0.0,0.0,0.0,0.0,0.0,-15.41,27.99,2.08,1.8,0.65,27.86,-0.04
0.0,0.0,0.0,0.0,0.0,0.0,0.0,-15.41,27.98,2.08,1.8,0.65,27.84,-0.04
0.0,0.0,0.0,0.0,0.0,0.0,0.0,-15.31,27.99,2.08,1.8,0.65,27.84,-0.04
0.0,0.0,0.0,0.0,0.0,0.0,0.0,-15.41,27.99,2.08,1.8,0.65,27.84,-0.04
0.0,0.0,0.0,0.0,0.0,0.0,0.0,-15.31,27.99,2.08,1.8,0.69,27.84,-0.03
0.0,0.0,0.0,0.0,0.0,0.0,0.0,-15.41,27.99,2.07,1.8,0.7,27.84,-0.04
0.0,0.0,0.0,0.0,0.0,0.0,0.0,-15.41,27.88,2.08,1.8,0.65,27.84,-0.04
0.0,0.0,0.0,0.0,0.0,0.0,0.0,-15.41,27.99,2.08,1.8,0.65,27.84,-0.03
0.0,0.0,0.0,0.0,0.0,0.0,0.0,-15.41,27.99,2.12,1.8,0.65,27.86,-0.03
0.0,0.0,0.0,0.0,0.0,0.0,0.0,-15.31,27.99,2.08,1.8,0.65,27.86,-0.03
0.0,0.0,0.0,0.0,0.0,0.0,0.0,-15.31,27.99,2.08,1.8,0.65,27.86,-0.04
0.0,0.0,0.0,0.0,0.0,0.0,0.0,-15.41,27.99,2.08,1.8,0.65,27.84,-0.04
0.0,0.0,0.0,0.0,0.0,0.0,0.0,-15.41,27.88,2.08,1.85,0.65,27.86,-0.03
0.0,0.0,0.0,0.0,0.0,0.0,0.0,-15.31,27.99,2.07,1.85,0.65,27.84,-0.03
0.0,0.0,0.0,0.0,0.0,0.0,0.0,-15.31,27.88,2.07,1.81,0.65,27.84,-0.03
0.0,0.0,0.0,0.0,0.0,0.0,0.0,-15.31,27.88,2.13,1.8,0.65,27.84,-0.04
0.0,0.0,0.0,0.0,0.0,0.0,0.0,-15.31,27.88,2.08,1.8,0.65,27.84,-0.04
0.0,0.0,0.0,0.0,0.0,0.0,0.0,-15.31,27.98,2.08,1.8,0.65,27.84,-0.03
0.0,0.0,0.0,0.0,0.0,0.0,0.0,-15.41,27.88,2.07,1.8,0.65,27.86,-0.04
0.0,0.0,0.0,0.0,0.0,0.0,0.0,-15.41,27.88,2.08,1.85,0.69,27.86,-0.04
0.0,0.0,0.0,0.0,0.0,0.0,0.0,-15.41,27.88,2.13,1.85,0.65,27.86,-0.03
0.0,0.0,0.0,0.0,0.0,0.0,0.0,-15.41,27.99,2.08,1.85,0.65,27.86,-0.04
0.0,0.0,0.0,0.0,0.0,0.0,0.0,-15.41,27.98,2.08,1.8,0.65,27.84,-0.04
0.0,0.0,0.0,0.0,0.0,0.0,0.0,-15.41,27.99,2.08,1.8,0.65,27.84,-0.04
