0.0,0.0,0.0,0.0,0.0,0.0,0.0,-26.9,36.21,18.99,6.76,3.09,25.94,-0.01
0.0,0.0,0.0,0.0,0.0,0.0,0.0,-26.9,36.21,19.04,6.76,3.09,25.94,0.0
0.0,0.0,0.0,0.0,0.0,0.0,0.0,-26.9,36.11,18.99,6.76,3.09,25.94,0.0
0.0,0.0,0.0,0.0,0.0,0.0,0.0,-26.9,36.11,19.0,6.76,3.13,25.94,-0.01
0.0,0.0,0.0,0.0,0.0,0.0,0.0,-26.9,36.21,19.04,6.8,3.09,25.94,0.0
0.0,0.0,0.0,0.0,0.0,0.0,0.0,-26.9,36.21,19.05,6.8,3.13,25.94,0.0
0.0,0.0,0.0,0.0,0.0,0.0,0.0,-26.9,36.11,18.99,6.8,3.08,25.94,-0.01
0.0,0.0,0.0,0.0,0.0,0.0,0.0,-26.9,36.21,18.99,6.76,3.09,25.92,0.0
0.0,0.0,0.0,0.0,0.0,0.0,0.0,-26.9,36.21,19.04,6.8,3.13,25.95,-0.01
0.0,0.0,0.0,0.0,0.0,0.0,0.0,-27.0,36.21,18.99,6.76,3.13,25.94,-0.01
0.0,0.0,0.0,0.0,0.0,0.0,0.0,-26.9,36.22,18.99,6.76,3.09,25.94,-0.01
0.0,0.0,0.0,0.0,0.0,0.0,0.0,-26.9,36.11,19.0,6.76,3.09,25.94,-0.01
0.0,0.0,0.0,0.0,0.0,0.0,0.0,-26.9,36.21,18.99,6.76,3.09,25.94,-0.01
0.0,0.0,0.0,0.0,0.0,0.0,0.0,-26.9,36.21,19.04,6.76,3.13,25.94,-0.01
0.0,0.0,0.0,0.0,0.0,0.0,0.0,-26.9,36.21,19.04,6.76,3.09,25.94,-0.01
0.0,0.0,0.0,0.0,0.0,0.0,0.0,-26.9,36.11,19.05,6.75,3.09,25.94,-0.01
0.0,0.0,0.0,0.0,0.0,0.0,0.0,-26.9,36.21,19.04,6.75,3.09,25.94,-0.01
0.0,0.0,0.0,0.0,0.0,0.0,0.0,-26.9,36.21,19.04,6.76,3.13,25.94,0.0
0.0,0.0,0.0,0.0,0.0,0.0,0.0,-26.9,36.21,18.99,6.8,3.09,25.92,0.0
0.0,0.0,0.0,0.0,0.0,0.0,0.0,-26.9,36.21,19.05,6.8,3.09,25.94,-0.01
0.0,0.0,0.0,0.0,0.0,0.0,0.0,-26.9,36.11,18.99,6.76,3.09,25.92,-0.01
0.0,0.0,0.0,0.0,0.0,0.0,0.0,-26.9,36.22,19.04,6.8,3.09,25.92,-0.01
0.0,0.0,0.0,0.0,0.0,0.0,0.0,-26.89,36.21,19.04,6.76,3.13,25.92,-0.01
0.0,0.0,0.0,0.0,0.0,0.0,0.0,-26.9,36.11,18.99,6.8,3.09,25.92,-0.01
0.0,0.0,0.0,0.0,0.0,0.0,0.0,-26.9,36.11,18.99,6.8,3.09,25.92,-0.01
0.0,0.0,0.0,0.0,0.0,0.0,0.0,-26.9,36.11,19.04,6.8,3.09,25.92,-0.01
0.0,0.0,0.0,0.0,0.0,0.0,0.0,-26.9,36.21,18.99,6.75,3.09,25.92,-0.01
0.0,0.0,0.0,0.0,0.0,0.0,0.0,-26.9,36.11,19.05,6.76,3.09,25.94,-0.01
0.0,0.0,0.0,0.0,0.0,0.0,0.0,-26.9,36.21,18.99,6.76,3.13,25.92,0.0
0.0,0.0,0.0,0.0,0.0,0.0,0.0,-26.9,36.21,18.99,6.76,3.09,25.92,-0.01
0.0,0.0,0.0,0.0,0.0,0.0,0.0,-26.9,36.21,19.04,6.75,3.09,25.92,-0.01
0.0,0.0,0.0,0.0,0.0,0.0,0.0,-26.9,36.21,18.99,6.76,3.09,25.94,-0.01
0.0,0.0,0.0,0.0,0.0,0.0,0.0,-26.9,36.21,18.99,6.76,3.13,25.94,-0.01
0.0,0.0,0.0,0.0,0.0,0.0,0.0,-26.9,36.22,19.05,6.76,3.13,25.92,-0.01
0.0,0.0,0.0,0.0,0.0,0.0,0.0,-26.9,36.21,18.99,6.75,3.09,25.94,-0.01
0.0,0.0,0.0,0.0,0.0,0.0,0.0,-26.9,36.21,19.04,6.76,3.09,25.94,-0.01
0.0,0.0,0.0,0.0,0.0,0.0,0.0,-26.9,36.22,18.99,6.76,3.09,25.94,-0.01
0.0,0.0,0.0,0.0,0.0,0.0,0.0,-26.9,36.21,18.99,6.76,3.08,25.92,-0.01
0.0,0.0,0.0,0.0,0.0,0.0,0.0,-26.9,36.22,19.04,6.76,3.09,25.94,-0.01
0.0,0.0,0.0,0.0,0.0,0.0,0.0,-26.9,36.21,18.99,6.76,3.08,25.92,-0.01
0.0,0.0,0.0,0.0,0.0,0.0,0.0,-26.9,36.21,19.04,6.76,3.09,25.94,-0.01
0.0,0.0,0.0,0.0,0.0,0.0,0.0,-26.9,36.11,19.04,6.76,3.09,25.94,-0.01
0.0,0.0,0.0,0.0,0.0,0.0,0.0,-26.9,36.11,19.04,6.76,3.13,25.94,-0.01
0.0,0.0,0.0,0.0,0.0,0.0,0.0,-26.9,36.11,18.99,6.76,3.09,25.94,-0.01
0.0,0.0,0.0,0.0,0.0,0.0,0.0,-26.9,36.22,18.99,6.76,3.08,25.94,-0.01
0.0,0.0,0.0,0.0,0.0,0.0,0.0,-26.89,36.2,18.99,6.76,3.13,25.94,-0.01
0.0,0.0,0.0,0.0,0.0,0.0,0.0,-26.9,36.21,19.04,6.76,3.09,25.92,-0.01
0.0,0.0,0.0,0.0,0.0,0.0,0.0,-26.9,36.21,18.99,6.76,3.09,25.94,-0.01
0.0,0.0,0.0,0.0,0.0,0.0,0.0,-26.9,36.21,19.04,6.8,3.09,25.94,-0.01
0.0,0.0,0.0,0.0,0.0,0.0,0.0,-26.9,36.21,18.99,6.76,3.09,25.94,0.0
0.0,0.0,0.0,0.0,0.0,0.0,0.0,-26.9,36.11,18.99,6.75,3.13,25.94,-0.01
0.0,0.0,0.0,0.0,0.0,0.0,0.0,-26.9,36.21,19.04,6.76,3.09,25.94,-0.01
0.0,0.0,0.0,0.0,0.0,0.0,0.0,-26.9,36.21,18.99,6.8,3.09,25.92,-0.01
0.0,0.0,0.0,0.0,0.0,0.0,0.0,-26.9,36.21,19.0,6.76,3.09,25.94,-0.01
0.0,0.0,0.0,0.0,0.0,0.0,0.0,-26.9,36.11,18.99,6.75,3.08,25.94,-0.01
0.0,0.0,0.0,0.0,0.0,0.0,0.0,-26.9,36.21,18.99,6.76,3.09,25.94,-0.01
0.0,0.0,0.0,0.0,0.0,0.0,0.0,-26.9,36.21,18.99,6.76,3.13,25.92,-0.01
0.0,0.0,0.0,0.0,0.0,0.0,0.0,-26.9,36.22,19.04,6.76,3.13,25.94,-0.01
0.0,0.0,0.0,0.0,0.0,0.0,0.0,-26.9,36.11,18.99,6.76,3.09,25.94,-0.01
0.0,0.0,0.0,0.0,0.0,0.0,0.0,-26.9,36.11,19.04,6.76,3.09,25.92,-0.01
0.0,0.0,0.0,0.0,0.0,0.0,0.0,-26.9,36.22,19.04,6.76,3.13,25.94,-0.01
0.0,0.0,0.0,0.0,0.0,0.0,0.0,-26.9,36.21,18.99,6.76,3.13,25.94,-0.01
0.0,0.0,0.0,0.0,0.0,0.0,0.0,-26.9,36.11,19.04,6.8,3.09,25.92,-0.01
0.0,0.0,0.0,0.0,0.0,0.0,0.0,-26.9,36.22,19.04,6.76,3.09,25.92,-0.01
0.0,0.0,0.0,0.0,0.0,0.0,0.0,-26.79,36.11,19.04,6.76,3.08,25.92,-0.01
0.0,0.0,0.0,0.0,0.0,0.0,0.0,-26.9,36.21,18.99,6.76,3.09,25.92,-0.01
0.0,0.0,0.0,0.0,0.0,0.0,0.0,-26.9,36.11,18.99,6.76,3.13,25.92,-0.01
0.0,0.0,0.0,0.0,0.0,0.0,0.0,-26.9,36.11,18.99,6.8,3.08,25.94,-0.01
0.0,0.0,0.0,0.0,0.0,0.0,0.0,-26.9,36.11,18.99,6.76,3.09,25.94,-0.01
0.0,0.0,0.0,0.0,0.0,0.0,0.0,-26.9,36.22,18.99,6.76,3.09,25.92,-0.01
0.0,0.0,0.0,0.0,0.0,0.0,0.0,-26.9,36.21,19.05,6.75,3.09,25.92,-0.01
0.0,0.0,0.0,0.0,0.0,0.0,0.0,-26.9,36.11,19.0,6.76,3.09,25.94,-0.01
0.0,0.0,0.0,0.0,0.0,0.0,0.0,-26.9,36.11,18.99,6.76,3.09,25.94,-0.01
0.0,0.0,0.0,0.0,0.0,0.0,0.0,-26.9,36.21,18.99,6.76,3.08,25.92,-0.01
0.0,0.0,0.0,0.0,0.0,0.0,0.0,-26.9,36.11,18.99,6.76,3.09,25.92,-0.01
0.0,0.0,0.0,0.0,0.0,0.0,0.0,-26.9,36.11,18.99,6.76,3.13,25.92,-0.01
0.0,0.0,0.0,0.0,0.0,0.0,0.0,-26.9,36.11,19.04,6.76,3.08,25.94,0.0
0.0,0.0,0.0,0.0,0.0,0.0,0.0,-26.9,36.11,19.04,6.7,3.08,25.92,-0.01
0.0,0.0,0.0,0.0,0.0,0.0,0.0,-26.9,36.21,19.04,6.76,3.09,25.94,-0.01
0.0,0.0,0.0,0.0,0.0,0.0,0.0,-26.9,36.21,18.99,6.8,3.08,25.92,-0.01
0.0,0.0,0.0,0.0,0.0,0.0,0.0,-26.9,36.21,19.04,6.75,3.09,25.92,0.0
0.0,0.0,0.0,0.0,0.0,0.0,0.0,-26.9,36.1,19.04,6.76,3.09,25.94,-0.01
0.0,0.0,0.0,0.0,0.0,0.0,0.0,-26.9,36.21,19.04,6.76,3.09,25.94,-0.01
0.0,0.0,0.0,0.0,0.0,0.0,0.0,-26.9,36.11,18.99,6.76,3.09,25.92,-0.01
0.0,0.0,0.0,0.0,0.0,0.0,0.0,-26.9,36.11,19.04,6.8,3.09,25.94,-0.01
0.0,0.0,0.0,0.0,0.0,0.0,0.0,-26.9,36.11,19.04,6.75,3.09,25.94,-0.01
0.0,0.0,0.0,0.0,0.0,0.0,0.0,-26.9,36.21,19.04,6.76,3.08,25.94,0.0
0.0,0.0,0.0,0.0,0.0,0.0,0.0,-26.9,36.21,19.0,6.76,3.09,25.94,-0.01
0.0,0.0,0.0,0.0,0.0,0.0,0.0,-26.9,36.11,18.99,6.76,3.09,25.94,-0.01
0.0,0.0,0.0,0.0,0.0,0.0,0.0,-26.9,36.21,19.03,6.8,3.08,25.94,-0.01
0.0,0.0,0.0,0.0,0.0,0.0,0.0,-26.9,36.21,19.04,6.76,3.13,25.94,-0.01
0.0,0.0,0.0,0.0,0.0,0.0,0.0,-26.9,36.21,18.99,6.75,3.09,25.94,-0.01
0.0,0.0,0.0,0.0,0.0,0.0,0.0,-26.9,36.11,18.99,6.76,3.08,25.94,0.0
0.0,0.0,0.0,0.0,0.0,0.0,0.0,-26.9,36.21,19.04,6.76,3.09,25.94,0.0
0.0,0.0,0.0,0.0,0.0,0.0,0.0,-26.9,36.21,18.99,6.76,3.09,25.94,0.0
0.0,0.0,0.0,0.0,0.0,0.0,0.0,-26.9,36.21,19.04,6.76,3.09,25.94,-0.01
0.0,0.0,0.0,0.0,0.0,0.0,0.0,-26.9,36.21,19.0,6.75,3.13,25.94,0.0
0.0,0.0,0.0,0.0,0.0,0.0,0.0,-26.9,36.11,19.04,6.76,3.09,25.94,-0.01
0.0,0.0,0.0,0.0,0.0,0.0,0.0,-26.9,36.21,19.04,6.76,3.09,25.92,-0.01
0.0,0.0,0.0,0.0,0.0,0.0,0.0,-26.9,36.21,18.99,6.8,3.09,25.94,-0.01
0.0,0.0,0.0,0.0,0.0,0.0,0.0,-26.9,36.21,18.99,6.8,3.09,25.94,-0.01
0.0,0.0,0.0,0.0,0.0,0.0,0.0,-26.9,36.21,19.04,6.76,3.09,25.94,-0.01
0.0,0.0,0.0,0.0,0.0,0.0,0.0,-26.9,36.21,19.04,6.75,3.09,25.94,0.0
0.0,0.0,0.0,0.0,0.0,0.0,0.0,-26.9,36.21,19.04,6.76,3.09,25.94,-0.01
0.0,0.0,0.0,0.0,0.0,0.0,0.0,-26.9,36.22,18.99,6.76,3.08,25.94,-0.01
0.0,0.0,0.0,0.0,0.0,0.0,0.0,-26.9,36.21,18.99,6.76,3.13,25.92,-0.01
0.0,0.0,0.0,0.0,0.0,0.0,0.0,-26.9,36.21,19.04,6.76,3.08,25.92,-0.01
0.0,0.0,0.0,0.0,0.0,0.0,0.0,-26.9,36.21,18.99,6.76,3.08,25.92,-0.01
0.0,0.0,0.0,0.0,0.0,0.0,0.0,-26.9,36.21,19.05,6.75,3.13,25.92,-0.01
-0.00107055809957,0.00529073743791,-0.00858706217562,-0.00653746433424,-0.00381948904088,0.00796981364021,-0.00765427675607,-26.9,36.22,18.99,6.75,3.09,25.94,-0.01
-0.00339010064865,0.0181048022641,-0.0343847271123,-0.0235529555876,-0.0125140583553,0.030475486388,-0.0288578145913,-26.9,36.22,18.99,6.71,3.08,25.97,-0.03
-0.00339010064865,0.0181048022641,-0.0343847271123,-0.0235529555876,-0.0125140583553,0.030475486388,-0.0288578145913,-26.9,36.32,19.04,6.66,3.09,26.0,-0.04
-0.00410102599484,0.0219014927313,-0.0415954198191,-0.0284921579413,-0.0151313387827,0.0368603314486,-0.0349094791149,-26.9,36.42,18.99,6.6,3.09,26.01,-0.06
-0.00423432449725,0.0226133721939,-0.0429474247017,-0.0294182583827,-0.0156220788629,0.0380574898975,-0.0360441662131,-26.9,36.53,18.89,6.61,3.03,25.91,-0.07
-0.004499292418,0.0240284310103,-0.0456349111784,-0.0312591410927,-0.0166001690041,0.0404394328244,-0.0382996730319,-26.9,36.42,18.75,6.51,3.04,25.98,-0.09
-0.00484375071497,0.0258680074716,-0.0491286435982,-0.0336522886157,-0.0178716861878,0.0435359586295,-0.0412318318963,-26.9,36.42,18.7,6.37,3.04,26.03,-0.1
-0.00488581195276,0.0260665354833,-0.0495307042432,-0.0339368429588,-0.0180240867261,0.0436372611008,-0.0415741859879,-26.9,36.42,18.65,6.31,2.99,25.94,-0.12
-0.00541426235316,0.0284176835297,-0.0544474823801,-0.0374698814069,-0.0199235209086,0.0433923886253,-0.0457894416453,-26.9,36.43,18.5,6.18,2.93,26.0,-0.15
-0.00594338344677,0.0311948662383,-0.0597684863399,-0.0411317107263,-0.0218705922702,0.0476330084228,-0.050264318897,-26.9,36.42,18.35,6.13,2.89,26.01,-0.15
-0.00559037029057,0.030054040995,-0.0581589033553,-0.0398340259712,-0.0215953200452,0.0434759200993,-0.0463183725593,-26.79,36.42,18.35,6.03,2.8,26.06,-0.15
-0.00658417960224,0.0356995919482,-0.0693230899337,-0.047402466433,-0.0258697155281,0.0506400140022,-0.0541440272408,-26.79,36.42,18.25,5.93,2.75,26.07,-0.15
-0.00611963132212,0.0339600497291,-0.0669811209901,-0.0457907998394,-0.0252711900786,0.0462338959211,-0.0497618980712,-26.79,36.43,18.26,5.98,2.7,26.12,-0.15
-0.00581400914768,0.0336388165048,-0.0681332554671,-0.0465610459099,-0.0261733240058,0.0424549616209,-0.0462852563077,-26.69,36.43,18.35,6.07,2.7,25.98,-0.15
-0.00563734742906,0.0325874748174,-0.0659596150459,-0.045076684039,-0.0253248797481,0.0412756175854,-0.0449150193801,-26.79,36.32,18.21,5.84,2.65,26.18,-0.15
-0.00688807627631,0.0394874342706,-0.0794255980663,-0.0542913666918,-0.0303429442608,0.0516838059188,-0.0552887387801,-26.79,36.32,18.35,5.79,2.61,26.18,-0.13
-0.00660107309813,0.0378421245093,-0.0761161981468,-0.052029226413,-0.0290786549166,0.0495303140056,-0.0529850413309,-26.69,36.32,18.16,6.08,2.61,26.06,-0.1
-0.00567061082301,0.0363274717929,-0.0752606057895,-0.0515125338108,-0.0280619440873,0.0470105798507,-0.0481427105037,-26.58,36.32,18.26,5.79,2.61,26.15,-0.1
-0.00542248754964,0.0359235644019,-0.0750324478276,-0.0513747491169,-0.0277908211995,0.0463386507428,-0.0468514222831,-26.79,36.32,18.11,5.98,2.55,26.1,-0.09
-0.00544688281046,0.036385341366,-0.0760623338168,-0.0520481543314,-0.0280404426732,0.047331289395,-0.0474816232734,-26.69,36.43,18.16,5.98,2.55,26.04,-0.09
-0.00552006859289,0.0377706722583,-0.0791519917844,-0.0540683699748,-0.028789307094,0.0503092053519,-0.0493722262442,-26.69,36.42,18.16,6.08,2.55,26.03,-0.1
-0.00552006859289,0.0377706722583,-0.0791519917844,-0.0540683699748,-0.028789307094,0.0503092053519,-0.0493722262442,-26.69,36.32,18.02,5.97,2.5,26.0,-0.1
-0.00561763228086,0.039781993515,-0.083311062494,-0.0568124457249,-0.0296114086856,0.0540302852873,-0.0521613636211,-26.69,36.43,18.11,6.13,2.51,25.98,-0.12
-0.00564202320286,0.0402848238292,-0.0843508301713,-0.0574984646624,-0.0298169340834,0.0549605552711,-0.0528586479653,-26.79,36.42,18.06,5.97,2.5,25.94,-0.13
-0.00555473191006,0.0403250903,-0.0843912361837,-0.0573962199163,-0.0297296191506,0.0552605183398,-0.0529969137299,-26.79,36.32,18.11,6.08,2.46,26.04,-0.15
-0.00533650367807,0.040425756477,-0.0844922512147,-0.057140608051,-0.0295113318184,0.0560104260117,-0.0533425781413,-26.69,36.32,18.06,6.08,2.46,25.94,-0.17
-0.00533650367807,0.040425756477,-0.0844922512147,-0.057140608051,-0.0295113318184,0.0560104260117,-0.0533425781413,-26.79,36.22,17.96,6.18,2.46,25.97,-0.17
-0.00496399201957,0.0381042259645,-0.0797588902182,-0.053000947475,-0.027236066037,0.0529931858361,-0.050983313275,-26.69,36.11,18.21,6.07,2.46,25.92,-0.18
-0.00487086410494,0.0375238433363,-0.078575549969,-0.051966032331,-0.0266672495917,0.0522388757922,-0.0503934970584,-26.69,36.11,18.21,6.36,2.51,26.0,-0.17
-0.00491020455412,0.0374305353603,-0.078305047827,-0.0516428817102,-0.0265626820214,0.052273204225,-0.0506017582902,-26.69,36.11,18.06,6.13,2.51,25.98,-0.2
-0.00502822590165,0.0371506114323,-0.0774935414007,-0.0506734298475,-0.0262489793106,0.0523761895235,-0.0512265419856,-26.69,36.11,17.96,6.08,2.46,26.06,-0.18
-0.00502822590165,0.0371506114323,-0.0774935414007,-0.0506734298475,-0.0262489793106,0.0523761895235,-0.0512265419856,-26.69,36.11,18.16,6.12,2.46,26.09,-0.18
-0.00555705052379,0.0391027459356,-0.0810745676542,-0.0526063004775,-0.0275410693784,0.0572770856769,-0.0559688748001,-26.69,36.0,18.06,5.98,2.46,26.19,-0.17
-0.00568925667932,0.0395907795614,-0.0819698242176,-0.053089518135,-0.0278640918954,0.0585023097153,-0.0571544580037,-26.58,36.11,17.91,6.27,2.46,26.15,-0.15
-0.00574729066729,0.0395789150397,-0.0817291904083,-0.052902445396,-0.0278691894694,0.0591855117504,-0.0576983167895,-26.58,36.0,17.86,5.93,2.46,26.24,-0.12
-0.00590978583359,0.0395456943789,-0.0810554157424,-0.052378641727,-0.0278834626766,0.0610984774487,-0.0592211213899,-26.58,36.0,17.96,6.13,2.46,26.21,-0.12
-0.00590978583359,0.0395456943789,-0.0810554157424,-0.052378641727,-0.0278834626766,0.0610984774487,-0.0592211213899,-26.58,36.0,17.86,5.97,2.41,26.15,-0.09
-0.00596176699805,0.0373211882154,-0.0754726040158,-0.04877762691,-0.0260654312135,0.0615387218519,-0.0578450588172,-26.58,36.0,17.86,6.17,2.45,26.18,-0.09
-0.00597562864191,0.0367279865718,-0.0739838542221,-0.0478173562921,-0.0255806228233,0.0616561203595,-0.0574781087979,-26.58,35.9,17.96,6.08,2.46,26.07,-0.1
-0.00607525072804,0.0368658864409,-0.0740816312705,-0.0479521925102,-0.0257198551636,0.0621910152751,-0.0578126385825,-26.58,35.9,17.86,6.32,2.5,25.98,-0.1
-0.00637411698645,0.0372795860482,-0.0743749624157,-0.0483567011644,-0.0261375521845,0.063795700022,-0.0588162279365,-26.58,35.9,17.86,6.12,2.5,26.09,-0.12
-0.00637411698645,0.0372795860482,-0.0743749624157,-0.0483567011644,-0.0261375521845,0.063795700022,-0.0588162279365,-26.69,35.9,17.96,6.32,2.51,25.92,-0.13
-0.00720624420797,0.040484275581,-0.0798430448643,-0.052497199168,-0.0283785651017,0.0698041876887,-0.0638723971713,-26.58,36.11,17.91,6.27,2.5,25.86,-0.13
-0.00742814480037,0.0413388594565,-0.0813012001839,-0.053601331969,-0.0289761685462,0.0714064510665,-0.0652207089673,-26.69,35.9,17.81,6.32,2.51,26.06,-0.15
-0.00723289074282,0.039584341312,-0.0777170368146,-0.0513751811216,-0.0276714132845,0.068377662815,-0.0627078833386,-26.48,35.9,17.67,6.18,2.46,26.03,-0.15
-0.00832985711202,0.0439177626368,-0.0858853861796,-0.0571235053893,-0.0305101424916,0.0758679311625,-0.0702218477509,-26.69,36.0,17.67,6.18,2.5,26.09,-0.18
-0.00798277973235,0.0420878558602,-0.0823068284221,-0.0547433593314,-0.0292388865545,0.072706767364,-0.0672959374279,-26.58,35.9,17.76,6.13,2.41,26.13,-0.18
-0.00821394406248,0.0409208625078,-0.0791923948999,-0.0530702372691,-0.0288275406953,0.070457446534,-0.0663459893648,-26.58,35.79,17.67,6.08,2.41,26.3,-0.18
-0.00862464126561,0.0429669056332,-0.0831520146449,-0.0557237491325,-0.0302689177301,0.0739803188607,-0.0696632888331,-26.48,35.9,17.72,6.37,2.41,26.19,-0.15
-0.00973615668965,0.0456385323087,-0.0866527018974,-0.0589151087821,-0.0313443462332,0.0776341532885,-0.0737239583046,-26.37,35.58,17.47,6.02,2.41,26.22,-0.1
-0.00955574115169,0.0438968398231,-0.0827910208161,-0.0565758763771,-0.0298801241618,0.0743570270108,-0.0708204323354,-26.48,35.79,17.57,6.13,2.45,26.15,-0.1
-0.00971638272425,0.0445073475906,-0.0836291292852,-0.0572032977239,-0.0305610706577,0.0752965281344,-0.0715561993354,-26.48,35.58,17.72,6.13,2.46,26.07,-0.1
-0.00999176827721,0.045553932335,-0.0850658866607,-0.0582788771757,-0.0317284075078,0.0769071014892,-0.0728175141926,-26.48,35.7,17.62,6.08,2.46,26.19,-0.09
-0.00999176827721,0.045553932335,-0.0850658866607,-0.0582788771757,-0.0317284075078,0.0769071014892,-0.0728175141926,-26.37,35.58,17.47,5.98,2.41,26.13,-0.1
-0.010152766472,0.0458600294033,-0.0852742924618,-0.0586526257034,-0.0315951639307,0.0774295781012,-0.072118704025,-26.37,35.58,17.37,5.84,2.37,26.03,-0.13
-0.00967660290732,0.0436901004325,-0.0812230633786,-0.0558765935737,-0.0300845895223,0.0737661504189,-0.0686527879527,-26.27,35.69,17.47,6.18,2.46,26.16,-0.13
-0.0105504373191,0.0480948952872,-0.0893891949238,-0.0619762358339,-0.0330303695904,0.0802853674738,-0.074937997215,-26.17,35.58,17.57,5.98,2.46,26.06,-0.15
-0.00946555053847,0.0434645944854,-0.0807678876726,-0.056326363503,-0.0297910516484,0.071932197218,-0.0672909619366,-26.37,35.59,17.52,6.32,2.46,26.06,-0.17
-0.0104835097331,0.0482177815021,-0.0896218220986,-0.0625172198254,-0.0329907650465,0.0797331651181,-0.0746450002433,-26.27,35.48,17.27,6.13,2.45,26.25,-0.18
-0.00940540396233,0.0446151988875,-0.0832922537346,-0.0583808634502,-0.0295271456336,0.0726535170313,-0.0689864437059,-26.37,35.48,17.27,5.93,2.46,26.22,-0.18
-0.00987567416044,0.0468459588319,-0.0874568664213,-0.0612999066227,-0.0310035029153,0.0762861928829,-0.0724357658912,-26.27,35.37,17.52,6.51,2.46,26.06,-0.17
-0.0109275461187,0.0528494195052,-0.098567991807,-0.0690664180511,-0.0350246929435,0.0860864049631,-0.0818974093559,-26.37,35.37,17.18,6.08,2.51,26.37,-0.17
-0.0115286158091,0.0562799684614,-0.105491078612,-0.0736740028862,-0.0373225158168,0.0921019364033,-0.0876785471391,-26.37,35.37,17.13,6.02,2.46,26.34,-0.13
-0.0115723133307,0.0567292252705,-0.106360729967,-0.0741996463672,-0.0377191107592,0.0929307333451,-0.0884480874907,-26.17,35.37,17.18,6.08,2.41,26.25,-0.12
-0.0117361790366,0.0584139383046,-0.109621922544,-0.076170809421,-0.0392063417933,0.0960387218767,-0.0913338638093,-26.06,35.48,17.13,5.93,2.41,26.21,-0.1
-0.0112259103828,0.0558742018566,-0.104855751999,-0.0728590350984,-0.0375017182371,0.0918631252734,-0.0873628262524,-26.17,35.37,17.03,5.97,2.41,26.16,-0.1
-0.0119051631927,0.0596995764744,-0.113551551035,-0.0783515941657,-0.0404978491166,0.0997621430166,-0.0933217932368,-26.06,35.48,17.13,6.22,2.46,25.94,-0.13
-0.0112625412549,0.0565257820224,-0.107679756921,-0.0742410372392,-0.0383914694239,0.0946335151979,-0.0883581302156,-26.06,35.27,16.93,5.93,2.45,26.18,-0.17
-0.0113168282918,0.0570460313718,-0.108857598719,-0.0750834796843,-0.038358398624,0.094948830113,-0.0886197774939,-26.06,35.16,17.03,5.93,2.41,26.28,-0.2
-0.0113914729676,0.0577613742272,-0.110477131191,-0.0762418380462,-0.0383129262742,0.0953823881213,-0.0889795425016,-26.06,35.27,17.03,6.12,2.46,26.15,-0.17
-0.0113914729676,0.0577613742272,-0.110477131191,-0.0762418380462,-0.0383129262742,0.0953823881213,-0.0889795425016,-25.85,35.27,16.98,6.27,2.46,26.34,-0.18
-0.0112361559551,0.0586746638839,-0.112304873879,-0.0774564143795,-0.0382444249124,0.0949284782044,-0.0892291797646,-26.06,35.16,16.98,5.93,2.41,26.3,-0.18
-0.0106665823068,0.0557865951725,-0.106781017319,-0.0736443224772,-0.0363287785987,0.0901593587984,-0.0847802026395,-26.06,35.07,16.93,6.18,2.37,26.28,-0.17
-0.0121907749789,0.0645963773401,-0.12345641554,-0.0850115302512,-0.0419678847888,0.104155827737,-0.0981233347507,-26.06,35.06,16.93,6.08,2.41,26.22,-0.12
-0.0121111185116,0.065332298542,-0.124922567722,-0.0856218751721,-0.0423124970069,0.105028725756,-0.0991794421812,-25.96,35.16,17.08,6.47,2.32,26.21,-0.12
-0.0121111185116,0.065332298542,-0.124922567722,-0.0856218751721,-0.0423124970069,0.105028725756,-0.0991794421812,-25.85,35.16,16.93,6.17,2.37,26.31,-0.09
-0.0120568336912,0.066316522226,-0.127428023102,-0.0869684022712,-0.0437728222265,0.107336838214,-0.101171000459,-25.96,35.06,16.93,6.07,2.32,26.16,-0.13
-0.0120538178678,0.0663712013196,-0.127567215068,-0.0870432093323,-0.0438539514054,0.107465066684,-0.101281642585,-25.96,35.06,16.83,6.08,2.36,26.25,-0.12
-0.0117649036226,0.0651861464689,-0.126083945616,-0.0856499294899,-0.0436192554726,0.106025712857,-0.0996188978196,-25.96,35.06,16.78,5.93,2.41,26.25,-0.17
-0.0113315322547,0.0634085641928,-0.123859041439,-0.0835600097262,-0.0432672115734,0.103866682118,-0.0971247806714,-25.85,34.96,16.73,6.32,2.37,26.24,-0.17
-0.0113315322547,0.0634085641928,-0.123859041439,-0.0835600097262,-0.0432672115734,0.103866682118,-0.0971247806714,-25.75,34.85,16.54,6.32,2.36,26.33,-0.18
-0.0115690185986,0.0643218687362,-0.126047407216,-0.0850439125752,-0.0441531274732,0.104401762488,-0.0980995813633,-25.85,34.96,16.73,5.88,2.41,26.36,-0.17
-0.0115822122844,0.0643726078775,-0.126168983092,-0.0851263516224,-0.0442023450232,0.104431489175,-0.0981537369573,-25.75,34.75,16.54,6.07,2.37,26.42,-0.15
-0.0115297108564,0.0640692996893,-0.126092942837,-0.0847575091556,-0.0439196506271,0.104487580073,-0.0981919104546,-25.85,34.75,16.29,5.74,2.32,26.24,-0.1
-0.011457521393,0.0636522509305,-0.125988387485,-0.0842503507639,-0.0435309458323,0.104564705057,-0.0982443990134,-25.85,34.96,16.49,6.18,2.37,26.06,-0.1
-0.011457521393,0.0636522509305,-0.125988387485,-0.0842503507639,-0.0435309458323,0.104564705057,-0.0982443990134,-25.75,34.85,16.54,6.27,2.37,26.12,-0.06
-0.0116568050712,0.0645992787556,-0.127649041001,-0.085694305107,-0.0447496188073,0.107011775313,-0.100529105854,-25.65,34.86,16.44,6.27,2.37,26.31,-0.1
-0.0116672936858,0.0646491223253,-0.127736443817,-0.085770302704,-0.0448137594902,0.107140568484,-0.100649353583,-25.75,34.64,16.34,6.03,2.37,26.19,-0.1
-0.0122249083031,0.0678565998909,-0.133497005776,-0.0899243133189,-0.0466247120955,0.112290160559,-0.105560794511,-25.65,34.75,16.3,6.18,2.37,26.22,-0.15
-0.0129064372798,0.071776850249,-0.140887848715,-0.0950014374039,-0.0488380986132,0.118764548672,-0.111677955904,-25.65,34.64,16.29,6.27,2.31,26.48,-0.17
-0.0129064372798,0.071776850249,-0.140887848715,-0.0950014374039,-0.0488380986132,0.118764548672,-0.111677955904,-25.65,34.54,16.1,5.78,2.27,26.42,-0.17
-0.0127721501223,0.0698271322173,-0.137125673189,-0.0922010226093,-0.0483580226496,0.115006863215,-0.10875339339,-25.54,34.43,16.05,5.93,2.27,26.37,-0.17
-0.0127650823771,0.0697245154788,-0.13692766395,-0.092053632357,-0.0483327554937,0.114809090296,-0.108599469047,-25.54,34.54,16.29,5.88,2.32,26.36,-0.13
-0.0125890966166,0.0683114112927,-0.134496864833,-0.0902939953831,-0.0477070664143,0.113454965321,-0.107019746573,-25.44,34.64,16.29,6.27,2.27,26.36,-0.12
-0.0123251179758,0.0661917550135,-0.130850666157,-0.0876545399222,-0.0467685327953,0.11142377786,-0.104650162861,-25.33,34.64,16.09,5.97,2.32,26.15,-0.09
-0.0123251179758,0.0661917550135,-0.130850666157,-0.0876545399222,-0.0467685327953,0.11142377786,-0.104650162861,-25.33,34.43,16.0,6.17,2.32,26.1,-0.12
-0.0134347127502,0.0729481320146,-0.143429995938,-0.0969447997721,-0.0506684526438,0.122930901225,-0.115438336969,-25.44,34.43,15.75,6.08,2.31,26.39,-0.1
-0.0135580010585,0.0736988405703,-0.14506164237,-0.0979960220986,-0.0511017770715,0.12437333476,-0.116753897105,-25.33,34.54,15.8,5.84,2.22,26.48,-0.17
-0.0136266231596,0.0742904313642,-0.146114316775,-0.0989156604159,-0.0514503501341,0.125112777671,-0.117532354537,-25.44,34.33,16.05,6.08,2.27,26.36,-0.18
-0.0137295563112,0.075177817555,-0.147693328381,-0.100295117892,-0.0519732097279,0.126221942038,-0.118700040685,-25.33,34.43,15.85,6.08,2.27,26.49,-0.17
-0.0137295563112,0.075177817555,-0.147693328381,-0.100295117892,-0.0519732097279,0.126221942038,-0.118700040685,-25.33,34.33,15.56,5.88,2.27,26.34,-0.15
-0.0132959690717,0.07270374815,-0.141970921652,-0.0962038831227,-0.0495973540371,0.122094794847,-0.114330120333,-25.23,34.33,15.65,5.93,2.32,26.27,-0.13
-0.0132477927117,0.0724288515495,-0.141335098682,-0.0957493014817,-0.0493333700714,0.121636222936,-0.113844573627,-25.23,34.12,15.66,5.79,2.26,26.34,-0.09
-0.0137074939101,0.074738261993,-0.145414966755,-0.0985701341519,-0.0509302894756,0.125325744284,-0.117458826038,-25.02,34.01,15.46,5.64,2.22,26.33,-0.07
-0.0143395830579,0.0779137013529,-0.151024785356,-0.102448779074,-0.0531260536564,0.130398836136,-0.122428423103,-25.02,34.02,15.46,5.55,2.27,26.43,-0.1
-0.0143395830579,0.0779137013529,-0.151024785356,-0.102448779074,-0.0531260536564,0.130398836136,-0.122428423103,-25.02,34.01,15.65,5.73,2.27,26.63,-0.13
-0.0150263463183,0.0814146331542,-0.157694089282,-0.107059182395,-0.0549960597524,0.135026662324,-0.127511309122,-25.02,34.22,15.56,5.69,2.27,26.49,-0.15
-0.0151026533473,0.0818036255765,-0.158435123051,-0.10757144943,-0.0552038382076,0.135540865234,-0.128076074235,-25.02,33.91,15.31,6.02,2.22,26.36,-0.15
-0.0152169255848,0.0825255105872,-0.159953432161,-0.108809976844,-0.0558709264272,0.136930433265,-0.129184750339,-25.02,34.12,15.31,5.69,2.22,26.49,-0.17
-0.0153883339411,0.0836083381033,-0.162230895826,-0.110667767966,-0.0568715587568,0.139014785311,-0.130847764494,-25.02,34.12,15.21,5.84,2.17,26.48,-0.13
-0.0153883339411,0.0836083381033,-0.162230895826,-0.110667767966,-0.0568715587568,0.139014785311,-0.130847764494,-25.02,34.01,15.21,5.83,2.22,26.19,-0.04
-0.0136195243569,0.0759621765291,-0.14745881325,-0.100682573651,-0.0524167865905,0.126833466114,-0.118958133523,-25.02,33.8,15.7,6.08,2.27,26.37,-0.07
-0.0142125776033,0.0795309914339,-0.154394969021,-0.10543034924,-0.0549760361351,0.132861161863,-0.124556890675,-24.92,34.12,15.02,5.78,2.17,26.48,-0.1
-0.0144015333803,0.080080825766,-0.155298082587,-0.106018311945,-0.0553179993953,0.132994865306,-0.124898109702,-24.81,33.91,15.11,5.88,2.18,26.57,-0.13
-0.0147524512519,0.0811019466687,-0.156975293495,-0.107110242681,-0.0559530740214,0.1332431717,-0.125531802181,-24.71,33.81,15.11,5.69,2.22,26.73,-0.15
-0.0147524512519,0.0811019466687,-0.156975293495,-0.107110242681,-0.0559530740214,0.1332431717,-0.125531802181,-24.61,33.8,15.02,5.97,2.12,26.34,-0.15
-0.0163833859356,0.0888169632075,-0.170975139408,-0.116676471894,-0.0611113866317,0.146070328833,-0.137539208411,-24.61,33.81,14.82,5.98,2.13,26.49,-0.15
-0.0165752606043,0.089724612212,-0.172975110516,-0.117845139872,-0.0617182469388,0.147850420795,-0.139165597079,-24.5,33.7,14.77,5.88,2.13,26.3,-0.09
-0.016974373166,0.0917770120944,-0.176902713851,-0.120647027412,-0.0632435947115,0.151807527446,-0.14255016674,-24.5,33.6,14.77,6.13,2.18,26.34,-0.06
-0.0176585661289,0.0952954118927,-0.18374585441,-0.125450263197,-0.0658584766076,0.158714591857,-0.148352286159,-24.5,33.71,14.72,5.68,2.22,26.51,-0.09
-0.0176585661289,0.0952954118927,-0.18374585441,-0.125450263197,-0.0658584766076,0.158714591857,-0.148352286159,-24.5,33.7,14.67,5.69,2.12,26.67,-0.13
-0.0168656154544,0.0913966785933,-0.176831373395,-0.120712997897,-0.0627137795259,0.15095787028,-0.142446873196,-24.61,33.7,14.67,5.49,2.22,26.67,-0.15
-0.0167775098239,0.0909634860045,-0.176063097727,-0.120186635086,-0.0623643687391,0.150096012327,-0.141790716201,-24.4,33.8,14.62,5.64,2.08,26.45,-0.2
-0.0168193375115,0.0911776348554,-0.176535845292,-0.12043444393,-0.0625827184961,0.150662895552,-0.14169380143,-24.29,33.6,14.52,5.79,2.13,26.33,-0.15
-0.0168910421188,0.0915447471712,-0.17734626969,-0.120859259092,-0.0629570323654,0.151634695368,-0.141527661824,-24.19,33.6,14.28,5.88,2.18,26.43,-0.06
-0.0168910421188,0.0915447471712,-0.17734626969,-0.120859259092,-0.0629570323654,0.151634695368,-0.141527661824,-24.4,33.39,14.28,5.59,2.22,26.48,-0.04
-0.0175788676052,0.0953480412615,-0.184288723104,-0.125629069733,-0.0643308354668,0.15735765915,-0.147432579626,-24.29,33.39,14.23,5.5,2.22,26.75,-0.09
-0.0176597882506,0.0957954876251,-0.18510548233,-0.126190223926,-0.0644924593611,0.158030949006,-0.148127275838,-24.29,33.28,14.28,5.93,2.12,26.54,-0.13
-0.0177958474613,0.096283052081,-0.185981328794,-0.126919446262,-0.0646249567867,0.158431259859,-0.14896475974,-24.29,33.39,13.99,5.69,2.18,26.42,-0.15
-0.0180169436785,0.0970753443219,-0.187404579299,-0.128104432558,-0.0648402651032,0.159081764995,-0.15032567108,-24.19,33.28,13.98,5.64,2.27,26.55,-0.17
-0.0180169436785,0.0970753443219,-0.187404579299,-0.128104432558,-0.0648402651032,0.159081764995,-0.15032567108,-24.09,32.97,13.98,5.15,2.17,26.55,-0.1
-0.019491596469,0.105133672376,-0.202346173006,-0.1378447036,-0.0703543647376,0.172889191509,-0.162631756798,-23.98,33.39,13.94,5.39,2.07,26.66,-0.1
-0.0196554467791,0.10602904216,-0.204394689542,-0.138975339667,-0.0709670424748,0.174737560894,-0.164215183689,-24.09,33.49,13.94,5.84,1.98,26.72,-0.07
-0.0187797890315,0.100843528998,-0.195477224382,-0.132488454777,-0.0673608221874,0.166520421513,-0.156773998389,-24.09,33.5,13.84,5.5,2.08,26.67,-0.1
-0.0173568451918,0.0919010741047,-0.178183561482,-0.120943256425,-0.0615007142203,0.150977573061,-0.143171035139,-23.98,33.28,13.79,5.55,2.13,26.81,-0.15
-0.0173568451918,0.0919010741047,-0.178183561482,-0.120943256425,-0.0615007142203,0.150977573061,-0.143171035139,-23.88,33.07,13.54,6.08,2.08,26.39,-0.13
-0.018800244291,0.0999670753556,-0.192634531216,-0.131602195302,-0.0673252482844,0.164333885324,-0.154261981389,-23.88,33.07,13.35,5.5,2.08,26.28,-0.12
-0.0189521810383,0.100816128119,-0.194487470616,-0.132823129559,-0.0679383571333,0.166004381812,-0.155554916875,-23.88,32.97,13.35,5.25,1.98,26.75,-0.07
-0.0196796735827,0.104082426045,-0.200416201611,-0.136533518685,-0.0703335890678,0.171196539893,-0.160426091028,-23.77,32.97,13.4,5.64,1.98,26.7,-0.07
-0.0202748947553,0.106754851621,-0.205344932607,-0.139569291607,-0.072293324287,0.175444669231,-0.164411597153,-23.57,33.07,13.44,5.35,2.03,26.79,-0.1
-0.020286852889,0.106756993311,-0.205332832347,-0.139533131646,-0.0723365246919,0.175473956569,-0.164517873776,-23.67,32.77,13.3,4.92,2.18,26.99,-0.15
-0.0205140574281,0.106797685413,-0.205102927406,-0.138846092401,-0.0731573323833,0.176030415987,-0.166537129603,-23.57,32.76,13.2,5.59,2.03,26.48,-0.15
-0.0205140574281,0.106797685413,-0.205102927406,-0.138846092401,-0.0731573323833,0.176030415987,-0.166537129603,-23.67,33.18,12.95,5.35,2.08,26.46,-0.1
-0.0198564724215,0.102610238295,-0.197764641237,-0.134234850995,-0.0704667474475,0.170052616767,-0.159905974515,-23.57,32.86,12.76,5.3,1.98,27.06,-0.06
-0.0193184483253,0.0991841451976,-0.191426355067,-0.130462017118,-0.0682653597728,0.165074817546,-0.154274819428,-23.67,32.86,13.1,5.49,1.94,26.9,-0.09
-0.019334572356,0.099234358351,-0.19146992657,-0.130501348744,-0.0682655270561,0.165057022062,-0.154349378028,-23.46,32.76,13.1,5.11,2.03,26.81,-0.09
-0.0196409289392,0.100188408265,-0.192297785125,-0.131248649626,-0.0682687054399,0.164718907876,-0.155765991425,-23.36,32.76,12.56,5.45,1.93,26.69,-0.13
-0.0196409289392,0.100188408265,-0.192297785125,-0.131248649626,-0.0682687054399,0.164718907876,-0.155765991425,-23.36,32.65,12.66,4.96,2.02,26.73,-0.15
-0.0184292073463,0.0920084306645,-0.176432475215,-0.120272796266,-0.0631960308259,0.152968078028,-0.143344892928,-23.15,32.55,12.71,5.64,1.84,26.55,-0.13
-0.020097294102,0.0998404391241,-0.191409067111,-0.130444851173,-0.0687025013735,0.166419533305,-0.155621980361,-23.25,32.65,12.41,5.01,2.02,26.72,-0.04
-0.0207340849654,0.103188007282,-0.196349382611,-0.134471810575,-0.0711928386335,0.171273488051,-0.160391358899,-23.15,32.65,12.07,5.21,1.98,27.15,-0.06
-0.0224566452227,0.112780940944,-0.2159042925,-0.147253989123,-0.0776609587019,0.188276594886,-0.176408110188,-23.25,32.76,12.32,5.5,1.94,26.48,-0.09
-0.0224566452227,0.112780940944,-0.2159042925,-0.147253989123,-0.0776609587019,0.188276594886,-0.176408110188,-23.25,32.86,12.32,4.82,1.98,26.45,-0.12
-0.0223071134497,0.113209994711,-0.216611013832,-0.147713062713,-0.0780795265962,0.188733246258,-0.178639865126,-23.05,32.55,11.97,4.53,1.98,27.11,-0.15
-0.0222996368611,0.113231447399,-0.216646349899,-0.147736016392,-0.0781004549909,0.188756078826,-0.178751452873,-22.94,32.23,12.07,4.92,1.88,26.81,-0.12
-0.0224588214175,0.114280358661,-0.218463516152,-0.148944135528,-0.078907271797,0.191933738107,-0.18049267156,-22.84,32.55,12.07,5.21,1.89,26.51,-0.03
-0.0226339244296,0.115434161048,-0.22046239903,-0.150273066577,-0.0797947702837,0.195429163316,-0.182408012116,-22.73,32.44,11.73,5.3,1.88,27.24,-0.07
-0.0226563392215,0.115545717217,-0.220626164029,-0.150446350757,-0.0798134683791,0.195441378826,-0.182516136437,-22.94,32.44,11.92,4.76,1.88,26.55,-0.1
-0.0231046350598,0.117776840598,-0.223901463993,-0.153912034361,-0.0801874302868,0.195685689024,-0.184678622847,-22.73,32.44,11.63,5.16,1.84,26.75,-0.15
-0.0231046350598,0.117776840598,-0.223901463993,-0.153912034361,-0.0801874302868,0.195685689024,-0.184678622847,-22.53,32.23,11.68,4.43,1.98,27.05,-0.09
-0.024213550194,0.124362982503,-0.236397827713,-0.162579691795,-0.0849748938125,0.206573034229,-0.194457037125,-22.32,32.55,11.73,5.2,1.88,27.09,-0.07
-0.023629198422,0.121828962323,-0.232281336691,-0.159547425477,-0.083383579798,0.202855172413,-0.190612044422,-22.53,32.34,11.38,4.62,1.94,26.78,0.0
-0.0247899033199,0.127999948413,-0.24405488025,-0.167562408417,-0.0875737370972,0.21304421007,-0.200091261127,-22.32,32.13,10.89,5.21,1.74,26.99,-0.1
-0.0246134856221,0.128676021193,-0.245410432409,-0.167882107577,-0.0877520527258,0.213437581885,-0.199654484239,-22.42,32.13,10.89,4.52,1.84,26.64,-0.12
-0.0246134856221,0.128676021193,-0.245410432409,-0.167882107577,-0.0877520527258,0.213437581885,-0.199654484239,-22.32,31.92,10.99,4.87,1.74,27.23,-0.12
-0.0233778815789,0.123772366368,-0.236371372089,-0.161546547436,-0.0835755248216,0.204350628438,-0.190453110289,-22.21,31.82,11.28,5.21,1.74,26.75,0.0
-0.0225541455501,0.120503263151,-0.229884868192,-0.157271998229,-0.0807911728854,0.197824939254,-0.18383380433,-22.11,32.03,10.99,4.58,1.79,26.85,-0.03
-0.022569213657,0.120622109053,-0.230124098636,-0.157335084928,-0.0808249122938,0.197666880374,-0.183901846375,-22.11,31.5,10.84,4.67,1.83,27.05,-0.07
-0.0227048266193,0.12169172217,-0.232277172632,-0.157902865222,-0.0811285669696,0.196244350452,-0.18451422478,-21.9,32.24,10.89,4.52,1.79,27.12,-0.13
-0.0227048266193,0.12169172217,-0.232277172632,-0.157902865222,-0.0811285669696,0.196244350452,-0.18451422478,-22.01,32.13,10.84,5.01,1.74,26.81,-0.12
-0.0214815073614,0.115371586762,-0.221774426622,-0.150182738166,-0.0766254036654,0.186445502783,-0.174853970718,-21.8,32.03,10.65,5.21,1.69,26.97,-0.06
-0.0206659611894,0.111109657792,-0.214090361704,-0.144775361484,-0.0736232947959,0.179337354691,-0.167859217396,-22.01,31.82,10.3,4.29,1.79,26.85,-0.01
-0.0210227057149,0.112562253269,-0.215590361705,-0.146275361484,-0.0747817297913,0.180837354691,-0.169359217396,-21.69,31.61,10.2,4.72,1.74,27.15,-0.1
-0.0242334064444,0.130161567343,-0.24996466562,-0.169560430825,-0.086791994704,0.211303602908,-0.198208284188,-21.59,31.82,10.45,4.19,1.7,26.96,-0.13
-0.0242334064444,0.130161567343,-0.25027383951,-0.169560430825,-0.086791994704,0.211407089656,-0.198226656125,-21.59,31.82,10.11,4.19,1.7,27.08,-0.15
-0.0224616572541,0.121522178634,-0.233698514508,-0.156970163134,-0.0814965362761,0.198683694455,-0.186255255092,-21.59,31.61,10.06,4.86,1.59,27.05,-0.12
-0.0217972513077,0.11815713057,-0.226369757363,-0.151761371545,-0.0795107393656,0.193412776694,-0.181335267943,-21.48,31.72,9.91,4.38,1.64,27.0,-0.01
-0.0216964159696,0.117496017646,-0.225278312083,-0.151298907984,-0.0794911956072,0.192694837177,-0.18116519797,-21.48,31.82,10.2,4.09,1.65,27.03,-0.12
-0.0214611335141,0.115953420823,-0.222731606429,-0.150219826341,-0.079445593504,0.19101964497,-0.180768368033,-21.17,31.61,9.91,4.62,1.65,27.05,-0.1
-0.0214611335141,0.115953420823,-0.222731606429,-0.150219826341,-0.079445593504,0.19101964497,-0.180768368033,-21.28,31.61,9.52,4.09,1.7,26.93,-0.13
-0.0199260938204,0.107408842267,-0.206148797766,-0.139067553595,-0.0746422555822,0.178234529849,-0.167830845177,-21.17,31.29,9.42,4.67,1.64,27.36,-0.09
-0.0196552044627,0.105897697628,-0.202621194878,-0.136904485408,-0.0737946077136,0.175663251069,-0.165221464463,-21.17,31.5,9.57,3.94,1.69,27.18,0.0
-0.0192356890549,0.103596900024,-0.198297366384,-0.134105228753,-0.0721910320975,0.172205597584,-0.162109220317,-20.96,31.29,9.62,5.06,1.55,26.85,-0.01
-0.01825681977,0.0982283722815,-0.187325880904,-0.127573629891,-0.06844935566,0.163832637132,-0.154772487879,-21.07,31.5,9.32,3.99,1.65,27.17,-0.06
-0.01825681977,0.0982283722815,-0.187325880904,-0.127573629891,-0.06844935566,0.163832637132,-0.154772487879,-20.96,31.4,9.42,4.47,1.46,27.26,-0.15
-0.0199387124268,0.107331350095,-0.204471468431,-0.139343789548,-0.0759131405828,0.181184454854,-0.170691548957,-20.86,31.51,9.42,3.9,1.55,27.26,-0.12
-0.0202355170134,0.108982094548,-0.208186664273,-0.141661329463,-0.0772302790986,0.184968394094,-0.174046314226,-20.86,31.4,9.17,3.9,1.55,27.44,-0.07
-0.0198188254854,0.106934449018,-0.204248947507,-0.13903280818,-0.0760248540969,0.181771434843,-0.17138248633,-20.86,31.51,9.03,4.38,1.65,27.08,-0.01
-0.0188465452535,0.102156609447,-0.19443579721,-0.132899591854,-0.0732121957597,0.174180557089,-0.165166887907,-20.76,31.41,8.98,3.85,1.59,27.05,-0.03
-0.0188465452535,0.102156609447,-0.19443579721,-0.132899591854,-0.0732121957597,0.174180557089,-0.165166887907,-20.65,31.19,8.88,4.58,1.5,27.17,-0.09
-0.0196882998703,0.107069130941,-0.20346190199,-0.139906932647,-0.0778744883229,0.185177240664,-0.175075149354,-20.55,31.4,8.83,3.94,1.55,27.05,-0.12
-0.0198987385245,0.108297261315,-0.205803936916,-0.141658767846,-0.0790400614636,0.188176135189,-0.177711236503,-20.55,30.99,8.49,4.09,1.5,27.42,-0.1
-0.0189785219528,0.103393381722,-0.19672174355,-0.135729223751,-0.0753686713243,0.180198561748,-0.170041947752,-20.55,31.29,8.68,3.99,1.5,26.9,-0.01
-0.0174831700237,0.0950141939653,-0.179016260133,-0.12529870699,-0.0694026623479,0.165254628146,-0.155868725872,-20.34,31.08,8.34,3.41,1.6,27.44,-0.03
-0.0174831700237,0.0950141939653,-0.179016260133,-0.12529870699,-0.0694026623479,0.165254628146,-0.155868725872,-20.44,31.08,8.54,4.29,1.45,27.18,-0.07
-0.0170807261737,0.0928566307585,-0.174705069564,-0.122820676026,-0.0677053161964,0.16358984342,-0.153108638166,-20.24,31.5,8.58,4.19,1.4,26.87,-0.09
-0.0170807261737,0.0928566307585,-0.174705069564,-0.122820676026,-0.0677053161964,0.16358984342,-0.153108638166,-20.23,31.08,8.24,4.13,1.4,27.47,-0.12
-0.0174241467022,0.0951061749873,-0.178928563794,-0.126433316189,-0.0687471558662,0.16669090005,-0.156246820577,-20.24,31.19,8.14,3.95,1.41,27.42,-0.12
-0.0177675672308,0.0973557192161,-0.183152058024,-0.130045956351,-0.0697889955361,0.16979195668,-0.159385002988,-20.13,30.98,7.95,3.51,1.41,27.42,-0.06
-0.0177675672308,0.0973557192161,-0.183152058024,-0.130045956351,-0.0697889955361,0.16979195668,-0.159385002988,-20.03,30.99,8.0,3.36,1.36,27.35,-0.06
-0.0172988724165,0.0962136701734,-0.179967626365,-0.127716219557,-0.0696474168929,0.167491646385,-0.157882458693,-19.82,30.67,8.1,3.85,1.4,27.05,-0.04
-0.0172988724165,0.0962136701734,-0.179967626365,-0.127716219557,-0.0696474168929,0.167491646385,-0.157882458693,-19.72,30.77,8.0,3.94,1.31,27.11,-0.09
-0.0162185000792,0.0914467698968,-0.171324519347,-0.121591441858,-0.0666617361474,0.159941939872,-0.150621955862,-19.92,30.76,7.75,3.56,1.41,27.42,-0.13
-0.0151381277418,0.0866798696202,-0.161871832992,-0.115216713559,-0.0636760554019,0.151825631912,-0.142859119069,-19.72,30.67,7.6,3.75,1.36,27.41,-0.1
-0.0151381277418,0.0866798696202,-0.161871832992,-0.115216713559,-0.0636760554019,0.151825631912,-0.142859119069,-19.72,30.98,7.65,3.95,1.31,27.17,-0.1
-0.0146710714042,0.0853564104584,-0.159240299514,-0.114409662121,-0.0620108128289,0.149316153925,-0.140446384385,-19.82,30.98,7.85,3.75,1.35,27.42,-0.01
-0.0146710714042,0.0853564104584,-0.159240299514,-0.114409662121,-0.0620108128289,0.149316153925,-0.140446384385,-19.61,30.98,7.65,3.12,1.3,27.57,-0.04
-0.0150174934958,0.0884729756265,-0.165021098879,-0.118137802874,-0.0641696952649,0.155041335229,-0.14570774383,-19.4,30.78,7.41,3.55,1.3,27.38,-0.07
-0.0153324226699,0.0913062166885,-0.17037997818,-0.121527021741,-0.0661323156613,0.160339034664,-0.15049523922,-19.4,30.67,7.41,3.61,1.26,27.29,-0.13
-0.0153240590504,0.0912728751554,-0.17030459535,-0.121439789805,-0.0661000388108,0.160200678363,-0.150430659073,-19.3,30.67,7.06,3.66,1.22,27.53,-0.15
-0.0151567866604,0.0906060444932,-0.168796938742,-0.11969515108,-0.0654545018013,0.157433552338,-0.149139056121,-19.4,30.67,7.26,3.5,1.31,27.29,-0.1
-0.0151567866604,0.0906060444932,-0.168796938742,-0.11969515108,-0.0654545018013,0.157433552338,-0.149139056121,-19.3,30.67,7.16,3.32,1.36,27.17,-0.06
-0.0134338794359,0.082196617922,-0.153322868356,-0.108944879238,-0.0595644269019,0.143741494734,-0.135531350505,-19.3,30.35,7.16,3.7,1.35,27.44,-0.06
-0.0130888619079,0.0820241044865,-0.152633677768,-0.109014068135,-0.0596247612572,0.144054380842,-0.135116009377,-19.09,30.87,7.11,3.9,1.26,27.32,-0.06
-0.0131777753806,0.0823140405006,-0.153253251552,-0.10941913244,-0.0597669178331,0.144361293844,-0.135541402381,-19.2,30.77,6.82,3.27,1.26,27.47,-0.1
-0.0136519805682,0.0838603659088,-0.156557645066,-0.111579475399,-0.0605250862381,0.145998163183,-0.137810165068,-19.19,30.46,6.72,2.97,1.31,27.5,-0.12
-0.0136519805682,0.0838603659088,-0.156557645066,-0.111579475399,-0.0605250862381,0.145998163183,-0.137810165068,-19.09,30.67,6.72,2.87,1.3,27.53,-0.15
-0.0138611855944,0.0847266144497,-0.158426110956,-0.1122362961,-0.0607346351849,0.14679178271,-0.138656379691,-19.09,30.56,6.77,2.93,1.31,27.24,-0.09
-0.0139738344547,0.0851930559718,-0.159432207973,-0.112589968785,-0.0608474692332,0.147219116302,-0.139112033719,-18.99,30.56,6.67,3.41,1.21,27.32,-0.09
-0.0139135262148,0.0850241560282,-0.159056665211,-0.112143627862,-0.0605917835754,0.147198296012,-0.138703550409,-18.88,30.56,6.62,3.46,1.22,27.36,-0.06
-0.013800448265,0.0847074686341,-0.158352522532,-0.111306738632,-0.0601123729669,0.147159257967,-0.137937644202,-18.88,30.25,6.38,3.07,1.21,27.45,-0.07
-0.013800448265,0.0847074686341,-0.158352522532,-0.111306738632,-0.0601123729669,0.147159257967,-0.137937644202,-18.88,30.25,6.28,2.98,1.22,27.77,-0.1
-0.0129771180072,0.0786968424855,-0.1471743884,-0.103596274359,-0.0558136610303,0.134824227492,-0.12752065628,-18.78,30.35,6.43,3.12,1.26,27.6,-0.13
-0.0128398962975,0.0776950714607,-0.145132474486,-0.10231119698,-0.0550972090408,0.132510102675,-0.125657835592,-18.57,30.46,6.52,3.36,1.17,27.39,-0.15
-0.0133074964034,0.0799332973414,-0.149457183577,-0.105058826534,-0.0566881486069,0.13639315629,-0.129111784249,-18.57,30.35,6.28,3.07,1.17,27.44,-0.1
-0.0140088965621,0.0832906361625,-0.156060214746,-0.109180270864,-0.0590745579561,0.142217736713,-0.134292707234,-18.57,30.25,6.18,3.36,1.17,27.24,-0.06
-0.0140088965621,0.0832906361625,-0.156060214746,-0.109180270864,-0.0590745579561,0.142217736713,-0.134292707234,-18.57,30.46,6.13,3.27,1.11,27.47,-0.06
-0.0149931508388,0.0873315511173,-0.164484952028,-0.114336411032,-0.0619643870738,0.14999809423,-0.141171271459,-18.57,30.35,5.93,3.22,1.11,27.5,-0.07
-0.0151089454596,0.0878069528767,-0.16547609759,-0.114943015758,-0.06230436697,0.150913430408,-0.141980514309,-18.57,30.25,5.93,3.31,1.17,27.66,-0.1
-0.0142667580237,0.0828199786651,-0.156835573385,-0.108753586633,-0.0587238277184,0.142783280804,-0.134462844169,-18.68,30.25,5.78,2.98,1.17,27.65,-0.12
-0.0128230081335,0.0736815345399,-0.138642105612,-0.0970098235276,-0.05258576043,0.126018861912,-0.119413367778,-18.47,30.25,5.89,3.07,1.17,27.54,-0.12
-0.0128230081335,0.0736815345399,-0.138642105612,-0.0970098235276,-0.05258576043,0.126018861912,-0.119413367778,-18.47,30.25,5.74,2.83,1.17,27.62,-0.13
-0.0138884454768,0.0776033658548,-0.145829569502,-0.101682767612,-0.0548074019291,0.132510775962,-0.124311372362,-18.26,29.93,5.64,3.03,1.02,27.44,-0.09
-0.013396207969,0.0745304803879,-0.140026171572,-0.0975824682153,-0.0525501671546,0.127231201559,-0.119169244247,-18.16,30.14,5.64,2.68,1.02,27.63,-0.07
-0.0147221361071,0.0809377194442,-0.152052410898,-0.10561497926,-0.056787930757,0.137978401588,-0.129483265465,-18.16,29.83,5.59,3.12,1.02,27.53,-0.07
-0.0140995249043,0.0765041613531,-0.143711207086,-0.0994536767467,-0.0533820336823,0.130219245026,-0.122463578429,-17.95,30.04,5.69,3.22,1.02,27.68,-0.09
-0.0140717229389,0.0763386346904,-0.143414379178,-0.0992061131394,-0.0534289528428,0.129837341991,-0.122295856514,-18.16,30.04,5.35,2.87,1.17,27.68,-0.13
-0.013821505251,0.0748488947266,-0.140742928008,-0.0969780406743,-0.0538512252866,0.126400214679,-0.120786359278,-18.05,30.04,5.64,3.21,1.02,27.35,-0.13
-0.013821505251,0.0748488947266,-0.140742928008,-0.0969780406743,-0.0538512252866,0.126400214679,-0.120786359278,-18.05,30.14,5.3,3.17,1.02,27.47,-0.15
-0.0127524435075,0.068917302823,-0.130340405573,-0.0900095165593,-0.0492224961753,0.118370196314,-0.111977220405,-18.05,30.04,5.2,2.69,1.07,27.44,-0.15
-0.0119749440577,0.0645788701097,-0.121978135381,-0.0847378448559,-0.0458561477307,0.112143179787,-0.105048995419,-18.05,29.84,5.35,3.22,1.02,27.32,-0.09
-0.0119665964187,0.0645166200535,-0.121838272772,-0.0846286902568,-0.045855128629,0.111997738745,-0.104957088209,-17.84,30.04,5.35,3.07,1.02,27.38,-0.04
-0.0118079912781,0.0633338689853,-0.11918088319,-0.0825547528753,-0.0458357656971,0.109234358946,-0.103210851218,-17.84,29.93,4.95,2.73,1.12,27.75,-0.07
-0.0118079912781,0.0633338689853,-0.11918088319,-0.0825547528753,-0.0458357656971,0.109234358946,-0.103210851218,-17.74,29.83,4.95,2.59,1.06,27.63,-0.07
-0.0123523741831,0.0658532937437,-0.123617203415,-0.0855227365179,-0.0472557107611,0.112761727624,-0.10730243875,-17.84,29.83,5.15,2.83,0.92,27.68,-0.1
-0.0127482890231,0.0676856026589,-0.126843618124,-0.0876812700761,-0.0482883980804,0.115327086663,-0.110278138773,-17.74,29.93,5.05,2.39,1.02,27.84,-0.13
-0.0127326283362,0.0676181488534,-0.126721178541,-0.0876035692652,-0.0482664764174,0.115316338461,-0.110207329059,-17.84,29.83,4.9,2.4,1.06,27.77,-0.15
-0.0118429288433,0.063177644333,-0.118471263288,-0.0820259560564,-0.0455713950677,0.109630592964,-0.103678042378,-17.74,29.93,4.9,2.64,1.02,27.5,-0.13
-0.0130568290498,0.0696533528771,-0.130614567776,-0.0904336165522,-0.0502424630622,0.120867728743,-0.114305041721,-17.64,29.72,4.71,2.83,1.02,27.47,-0.1
-0.0114269041911,0.062127008575,-0.116759122991,-0.0815936572415,-0.0451939332914,0.109350971888,-0.103140604981,-17.74,29.83,4.76,2.73,1.02,27.65,-0.1
-0.0107547901282,0.0593206632586,-0.111420820159,-0.0785712594964,-0.043423245605,0.105510204739,-0.0993263786371,-17.53,29.83,4.85,2.59,0.98,27.75,-0.07
-0.0109303948964,0.0602584789562,-0.112787562666,-0.0796574630275,-0.0440714648009,0.106775699321,-0.100549976103,-17.32,29.83,4.9,2.78,0.93,27.75,-0.07
-0.0125986401942,0.0691677280831,-0.130122412803,-0.0913815336487,-0.0502295471621,0.122085590962,-0.115021925422,-17.43,29.83,4.61,2.44,0.98,27.78,-0.09
-0.0125986401942,0.0691677280831,-0.130122412803,-0.0913815336487,-0.0502295471621,0.122085590962,-0.115021925422,-17.53,29.72,4.46,2.3,0.93,27.74,-0.1
-0.0118286612957,0.0649854763984,-0.12249058369,-0.0860499898269,-0.0475776969121,0.114742054461,-0.108529352091,-17.53,29.73,4.46,2.2,0.92,27.56,-0.1
-0.0112511771218,0.0618487876349,-0.116461648133,-0.0820513319606,-0.0455888092246,0.108975203096,-0.103536103608,-17.43,29.72,4.51,2.69,0.98,27.35,-0.15
-0.0112320748853,0.0618111513448,-0.116380630939,-0.0819904038191,-0.045560190141,0.108960908107,-0.10343071137,-17.43,29.62,4.41,2.69,0.98,27.51,-0.13
-0.010888234629,0.0611336981218,-0.114922321446,-0.0808936972714,-0.0450450466372,0.108703598303,-0.101533651076,-17.22,29.62,4.46,2.44,0.93,27.74,-0.13
-0.010888234629,0.0611336981218,-0.114922321446,-0.0808936972714,-0.0450450466372,0.108703598303,-0.101533651076,-17.22,29.62,4.51,2.44,0.88,27.63,-0.1
-0.011235916239,0.06293769086,-0.11791539256,-0.0832839105872,-0.0461246211342,0.110972324642,-0.103550969179,-17.01,29.72,4.46,2.54,0.93,27.65,-0.09
-0.0115203830109,0.0644136849186,-0.120364268926,-0.0852395396638,-0.0470079093591,0.112828555283,-0.105201502172,-17.11,29.42,4.22,2.35,0.92,27.77,-0.06
-0.0114843573767,0.0642910710373,-0.120134330998,-0.0851054160787,-0.0468258236902,0.112420742632,-0.105005356949,-17.22,29.62,4.12,2.24,0.93,27.72,-0.06
-0.011160126669,0.0631875461059,-0.11806488965,-0.0838983038127,-0.0451870526708,0.108750428765,-0.103240049941,-17.11,29.51,4.07,2.53,0.92,27.59,-0.1
-0.0106021203356,0.0600281688006,-0.112161645167,-0.0797033886221,-0.0429277000373,0.103312907327,-0.098078047444,-16.91,29.51,4.46,2.59,0.93,27.42,-0.1
-0.010240644243,0.058826697029,-0.110230089006,-0.0779126369262,-0.0424076907864,0.101426061066,-0.0958064235215,-17.01,29.41,3.87,2.49,0.83,27.8,-0.13
-0.00953335006915,0.055472197739,-0.10388152175,-0.073259108947,-0.0402697201061,0.0955453906741,-0.0898255993036,-16.91,29.41,4.07,2.2,0.79,27.53,-0.17
-0.00943490158433,0.0551203030606,-0.103270486007,-0.0727189183979,-0.0398360786591,0.0950488458747,-0.089100726758,-16.8,29.51,4.07,2.44,0.78,27.44,-0.17
-0.00911986643293,0.0539942400897,-0.10131517163,-0.0709903086409,-0.0384484260287,0.0934599025166,-0.0867811346121,-16.91,29.41,3.87,1.96,0.79,27.69,-0.13
-0.00911986643293,0.0539942400897,-0.10131517163,-0.0709903086409,-0.0384484260287,0.0934599025166,-0.0867811346121,-16.8,29.41,4.02,2.53,0.79,27.83,-0.1
-0.00928209017637,0.0551795581795,-0.103644334525,-0.0724304036503,-0.0401229208262,0.0940965611341,-0.0889586417914,-16.8,29.51,3.97,2.29,0.79,27.75,-0.09
-0.00933616475751,0.0555746642095,-0.104420722157,-0.0729104353201,-0.0406810857587,0.0943087806733,-0.0896844775178,-16.7,29.51,3.82,2.2,0.83,27.95,-0.06
-0.00921917634224,0.0548954303399,-0.103212322481,-0.0721352685646,-0.0400536212675,0.0930343559739,-0.088868340839,-16.7,29.41,3.82,2.25,0.79,27.78,-0.09
-0.00892670530406,0.0531973456661,-0.100191323292,-0.0701973516759,-0.0384849600397,0.0898482942253,-0.0868279991422,-16.7,29.31,3.73,2.06,0.83,27.78,-0.09
-0.00892670530406,0.0531973456661,-0.100191323292,-0.0701973516759,-0.0384849600397,0.0898482942253,-0.0868279991422,-16.7,29.31,3.77,2.63,0.79,27.71,-0.12
-0.00789320531973,0.0492757388605,-0.0919913919531,-0.0643160275562,-0.0355896052518,0.0850131190391,-0.080023797996,-16.59,29.31,3.82,2.1,0.79,27.69,-0.12
-0.0077844158477,0.0488629381441,-0.0911282412859,-0.0636969408068,-0.0352848310636,0.08450415323,-0.0793075662964,-16.49,29.51,3.82,2.24,0.78,27.69,-0.15
-0.00756522032597,0.0477482103803,-0.0888031681241,-0.062170160713,-0.0347895683526,0.0828199133948,-0.0775380354541,-16.49,29.31,3.63,2.15,0.78,27.6,-0.17
-0.00729731468829,0.0463857653357,-0.0859614120374,-0.060304096154,-0.0341842472614,0.0807613980407,-0.0753752755358,-16.59,29.31,3.58,2.44,0.79,27.66,-0.15
-0.00729731468829,0.0463857653357,-0.0859614120374,-0.060304096154,-0.0341842472614,0.0807613980407,-0.0753752755358,-16.49,29.2,3.43,1.96,0.78,27.54,-0.12
-0.00608921352179,0.0403289748863,-0.0746847912981,-0.0524175740958,-0.0300143235387,0.0699005745908,-0.0673816449483,-16.39,29.1,3.38,2.06,0.79,27.77,-0.1
-0.00595498005884,0.0396559981697,-0.073283034697,-0.0515412938671,-0.0295509986806,0.0685721939819,-0.066493463772,-16.39,29.1,3.43,2.2,0.83,27.78,-0.09
-0.00578083559629,0.039103999058,-0.0724027979443,-0.0509378965264,-0.0290775519833,0.0682222242263,-0.0660104035697,-16.39,29.1,3.48,2.2,0.83,27.75,-0.07
-0.00556799236429,0.038429333477,-0.0713269530244,-0.0502004108878,-0.0284988949087,0.0677944834138,-0.0654199966559,-16.39,29.2,3.43,2.4,0.78,27.69,-0.04
-0.00556799236429,0.038429333477,-0.0713269530244,-0.0502004108878,-0.0284988949087,0.0677944834138,-0.0654199966559,-16.39,29.1,3.28,2.15,0.74,27.74,-0.04
-0.00577425194541,0.0400405288191,-0.0745903689918,-0.0527659799662,-0.0296039889532,0.0721342682182,-0.0688862731925,-16.49,29.2,3.19,1.96,0.79,27.81,-0.07
-0.00579596348027,0.0402101283288,-0.0749338864621,-0.0530360398692,-0.029720314642,0.0725910876713,-0.0692511444069,-16.28,29.2,3.28,2.0,0.74,27.77,-0.09
-0.00563081166185,0.0396751060557,-0.0741351559937,-0.0526051758607,-0.0296438452988,0.0729150269186,-0.0685999150883,-16.18,29.2,3.38,2.1,0.73,27.66,-0.1
-0.00542895943934,0.0390211899441,-0.0731589298657,-0.0520785642948,-0.0295503827683,0.0733109526652,-0.0678039681432,-16.28,29.2,3.14,2.1,0.68,27.74,-0.13
-0.00542895943934,0.0390211899441,-0.0731589298657,-0.0520785642948,-0.0295503827683,0.0733109526652,-0.0678039681432,-16.28,29.2,3.09,2.05,0.64,27.57,-0.13
-0.00541189331316,0.0381904058793,-0.0715359263236,-0.0514078447149,-0.0293944065676,0.0725538153183,-0.067127613531,-16.28,29.1,3.14,2.2,0.73,27.63,-0.15
-0.00541099509599,0.0381466804023,-0.0714505050845,-0.0513725436844,-0.0293861972939,0.0725139659843,-0.0670920159198,-16.18,29.1,3.19,2.01,0.68,27.62,-0.15
-0.00519806351602,0.0363790770698,-0.0678397685839,-0.048932221846,-0.0282472467452,0.0680994722927,-0.0639185423791,-16.18,29.1,3.04,2.2,0.68,27.72,-0.15
-0.00493781380717,0.0342186729969,-0.0634266461943,-0.0459496062657,-0.0268551960746,0.062703980003,-0.0600398524959,-16.18,29.2,3.04,1.95,0.68,27.75,-0.13
-0.00493781380717,0.0342186729969,-0.0634266461943,-0.0459496062657,-0.0268551960746,0.062703980003,-0.0600398524959,-16.18,29.1,3.14,2.1,0.68,27.77,-0.1
-0.00505881560955,0.0336407445148,-0.0620124629461,-0.0449363315226,-0.0262357110567,0.0606913158405,-0.0589781666997,-16.07,28.89,2.94,1.86,0.68,27.87,-0.09
-0.00506518412546,0.0336103272263,-0.0619380322489,-0.0448830012729,-0.0262031065821,0.0605853861477,-0.0589222884999,-16.07,29.1,3.04,2.15,0.69,27.8,-0.09
-0.00528431823061,0.0344764631573,-0.0635243903768,-0.0459692764129,-0.0267708148903,0.0619341168073,-0.0600694932069,-16.18,28.99,3.04,1.91,0.68,27.9,-0.06
-0.00557649703747,0.0356313110654,-0.0656395345473,-0.0474176432661,-0.0275277593011,0.0637324243533,-0.061599099483,-16.07,28.99,2.89,2.01,0.64,27.78,-0.06
-0.00557649703747,0.0356313110654,-0.0656395345473,-0.0474176432661,-0.0275277593011,0.0637324243533,-0.061599099483,-15.97,28.99,2.94,1.9,0.64,27.69,-0.07
-0.00550646037591,0.0347495390238,-0.0641136251624,-0.0464090841887,-0.0266115890872,0.0631435037655,-0.0599431722153,-16.07,29.0,2.69,2.0,0.64,27.77,-0.06
-0.00524073736746,0.0330505999705,-0.0609841087068,-0.044148573459,-0.0252984472402,0.0601071504239,-0.0570057315701,-15.97,28.89,2.74,1.72,0.69,27.74,-0.09
-0.00540043500322,0.0338614042946,-0.0624461973545,-0.0455549179932,-0.0259751832405,0.0621065776902,-0.0579911176733,-15.97,28.99,2.84,2.05,0.68,27.66,-0.1
-0.00489842219076,0.0305444514705,-0.0562996987377,-0.041372853107,-0.0234793960698,0.056477976883,-0.0519522697577,-15.87,28.89,2.74,1.86,0.64,27.59,-0.12
-0.00490893347599,0.0305264021098,-0.0563812939416,-0.041397956312,-0.0232723753768,0.0562238690307,-0.0517019920658,-15.86,28.89,2.69,2.0,0.69,27.74,-0.13
-0.00493696356996,0.0304782704812,-0.0565988811521,-0.0414648981919,-0.0227203201954,0.0555462480911,-0.0510345848874,-15.87,28.99,2.79,1.86,0.64,27.75,-0.15
-0.00493696356996,0.0304782704812,-0.0565988811521,-0.0414648981919,-0.0227203201954,0.0555462480911,-0.0510345848874,-15.97,28.89,2.69,1.95,0.64,27.6,-0.15
-0.00509812206773,0.0308270378178,-0.0576541946634,-0.0417704789144,-0.0234263971151,0.0548006998963,-0.0518184547356,-15.87,28.89,2.69,1.91,0.64,27.66,-0.15
-0.00512656180263,0.0308885849949,-0.0578404264595,-0.0418244049243,-0.0235509989245,0.0546691325678,-0.0519567847088,-15.97,28.89,2.6,1.67,0.64,27.77,-0.15
-0.00489959160183,0.0293598111479,-0.0552129441857,-0.0397594409613,-0.0224784989786,0.0520791171194,-0.0498498700162,-15.97,28.89,2.6,1.91,0.64,27.77,-0.13
-0.00447807551462,0.0265206597176,-0.0503333342485,-0.0359245078871,-0.0204867133649,0.0472690884294,-0.0459370284442,-15.87,28.89,2.55,1.95,0.59,27.71,-0.13
-0.00451092012178,0.0266960660491,-0.0506664667927,-0.0361526980366,-0.0206079544056,0.0475643467365,-0.0462166141209,-15.87,28.89,2.65,1.95,0.63,27.89,-0.12
-0.0052335014793,0.0305550053408,-0.0579953827655,-0.0411728813243,-0.0232752573003,0.054060029492,-0.0523674990065,-15.87,28.89,2.55,1.76,0.64,27.89,-0.1
-0.0052335014793,0.0305550053408,-0.0579953827655,-0.0411728813243,-0.0232752573003,0.054060029492,-0.0523674990065,-15.76,28.89,2.6,1.91,0.59,27.81,-0.09
-0.00465567631406,0.026350639747,-0.0503084436294,-0.0354951927595,-0.0203617638857,0.0473124097247,-0.0456261722335,-15.76,28.89,2.5,1.71,0.59,27.9,-0.07
-0.00486960319143,0.027040703508,-0.0518154862259,-0.0364167764835,-0.0210819585504,0.0489981961864,-0.0471212947142,-15.76,28.89,2.45,1.9,0.59,27.81,-0.07
-0.0046740596584,0.0256380723887,-0.04916941186,-0.0343936233618,-0.0198869019077,0.0468374594243,-0.0444889638145,-15.76,28.89,2.5,1.91,0.59,27.81,-0.06
-0.00469563078487,0.0253354745781,-0.0486451090085,-0.0338072033434,-0.0195156355754,0.0467969522162,-0.0437108585403,-15.76,28.89,2.25,1.66,0.55,27.81,-0.06
-0.00469563078487,0.0253354745781,-0.0486451090085,-0.0338072033434,-0.0195156355754,0.0467969522162,-0.0437108585403,-15.76,28.89,2.4,2.01,0.55,27.71,-0.07
-0.00456127179808,0.0237615000698,-0.0450417644197,-0.0315240178283,-0.0179714439572,0.0440775592469,-0.0400954844829,-15.66,28.89,2.3,1.61,0.5,27.69,-0.07
-0.00455420027246,0.0236786593062,-0.0448521147045,-0.0314038501696,-0.0178901707142,0.0439344333012,-0.0399052016378,-15.66,28.78,2.4,1.81,0.55,27.66,-0.09
-0.0041520659733,0.0216982773151,-0.040785594978,-0.0284911144808,-0.0167299695495,0.0397689861525,-0.0360887276793,-15.76,28.89,2.35,1.86,0.54,27.62,-0.09
-0.00366056849654,0.0192778104371,-0.0358154042011,-0.0249311041944,-0.0153119459038,0.0346778840818,-0.0314241483967,-15.66,28.78,2.4,1.76,0.55,27.71,-0.12
-0.00366056849654,0.0192778104371,-0.0358154042011,-0.0249311041944,-0.0153119459038,0.0346778840818,-0.0314241483967,-15.55,28.78,2.35,1.66,0.59,27.65,-0.1
-0.00338283084218,0.0180449765821,-0.0330687748221,-0.0231210258622,-0.0141995067181,0.031213812146,-0.029341783942,-15.55,28.89,2.35,1.96,0.55,27.57,-0.13
-0.0033682130709,0.0179800905897,-0.0329242153811,-0.0230257585816,-0.0141409572873,0.0310314925704,-0.0292321858129,-15.55,28.68,2.35,1.72,0.54,27.63,-0.13
-0.00331275850107,0.0178978420169,-0.0326512554953,-0.0229067288071,-0.0138146563637,0.0306125863789,-0.0293121879511,-15.66,28.68,2.3,1.72,0.54,27.71,-0.13
-0.00325730393125,0.017815593444,-0.0323782956095,-0.0227876990326,-0.01348835544,0.0301936801874,-0.0293921900894,-15.55,28.78,2.3,1.81,0.54,27.69,-0.13
-0.00320942617602,0.0176598036336,-0.0320679807584,-0.0225894452421,-0.0134302797122,0.029990865301,-0.0293369460478,-15.55,28.78,2.35,1.86,0.54,27.72,-0.15
-0.0029381188964,0.0167769947075,-0.0303095299352,-0.0214660070958,-0.0131011839215,0.0288415809444,-0.0290238964791,-15.55,28.78,2.25,1.67,0.55,27.77,-0.13
-0.0029381188964,0.0167769947075,-0.0303095299352,-0.0214660070958,-0.0131011839215,0.0288415809444,-0.0290238964791,-15.55,28.79,2.25,1.77,0.55,27.77,-0.17
-0.00224740336591,0.0137110895691,-0.0247562442463,-0.0178348295302,-0.0113937076168,0.0252689146164,-0.0254611189551,-15.55,28.68,2.35,1.81,0.55,27.75,-0.18
-0.00187547961872,0.0120602175715,-0.0217660134907,-0.0158795800718,-0.0104742972988,0.0233451712091,-0.0235427002884,-15.55,28.78,2.3,1.86,0.55,27.78,-0.15
-0.00182465998159,0.0118513544508,-0.0213948715367,-0.0156699811242,-0.010319271149,0.0231333626256,-0.023343735495,-15.55,28.68,2.3,1.81,0.55,27.78,-0.17
-0.00153668203784,0.0106677967668,-0.0192917337976,-0.0144822537544,-0.0094407896335,0.0219331139863,-0.0222162683325,-15.55,28.68,2.25,1.72,0.55,27.84,-0.15
-0.00153668203784,0.0106677967668,-0.0192917337976,-0.0144822537544,-0.0094407896335,0.0219331139863,-0.0222162683325,-15.45,28.68,2.25,1.66,0.54,27.83,-0.15
-0.00141304849371,0.0102635342441,-0.0187210607208,-0.0141586399082,-0.00907740491086,0.0221055536261,-0.021728063696,-15.45,28.68,2.2,1.91,0.55,27.81,-0.17
-0.00134647658534,0.0100458544241,-0.0184137752179,-0.0139843862987,-0.00888173621405,0.0221984057398,-0.0214651842763,-15.45,28.68,2.15,1.86,0.54,27.87,-0.13
-0.00130091786674,0.00983712402517,-0.0180496802147,-0.0137759053555,-0.00875528399264,0.0219987823191,-0.0212602727992,-15.45,28.57,2.15,1.72,0.55,27.86,-0.13
-0.00104275179469,0.00865431843122,-0.0159864751965,-0.0125945133438,-0.00803872140465,0.020867582935,-0.0200991077626,-15.45,28.57,2.06,1.71,0.55,27.86,-0.1
-0.00104275179469,0.00865431843122,-0.0159864751965,-0.0125945133438,-0.00803872140465,0.020867582935,-0.0200991077626,-15.45,28.57,2.06,1.81,0.54,27.86,-0.1
-0.000523884489334,0.0065752651673,-0.0126777340977,-0.0102996424975,-0.00692719981502,0.0185533287966,-0.0171312052251,-15.45,28.57,2.1,1.76,0.59,27.83,-0.1
-0.000244494401835,0.00545577494826,-0.0108961042753,-0.00906394281097,-0.00632868818984,0.0173071919529,-0.0155331038587,-15.45,28.68,2.15,1.71,0.59,27.9,-0.1
-0.000200600073763,0.00531185664155,-0.0106924303776,-0.00893789971341,-0.00624593134473,0.0170623247715,-0.0152280194379,-15.45,28.57,2.11,1.86,0.55,27.92,-0.1
4.81344519798e-05,0.00449631957022,-0.00953827829075,-0.00822365549391,-0.0057769758891,0.0156747440767,-0.0134992077196,-15.45,28.57,2.06,1.81,0.54,27.86,-0.09
4.81344519798e-05,0.00449631957022,-0.00953827829075,-0.00822365549391,-0.0057769758891,0.0156747440767,-0.0134992077196,-15.45,28.57,2.06,1.77,0.54,27.84,-0.09
0.000219753727171,0.00387249783331,-0.0086342972428,-0.00744693847174,-0.00533111196069,0.014857032753,-0.01255120698,-15.45,28.57,2.06,1.81,0.55,27.87,-0.07
0.00031216410612,0.00353659382113,-0.00814753821698,-0.00702870622904,-0.00509103138385,0.0144167266556,-0.0120407450432,-15.45,28.57,2.06,1.71,0.59,27.87,-0.07
0.000353045018275,0.00335546049166,-0.00783298005553,-0.00679788099351,-0.00496364944956,0.0140234978535,-0.011684269148,-15.45,28.57,2.11,1.77,0.55,27.8,-0.07
0.00058470352049,0.00232903829134,-0.00605048380731,-0.00548987132554,-0.00424181848857,0.0117952013081,-0.00966423907522,-15.34,28.57,2.06,1.77,0.59,27.84,-0.07
0.00058470352049,0.00232903829134,-0.00605048380731,-0.00548987132554,-0.00424181848857,0.0117952013081,-0.00966423907522,-15.45,28.57,2.06,1.76,0.59,27.89,-0.07
0.000770468137379,0.000741272754712,-0.00335705184116,-0.0036384332466,-0.00313537765866,0.00890614835409,-0.00704711517214,-15.35,28.57,2.11,1.72,0.59,27.75,-0.07
0.000870495238781,-0.000113677918856,-0.00190674232092,-0.00264150505025,-0.00253960182717,0.00735050445577,-0.00563789460895,-15.35,28.57,2.06,1.71,0.59,27.81,-0.06
0.00090038873406,-0.000271391680373,-0.00159921691152,-0.00243572816012,-0.00240160668088,0.00695705390373,-0.00532473455745,-15.45,28.48,2.06,1.9,0.59,27.84,-0.07
0.00106978520731,-0.00116510299564,0.000143427075106,-0.00126965911607,-0.00161963418527,0.00472750077551,-0.00355016093234,-15.35,28.47,2.11,1.9,0.59,27.83,-0.06
0.00106978520731,-0.00116510299564,0.000143427075106,-0.00126965911607,-0.00161963418527,0.00472750077551,-0.00355016093234,-15.35,28.47,2.11,1.81,0.59,27.81,-0.06
0.00129790775774,-0.00236062058411,0.00229587041254,0.000496798858762,-0.000721002623336,0.00248292379602,-0.00165722829362,-15.35,28.47,2.06,1.76,0.59,27.81,-0.06
0.0013381646784,-0.00257159427619,0.00267571335444,0.000808526736673,-0.000562420582995,0.00208682197611,-0.00132318135737,-15.35,28.47,2.11,1.81,0.59,27.81,-0.06
0.00146622660392,-0.00312743134333,0.0037130411346,0.00160484256535,-0.000148666008279,0.00104022322163,-0.000480407436143,-15.35,28.47,2.11,1.77,0.59,27.81,-0.06
0.00170405589417,-0.0041597001823,0.00563950701205,0.00308371481861,0.000619735344765,-0.000903460179558,0.00108474413185,-15.35,28.47,2.11,1.81,0.63,27.81,-0.06
0.00170405589417,-0.0041597001823,0.00563950701205,0.00308371481861,0.000619735344765,-0.000903460179558,0.00108474413185,-15.35,28.47,2.11,1.81,0.63,27.8,-0.06
0.00196789731488,-0.00559051269439,0.00841467380061,0.00473603212749,0.0015611264406,-0.00325154880881,0.00326118156137,-15.35,28.36,2.11,1.81,0.63,27.8,-0.04
0.002011870885,-0.00582898144641,0.0088772015987,0.00501141834564,0.00171802495658,-0.00364289691368,0.00362392113296,-15.35,28.36,2.11,1.86,0.59,27.81,-0.04
0.00090534189825,-0.00262304165088,0.00399474071942,0.00225513825554,0.000773111230459,-0.00163930361116,0.00163076450983,-15.35,28.36,2.15,1.86,0.64,27.8,-0.04
0.0,0.0,0.0,0.0,0.0,0.0,0.0,-15.35,28.36,2.11,1.86,0.63,27.8,-0.04
0.0,0.0,0.0,0.0,0.0,0.0,0.0,-15.35,28.36,2.15,1.86,0.64,27.8,-0.04
0.0,0.0,0.0,0.0,0.0,0.0,0.0,-15.35,28.36,2.11,1.91,0.63,27.8,-0.03
0.0,0.0,0.0,0.0,0.0,0.0,0.0,-15.35,28.36,2.15,1.9,0.64,27.8,-0.03
0.0,0.0,0.0,0.0,0.0,0.0,0.0,-15.35,28.26,2.15,1.9,0.64,27.78,-0.03
0.0,0.0,0.0,0.0,0.0,0.0,0.0,-15.35,28.36,2.15,1.86,0.63,27.78,-0.04
0.0,0.0,0.0,0.0,0.0,0.0,0.0,-15.35,28.36,2.15,1.91,0.64,27.8,-0.04
0.0,0.0,0.0,0.0,0.0,0.0,0.0,-15.35,28.26,2.15,1.91,0.64,27.8,-0.03
0.0,0.0,0.0,0.0,0.0,0.0,0.0,-15.35,28.26,2.15,1.86,0.63,27.78,-0.04
0.0,0.0,0.0,0.0,0.0,0.0,0.0,-15.35,28.36,2.15,1.9,0.63,27.78,-0.03
0.0,0.0,0.0,0.0,0.0,0.0,0.0,-15.35,28.36,2.15,1.91,0.64,27.8,-0.04
0.0,0.0,0.0,0.0,0.0,0.0,0.0,-15.35,28.36,2.15,1.86,0.69,27.78,-0.04
0.0,0.0,0.0,0.0,0.0,0.0,0.0,-15.35,28.36,2.15,1.86,0.64,27.78,-0.04
0.0,0.0,0.0,0.0,0.0,0.0,0.0,-15.35,28.36,2.15,1.9,0.68,27.78,-0.04
0.0,0.0,0.0,0.0,0.0,0.0,0.0,-15.35,28.26,2.15,1.86,0.64,27.78,-0.04
0.0,0.0,0.0,0.0,0.0,0.0,0.0,-15.35,28.36,2.15,1.9,0.64,27.78,-0.03
0.0,0.0,0.0,0.0,0.0,0.0,0.0,-15.35,28.36,2.15,1.86,0.63,27.77,-0.03
0.0,0.0,0.0,0.0,0.0,0.0,0.0,-15.24,28.36,2.15,1.91,0.64,27.8,-0.03
0.0,0.0,0.0,0.0,0.0,0.0,0.0,-15.35,28.36,2.15,1.86,0.64,27.78,-0.03
0.0,0.0,0.0,0.0,0.0,0.0,0.0,-15.35,28.37,2.15,1.86,0.63,27.78,-0.04
0.0,0.0,0.0,0.0,0.0,0.0,0.0,-15.35,28.36,2.2,1.86,0.64,27.78,-0.04
0.0,0.0,0.0,0.0,0.0,0.0,0.0,-15.24,28.36,2.15,1.9,0.63,27.78,-0.04
0.0,0.0,0.0,0.0,0.0,0.0,0.0,-15.35,28.36,2.15,1.86,0.69,27.78,-0.03
0.0,0.0,0.0,0.0,0.0,0.0,0.0,-15.35,28.36,2.15,1.86,0.64,27.78,-0.04
0.0,0.0,0.0,0.0,0.0,0.0,0.0,-15.35,28.36,2.15,1.9,0.63,27.8,-0.03
0.0,0.0,0.0,0.0,0.0,0.0,0.0,-15.35,28.36,2.15,1.86,0.64,27.78,-0.03
0.0,0.0,0.0,0.0,0.0,0.0,0.0,-15.35,28.36,2.15,1.86,0.69,27.8,-0.03
0.0,0.0,0.0,0.0,0.0,0.0,0.0,-15.35,28.36,2.15,1.86,0.64,27.78,-0.03
0.0,0.0,0.0,0.0,0.0,0.0,0.0,-15.35,28.36,2.15,1.91,0.64,27.78,-0.03
0.0,0.0,0.0,0.0,0.0,0.0,0.0,-15.35,28.36,2.15,1.86,0.69,27.78,-0.03
0.0,0.0,0.0,0.0,0.0,0.0,0.0,-15.35,28.36,2.15,1.86,0.63,27.8,-0.03
0.0,0.0,0.0,0.0,0.0,0.0,0.0,-15.35,28.26,2.15,1.86,0.64,27.8,-0.03
0.0,0.0,0.0,0.0,0.0,0.0,0.0,-15.35,28.26,2.15,1.86,0.64,27.8,-0.03
0.0,0.0,0.0,0.0,0.0,0.0,0.0,-15.35,28.26,2.15,1.86,0.64,27.8,-0.04
0.0,0.0,0.0,0.0,0.0,0.0,0.0,-15.35,28.36,2.2,1.9,0.64,27.8,-0.03
0.0,0.0,0.0,0.0,0.0,0.0,0.0,-15.35,28.26,2.15,1.91,0.64,27.8,-0.03
0.0,0.0,0.0,0.0,0.0,0.0,0.0,-15.35,28.26,2.15,1.86,0.64,27.8,-0.04
0.0,0.0,0.0,0.0,0.0,0.0,0.0,-15.35,28.36,2.15,1.86,0.69,27.78,-0.03
0.0,0.0,0.0,0.0,0.0,0.0,0.0,-15.35,28.36,2.15,1.9,0.63,27.78,-0.03
0.0,0.0,0.0,0.0,0.0,0.0,0.0,-15.35,28.36,2.2,1.9,0.63,27.8,-0.03
0.0,0.0,0.0,0.0,0.0,0.0,0.0,-15.35,28.36,2.15,1.91,0.64,27.78,-0.03
0.0,0.0,0.0,0.0,0.0,0.0,0.0,-15.35,28.26,2.15,1.91,0.63,27.78,-0.03
0.0,0.0,0.0,0.0,0.0,0.0,0.0,-15.35,28.36,2.15,1.91,0.69,27.8,-0.03
0.0,0.0,0.0,0.0,0.0,0.0,0.0,-15.35,28.36,2.15,1.9,0.63,27.78,-0.03
0.0,0.0,0.0,0.0,0.0,0.0,0.0,-15.35,28.36,2.15,1.86,0.63,27.78,-0.03
0.0,0.0,0.0,0.0,0.0,0.0,0.0,-15.35,28.36,2.15,1.9,0.63,27.78,-0.03
0.0,0.0,0.0,0.0,0.0,0.0,0.0,-15.35,28.36,2.15,1.86,0.63,27.78,-0.03
0.0,0.0,0.0,0.0,0.0,0.0,0.0,-15.35,28.36,2.15,1.86,0.68,27.8,-0.03
0.0,0.0,0.0,0.0,0.0,0.0,0.0,-15.35,28.37,2.15,1.86,0.68,27.78,-0.03
0.0,0.0,0.0,0.0,0.0,0.0,0.0,-15.24,28.36,2.15,1.86,0.68,27.8,-0.04
0.0,0.0,0.0,0.0,0.0,0.0,0.0,-15.35,28.36,2.15,1.86,0.69,27.8,-0.03
0.0,0.0,0.0,0.0,0.0,0.0,0.0,-15.35,28.26,2.2,1.9,0.69,27.8,-0.04
0.0,0.0,0.0,0.0,0.0,0.0,0.0,-15.35,28.36,2.15,1.86,0.63,27.8,-0.03
0.0,0.0,0.0,0.0,0.0,0.0,0.0,-15.35,28.36,2.15,1.9,0.68,27.8,-0.03
0.0,0.0,0.0,0.0,0.0,0.0,0.0,-15.35,28.26,2.2,1.86,0.64,27.8,-0.03
0.0,0.0,0.0,0.0,0.0,0.0,0.0,-15.35,28.25,2.15,1.91,0.63,27.81,-0.03
0.0,0.0,0.0,0.0,0.0,0.0,0.0,-15.35,28.26,2.15,1.9,0.64,27.8,-0.03
0.0,0.0,0.0,0.0,0.0,0.0,0.0,-15.35,28.36,2.15,1.91,0.68,27.8,-0.03
0.0,0.0,0.0,0.0,0.0,0.0,0.0,-15.35,28.36,2.15,1.91,0.69,27.78,-0.03
0.0,0.0,0.0,0.0,0.0,0.0,0.0,-15.35,28.36,2.15,1.9,0.68,27.78,-0.03
0.0,0.0,0.0,0.0,0.0,0.0,0.0,-15.35,28.26,2.15,1.86,0.63,27.78,-0.03
0.0,0.0,0.0,0.0,0.0,0.0,0.0,-15.35,28.36,2.2,1.91,0.64,27.78,-0.03
0.0,0.0,0.0,0.0,0.0,0.0,0.0,-15.24,28.36,2.15,1.86,0.64,27.78,-0.03
0.0,0.0,0.0,0.0,0.0,0.0,0.0,-15.35,28.36,2.15,1.86,0.68,27.78,-0.03
0.0,0.0,0.0,0.0,0.0,0.0,0.0,-15.35,28.26,2.15,1.9,0.63,27.78,-0.03
0.0,0.0,0.0,0.0,0.0,0.0,0.0,-15.35,28.36,2.15,1.86,0.69,27.78,-0.03
0.0,0.0,0.0,0.0,0.0,0.0,0.0,-15.35,28.36,2.15,1.86,0.63,27.8,-0.03
0.0,0.0,0.0,0.0,0.0,0.0,0.0,-15.35,28.36,2.15,1.86,0.68,27.8,-0.04
0.0,0.0,0.0,0.0,0.0,0.0,0.0,-15.35,28.36,2.15,1.86,0.68,27.8,-0.03
0.0,0.0,0.0,0.0,0.0,0.0,0.0,-15.35,28.26,2.15,1.86,0.63,27.8,-0.03
0.0,0.0,0.0,0.0,0.0,0.0,0.0,-15.35,28.26,2.15,1.86,0.63,27.8,-0.01
0.0,0.0,0.0,0.0,0.0,0.0,0.0,-15.35,28.36,2.15,1.86,0.63,27.8,-0.03
0.0,0.0,0.0,0.0,0.0,0.0,0.0,-15.35,28.26,2.15,1.86,0.68,27.8,-0.03
0.0,0.0,0.0,0.0,0.0,0.0,0.0,-15.35,28.36,2.15,1.9,0.68,27.8,-0.01
0.0,0.0,0.0,0.0,0.0,0.0,0.0,-15.24,28.36,2.2,1.9,0.63,27.8,-0.04
0.0,0.0,0.0,0.0,0.0,0.0,0.0,-15.35,28.36,2.2,1.9,0.68,27.8,-0.03
0.0,0.0,0.0,0.0,0.0,0.0,0.0,-15.24,28.36,2.15,1.86,0.68,27.78,-0.03
0.0,0.0,0.0,0.0,0.0,0.0,0.0,-15.35,28.36,2.2,1.86,0.68,27.8,-0.03
0.0,0.0,0.0,0.0,0.0,0.0,0.0,-15.35,28.26,2.21,1.91,0.63,27.8,-0.04
0.0,0.0,0.0,0.0,0.0,0.0,0.0,-15.35,28.36,2.15,1.91,0.63,27.78,-0.03
0.0,0.0,0.0,0.0,0.0,0.0,0.0,-15.35,28.26,2.15,1.91,0.63,27.8,-0.03
0.0,0.0,0.0,0.0,0.0,0.0,0.0,-15.35,28.26,2.15,1.86,0.69,27.78,-0.03
0.0,0.0,0.0,0.0,0.0,0.0,0.0,-15.35,28.26,2.15,1.9,0.69,27.78,-0.01
0.0,0.0,0.0,0.0,0.0,0.0,0.0,-15.35,28.36,2.15,1.91,0.63,27.78,-0.03
0.0,0.0,0.0,0.0,0.0,0.0,0.0,-15.35,28.36,2.15,1.91,0.68,27.78,-0.03
0.0,0.0,0.0,0.0,0.0,0.0,0.0,-15.35,28.36,2.15,1.9,0.64,27.78,-0.01
0.0,0.0,0.0,0.0,0.0,0.0,0.0,-15.35,28.26,2.15,1.86,0.64,27.78,-0.03
0.0,0.0,0.0,0.0,0.0,0.0,0.0,-15.35,28.36,2.2,1.86,0.68,27.78,-0.03
0.0,0.0,0.0,0.0,0.0,0.0,0.0,-15.35,28.36,2.15,1.86,0.63,27.78,-0.03
0.0,0.0,0.0,0.0,0.0,0.0,0.0,-15.35,28.36,2.2,1.86,0.63,27.78,-0.03
0.0,0.0,0.0,0.0,0.0,0.0,0.0,-15.35,28.26,2.15,1.86,0.69,27.78,-0.03
0.0,0.0,0.0,0.0,0.0,0.0,0.0,-15.24,28.36,2.15,1.86,0.63,27.78,-0.03
0.0,0.0,0.0,0.0,0.0,0.0,0.0,-15.35,28.36,2.15,1.9,0.63,27.78,-0.03
0.0,0.0,0.0,0.0,0.0,0.0,0.0,-15.35,28.36,2.16,1.86,0.68,27.8,-0.03
0.0,0.0,0.0,0.0,0.0,0.0,0.0,-15.35,28.36,2.15,1.9,0.68,27.78,-0.03
0.0,0.0,0.0,0.0,0.0,0.0,0.0,-15.35,28.26,2.15,1.86,0.64,27.78,-0.03
0.0,0.0,0.0,0.0,0.0,0.0,0.0,-15.35,28.36,2.15,1.86,0.69,27.78,-0.03
0.0,0.0,0.0,0.0,0.0,0.0,0.0,-15.35,28.36,2.15,1.9,0.68,27.78,-0.03
0.0,0.0,0.0,0.0,0.0,0.0,0.0,-15.35,28.27,2.15,1.86,0.68,27.8,-0.03
0.0,0.0,0.0,0.0,0.0,0.0,0.0,-15.35,28.36,2.2,1.86,0.63,27.78,-0.03
0.0,0.0,0.0,0.0,0.0,0.0,0.0,-15.35,28.36,2.2,1.86,0.64,27.78,-0.03
0.0,0.0,0.0,0.0,0.0,0.0,0.0,-15.35,28.36,2.15,1.9,0.69,27.8,-0.03
0.0,0.0,0.0,0.0,0.0,0.0,0.0,-15.35,28.36,2.15,1.86,0.63,27.8,-0.03
0.0,0.0,0.0,0.0,0.0,0.0,0.0,-15.35,28.36,2.2,1.9,0.69,27.78,-0.04
0.0,0.0,0.0,0.0,0.0,0.0,0.0,-15.35,28.26,2.2,1.9,0.68,27.8,-0.03
0.0,0.0,0.0,0.0,0.0,0.0,0.0,-15.35,28.26,2.15,1.86,0.63,27.78,-0.03
0.0,0.0,0.0,0.0,0.0,0.0,0.0,-15.35,28.26,2.2,1.9,0.69,27.78,-0.03
0.0,0.0,0.0,0.0,0.0,0.0,0.0,-15.35,28.26,2.15,1.91,0.63,27.78,-0.03
0.0,0.0,0.0,0.0,0.0,0.0,0.0,-15.35,28.26,2.15,1.86,0.63,27.78,-0.03
0.0,0.0,0.0,0.0,0.0,0.0,0.0,-15.35,28.36,2.15,1.86,0.69,27.8,-0.03
0.0,0.0,0.0,0.0,0.0,0.0,0.0,-15.24,28.36,2.2,1.86,0.69,27.78,-0.03
0.0,0.0,0.0,0.0,0.0,0.0,0.0,-15.35,28.37,2.2,1.86,0.64,27.78,-0.03
0.0,0.0,0.0,0.0,0.0,0.0,0.0,-15.35,28.36,2.15,1.86,0.69,27.8,-0.03
0.0,0.0,0.0,0.0,0.0,0.0,0.0,-15.35,28.36,2.15,1.86,0.69,27.8,-0.03
0.0,0.0,0.0,0.0,0.0,0.0,0.0,-15.35,28.36,2.15,1.86,0.68,27.78,-0.03
0.0,0.0,0.0,0.0,0.0,0.0,0.0,-15.35,28.36,2.15,1.86,0.69,27.8,-0.03
0.0,0.0,0.0,0.0,0.0,0.0,0.0,-15.35,28.36,2.15,1.86,0.63,27.78,-0.03
0.0,0.0,0.0,0.0,0.0,0.0,0.0,-15.35,28.26,2.15,1.9,0.68,27.8,-0.03
0.0,0.0,0.0,0.0,0.0,0.0,0.0,-15.24,28.36,2.15,1.91,0.69,27.8,-0.03
0.0,0.0,0.0,0.0,0.0,0.0,0.0,-15.35,28.26,2.16,1.91,0.63,27.78,-0.03
0.0,0.0,0.0,0.0,0.0,0.0,0.0,-15.35,28.36,2.15,1.9,0.69,27.78,-0.03
0.0,0.0,0.0,0.0,0.0,0.0,0.0,-15.35,28.36,2.15,1.86,0.63,27.78,-0.03
0.0,0.0,0.0,0.0,0.0,0.0,0.0,-15.24,28.26,2.15,1.86,0.63,27.78,-0.03
0.0,0.0,0.0,0.0,0.0,0.0,0.0,-15.35,28.36,2.15,1.86,0.63,27.78,-0.03
0.0,0.0,0.0,0.0,0.0,0.0,0.0,-15.35,28.36,2.15,1.86,0.68,27.78,-0.03
0.0,0.0,0.0,0.0,0.0,0.0,0.0,-15.35,28.36,2.15,1.9,0.68,27.78,-0.03
0.0,0.0,0.0,0.0,0.0,0.0,0.0,-15.35,28.36,2.15,1.86,0.63,27.8,-0.03
0.0,0.0,0.0,0.0,0.0,0.0,0.0,-15.24,28.26,2.16,1.9,0.68,27.8,-0.03
0.0,0.0,0.0,0.0,0.0,0.0,0.0,-15.35,28.36,2.15,1.86,0.63,27.78,-0.03
0.0,0.0,0.0,0.0,0.0,0.0,0.0,-15.35,28.36,2.15,1.86,0.64,27.8,-0.03
0.0,0.0,0.0,0.0,0.0,0.0,0.0,-15.35,28.36,2.15,1.86,0.69,27.8,-0.04
0.0,0.0,0.0,0.0,0.0,0.0,0.0,-15.35,28.36,2.15,1.86,0.64,27.8,-0.03
0.0,0.0,0.0,0.0,0.0,0.0,0.0,-15.35,28.36,2.15,1.86,0.63,27.8,-0.03
0.0,0.0,0.0,0.0,0.0,0.0,0.0,-15.35,28.26,2.15,1.86,0.68,27.78,-0.03
0.0,0.0,0.0,0.0,0.0,0.0,0.0,-15.35,28.36,2.15,1.86,0.69,27.8,-0.03
0.0,0.0,0.0,0.0,0.0,0.0,0.0,-15.35,28.36,2.15,1.86,0.68,27.8,-0.03
0.0,0.0,0.0,0.0,0.0,0.0,0.0,-15.35,28.36,2.15,1.9,0.68,27.8,-0.03
0.0,0.0,0.0,0.0,0.0,0.0,0.0,-15.35,28.36,2.15,1.9,0.68,27.8,-0.03
0.0,0.0,0.0,0.0,0.0,0.0,0.0,-15.35,28.26,2.15,1.9,0.69,27.8,-0.03
0.0,0.0,0.0,0.0,0.0,0.0,0.0,-15.35,28.36,2.15,1.91,0.63,27.78,-0.03
0.0,0.0,0.0,0.0,0.0,0.0,0.0,-15.35,28.26,2.15,1.86,0.69,27.8,-0.03
0.0,0.0,0.0,0.0,0.0,0.0,0.0,-15.35,28.36,2.15,1.91,0.68,27.8,-0.03
